#FIG 3.2  Produced by xfig version 3.2.5c
#encoding: UTF-8
Landscape
Center
Metric
A4      
100.00
Single
-2
1200 2
5 1 0 1 0 7 50 -1 -1 0.000 0 0 0 0 630.000 2070.000 630 2025 675 2070 630 2115
5 1 0 1 0 7 50 -1 -1 0.000 0 0 0 0 630.000 2340.000 630 2295 675 2340 630 2385
5 1 0 1 0 7 50 -1 -1 0.000 0 0 0 0 900.000 2070.000 900 2025 945 2070 900 2115
5 1 0 1 0 7 50 -1 -1 0.000 0 1 0 0 4050.000 2070.000 4050 2025 4005 2070 4050 2115
5 1 0 1 0 7 50 -1 -1 0.000 0 1 0 0 4320.000 2070.000 4320 2025 4275 2070 4320 2115
5 1 0 1 0 7 50 -1 -1 0.000 0 1 0 0 4320.000 2340.000 4320 2295 4275 2340 4320 2385
2 1 0 1 0 7 50 -1 -1 0.000 0 0 -1 0 0 2
	 1170 1800 1170 2070
2 1 0 1 0 7 50 -1 -1 0.000 0 0 -1 0 0 2
	 2160 1800 2160 2070
2 1 0 1 0 7 50 -1 -1 0.000 0 0 -1 0 0 2
	 2610 2070 4410 2070
2 1 0 1 0 7 50 -1 -1 0.000 0 0 -1 0 0 2
	 2790 1800 2790 2070
2 1 0 1 0 7 50 -1 -1 0.000 0 0 -1 0 0 2
	 3780 1800 3780 2070
2 1 0 1 0 7 50 -1 -1 0.000 0 0 -1 0 0 2
	 540 2340 4410 2340
2 1 0 1 0 7 50 -1 -1 0.000 0 0 -1 0 0 2
	 540 2610 4410 2610
2 1 0 1 0 7 50 -1 -1 0.000 0 0 -1 0 0 2
	 540 2070 2340 2070
2 2 0 1 0 11 51 -1 36 0.000 0 0 -1 0 0 5
	 450 900 1350 900 1350 1800 450 1800 450 900
2 2 0 1 0 31 52 -1 36 0.000 0 0 -1 0 0 5
	 2025 1080 2925 1080 2925 1800 2025 1800 2025 1080
2 2 0 1 0 19 51 -1 36 0.000 0 0 -1 0 0 5
	 2520 1440 2880 1440 2880 1620 2520 1620 2520 1440
2 2 0 1 0 19 51 -1 36 0.000 0 0 7 0 0 5
	 2070 1440 2430 1440 2430 1620 2070 1620 2070 1440
2 2 0 1 0 13 51 -1 36 0.000 0 0 -1 0 0 5
	 3600 900 4500 900 4500 1800 3600 1800 3600 900
2 2 0 1 0 0 55 -1 20 0.000 0 0 -1 0 0 5
	 495 945 1395 945 1395 1845 495 1845 495 945
2 2 0 1 0 0 55 -1 20 0.000 0 0 -1 0 0 5
	 3645 945 4545 945 4545 1845 3645 1845 3645 945
2 2 0 1 0 0 55 -1 20 0.000 0 0 -1 0 0 5
	 2070 1125 2970 1125 2970 1845 2070 1845 2070 1125
2 1 0 1 0 7 50 -1 -1 0.000 0 0 -1 0 0 2
	 900 1800 900 2025
2 1 0 1 0 7 50 -1 -1 0.000 0 0 -1 0 0 2
	 630 1800 630 2025
2 1 0 1 0 7 50 -1 -1 0.000 0 0 -1 0 0 2
	 630 2115 630 2295
2 1 0 1 0 7 50 -1 -1 0.000 0 0 -1 0 0 2
	 630 2385 630 2610
2 1 0 1 0 7 50 -1 -1 0.000 0 0 -1 0 0 2
	 900 2115 900 2340
2 1 0 1 0 7 50 -1 -1 0.000 0 0 -1 0 0 2
	 4050 1800 4050 2025
2 1 0 1 0 7 50 -1 -1 0.000 0 0 -1 0 0 2
	 4320 1800 4320 2025
2 1 0 1 0 7 50 -1 -1 0.000 0 0 -1 0 0 2
	 4050 2115 4050 2340
2 1 0 1 0 7 50 -1 -1 0.000 0 0 -1 0 0 2
	 4320 2385 4320 2610
2 1 0 1 0 7 50 -1 -1 0.000 0 0 -1 0 0 2
	 4320 2115 4320 2295
4 1 0 50 -1 16 10 0.0000 4 120 345 900 1350 CPU\001
4 1 0 50 -1 16 10 0.0000 4 135 585 4050 1350 Mémoire\001
4 1 0 50 -1 16 10 0.0000 4 120 390 2475 1305 MMU\001
4 1 0 50 -1 17 8 0.0000 4 120 825 2475 2565 bus de contrôle\001
4 1 0 50 -1 17 8 0.0000 4 120 825 2475 2295 bus de données\001
4 1 0 50 -1 17 8 0.0000 4 120 765 1665 2025 bus d'adresses\001
4 1 0 50 -1 17 8 0.0000 4 105 240 2700 1755 base\001
4 1 0 50 -1 17 8 0.0000 4 105 285 2250 1755 limite\001
4 1 0 50 -1 16 6 0.0000 4 75 240 2700 1575 6000\001
4 1 0 50 -1 16 6 0.0000 4 75 300 2250 1575 10000\001
