#FIG 3.2  Produced by xfig version 3.2.7b
#encoding: UTF-8
Portrait
Center
Metric
A4
100.00
Single
-3
1200 2
6 6975 5940 7425 6300
2 1 0 1 0 7 50 0 -1 0.000 0 0 -1 0 0 2
	 7200 5940 7200 6120
4 0 0 50 0 16 8 0.0000 6 90 150 7245 6300 11\001
4 2 0 50 0 16 8 0.0000 6 105 150 7155 6300 12\001
-6
2 2 0 1 0 0 55 -1 20 0.000 0 0 -1 0 0 5
	 585 1215 1125 1215 1125 1395 585 1395 585 1215
2 1 0 1 0 7 50 0 -1 0.000 0 0 -1 0 0 2
	 2025 1665 2025 2430
2 1 0 1 0 7 50 0 -1 0.000 0 0 -1 0 0 2
	 3735 1665 3735 2430
2 2 0 1 0 11 51 0 36 0.000 0 0 7 0 0 5
	 540 1170 1080 1170 1080 1350 540 1350 540 1170
2 2 0 1 0 0 55 -1 20 0.000 0 0 -1 0 0 5
	 5445 495 9045 495 9045 675 5445 675 5445 495
2 1 0 1 0 7 50 0 -1 0.000 0 0 -1 0 0 2
	 7740 450 7740 630
2 1 0 1 0 7 50 0 -1 0.000 0 0 -1 0 0 2
	 6615 450 6615 630
2 2 0 1 0 2 51 -1 34 0.000 0 0 7 0 0 5
	 5400 630 9000 630 9000 450 5400 450 5400 630
2 1 0 1 0 7 50 0 -1 0.000 0 0 -1 0 0 2
	 1710 2115 2610 2115
2 1 0 1 0 7 50 0 -1 0.000 0 0 -1 0 0 2
	 1710 1980 2610 1980
2 1 0 1 0 7 50 0 -1 0.000 0 0 -1 0 0 2
	 3420 1845 4320 1845
2 1 0 1 0 7 50 0 -1 0.000 0 0 -1 0 0 2
	 3420 1980 4320 1980
2 2 0 1 0 19 51 0 36 0.000 0 0 -1 0 0 5
	 1710 1665 2610 1665 2610 2430 1710 2430 1710 1665
2 2 0 1 0 19 51 0 36 0.000 0 0 7 0 0 5
	 3420 1665 4320 1665 4320 2430 3420 2430 3420 1665
2 2 0 1 0 0 55 -1 20 0.000 0 0 -1 0 0 5
	 1755 1710 2655 1710 2655 2475 1755 2475 1755 1710
2 2 0 1 0 0 55 -1 20 0.000 0 0 -1 0 0 5
	 3465 1710 4365 1710 4365 2475 3465 2475 3465 1710
2 2 0 1 0 7 50 -1 -1 0.000 0 0 -1 0 0 5
	 360 180 9270 180 9270 2700 360 2700 360 180
2 1 0 1 0 7 50 0 -1 0.000 0 0 -1 0 0 2
	 7200 3870 7200 4050
2 1 0 1 0 7 50 0 -1 0.000 0 0 -1 0 0 2
	 7200 3870 7200 4050
2 1 0 1 0 7 50 0 -1 0.000 0 0 -1 0 0 2
	 7200 3870 7200 4050
2 1 0 1 0 7 50 0 -1 0.000 0 0 -1 0 0 2
	 7200 3870 7200 4050
2 1 0 1 0 7 50 0 -1 0.000 0 0 -1 0 0 2
	 3060 3870 3060 4050
2 2 0 1 0 0 55 -1 20 0.000 0 0 -1 0 0 5
	 1395 3915 8595 3915 8595 4095 1395 4095 1395 3915
2 2 0 1 0 1 51 -1 34 0.000 0 0 -1 0 0 5
	 1350 3870 8550 3870 8550 4050 1350 4050 1350 3870
2 2 0 1 0 0 55 -1 20 0.000 0 0 -1 0 0 5
	 2565 4455 3285 4455 3285 4635 2565 4635 2565 4455
2 2 0 1 0 11 51 0 36 0.000 0 0 7 0 0 5
	 2520 4410 3240 4410 3240 4590 2520 4590 2520 4410
2 1 0 1 0 7 50 0 -1 0.000 0 0 -1 0 0 2
	 4095 3870 4095 4050
2 1 0 1 0 7 50 0 -1 0.000 0 0 -1 0 0 2
	 5130 3870 5130 4050
2 1 0 1 0 7 50 0 -1 0.000 0 0 -1 0 0 2
	 5130 3870 5130 4050
2 1 0 1 0 7 50 0 -1 0.000 0 0 -1 0 0 2
	 6165 3870 6165 4050
2 1 0 1 0 7 50 0 -1 0.000 0 0 -1 0 0 2
	 6165 3870 6165 4050
2 1 0 1 0 7 50 0 -1 0.000 0 0 -1 0 0 2
	 6165 3870 6165 4050
2 1 0 1 0 7 50 0 -1 0.000 0 0 -1 0 0 2
	 6075 4770 6075 5400
2 1 0 1 0 7 50 0 -1 0.000 0 0 -1 0 0 2
	 5895 5040 6435 5040
2 1 0 1 0 7 50 0 -1 0.000 0 0 -1 0 0 2
	 5895 5130 6435 5130
2 2 0 1 0 19 51 0 36 0.000 0 0 -1 0 0 5
	 5895 4770 6435 4770 6435 5400 5895 5400 5895 4770
2 2 0 1 0 0 55 -1 20 0.000 0 0 -1 0 0 5
	 5940 4815 6480 4815 6480 5445 5940 5445 5940 4815
2 1 0 1 0 7 50 0 -1 0.000 0 0 -1 0 0 2
	 7110 4770 7110 5400
2 1 0 1 0 7 50 0 -1 0.000 0 0 -1 0 0 2
	 6930 5040 7470 5040
2 1 0 1 0 7 50 0 -1 0.000 0 0 -1 0 0 2
	 6930 5130 7470 5130
2 2 0 1 0 19 51 0 36 0.000 0 0 -1 0 0 5
	 6930 4770 7470 4770 7470 5400 6930 5400 6930 4770
2 2 0 1 0 0 55 -1 20 0.000 0 0 -1 0 0 5
	 6975 4815 7515 4815 7515 5445 6975 5445 6975 4815
2 1 0 1 0 7 50 0 -1 0.000 0 0 -1 0 0 2
	 4005 4770 4005 5400
2 1 0 1 0 7 50 0 -1 0.000 0 0 -1 0 0 2
	 3825 5040 4365 5040
2 1 0 1 0 7 50 0 -1 0.000 0 0 -1 0 0 2
	 3825 5130 4365 5130
2 2 0 1 0 19 51 0 36 0.000 0 0 -1 0 0 5
	 3825 4770 4365 4770 4365 5400 3825 5400 3825 4770
2 2 0 1 0 0 55 -1 20 0.000 0 0 -1 0 0 5
	 3870 4815 4410 4815 4410 5445 3870 5445 3870 4815
2 1 0 1 0 7 50 0 -1 0.000 0 0 -1 0 0 2
	 5040 4770 5040 5400
2 1 0 1 0 7 50 0 -1 0.000 0 0 -1 0 0 2
	 4860 5040 5400 5040
2 1 0 1 0 7 50 0 -1 0.000 0 0 -1 0 0 2
	 4860 5130 5400 5130
2 2 0 1 0 19 51 0 36 0.000 0 0 -1 0 0 5
	 4860 4770 5400 4770 5400 5400 4860 5400 4860 4770
2 2 0 1 0 0 55 -1 20 0.000 0 0 -1 0 0 5
	 4905 4815 5445 4815 5445 5445 4905 5445 4905 4815
2 1 0 1 0 7 50 0 -1 0.000 0 0 -1 0 0 2
	 7740 3015 7740 3195
2 2 0 1 0 22 51 -1 34 0.000 0 0 7 0 0 5
	 4680 3015 9000 3015 9000 3195 4680 3195 4680 3015
2 2 0 1 0 0 55 -1 20 0.000 0 0 -1 0 0 5
	 4725 3060 9045 3060 9045 3240 4725 3240 4725 3060
2 2 0 1 0 7 50 -1 -1 0.000 0 0 -1 0 0 5
	 360 3600 9270 3600 9270 6480 360 6480 360 3600
2 2 0 1 0 22 51 -1 34 0.000 0 0 -1 0 0 5
	 1350 5940 8550 5940 8550 6120 1350 6120 1350 5940
2 2 0 1 0 0 55 -1 20 0.000 0 0 -1 0 0 5
	 1395 5985 8595 5985 8595 6165 1395 6165 1395 5985
3 0 0 1 0 7 50 0 -1 0.000 0 1 0 11
	1 1 1.00 60.00 120.00
	 6030 630 6030 765 6030 945 5850 945 1440 945 1260 945
	 1260 1125 1260 1890 1260 2025 1440 2025 1710 2025
	 0.000 1.000 1.000 1.000 1.000 1.000 1.000 1.000
	 1.000 1.000 0.000
3 0 0 1 0 7 50 0 -1 0.000 0 1 0 11
	1 1 1.00 60.00 120.00
	 7200 630 7200 1035 7200 1215 7020 1215 3330 1215 3150 1215
	 3150 1350 3150 1755 3150 1890 3285 1890 3420 1890
	 0.000 1.000 1.000 1.000 1.000 1.000 1.000 1.000
	 1.000 1.000 0.000
3 0 0 3 13 7 50 0 -1 0.000 0 1 0 10
	1 1 1.00 90.00 120.00
	 2295 2025 2745 2025 2880 2025 2880 1935 2880 1530 2880 1395
	 3015 1395 3240 1395 3330 1395 3420 1665
	 0.000 1.000 1.000 1.000 1.000 1.000 1.000 1.000
	 1.000 0.000
3 0 0 3 13 7 50 0 -1 0.000 0 1 0 5
	1 1 1.00 90.00 120.00
	 855 1260 1440 1260 1620 1260 1620 1440 1710 1665
	 0.000 1.000 1.000 1.000 0.000
3 0 1 3 1 7 50 -1 -1 4.000 0 1 0 5
	1 1 1.00 90.00 120.00
	 855 1305 1170 1305 1215 1395 1215 1530 1215 3600
	 0.000 1.000 1.000 1.000 0.000
3 0 1 3 1 7 50 -1 -1 4.000 0 1 0 5
	1 1 1.00 90.00 120.00
	 2295 2070 2745 2070 2835 2070 2835 2205 2835 3600
	 0.000 1.000 1.000 1.000 0.000
3 0 1 3 22 7 50 -1 -1 4.000 0 1 0 7
	1 1 1.00 90.00 120.00
	 1305 3600 1305 1530 1305 1350 1485 1350 1575 1350 1575 1575
	 1665 1665
	 0.000 1.000 1.000 1.000 1.000 1.000 0.000
3 0 1 3 22 7 50 -1 -1 4.000 0 1 0 6
	1 1 1.00 90.00 120.00
	 2925 3600 2925 1665 2925 1440 3240 1440 3285 1575 3375 1620
	 0.000 1.000 1.000 1.000 1.000 0.000
3 0 1 3 22 7 50 -1 -1 4.000 0 1 0 8
	1 1 1.00 90.00 120.00
	 4545 3600 4545 2205 4545 1935 4680 1935 5355 1935 5490 1935
	 5490 2160 5490 3015
	 0.000 1.000 1.000 1.000 1.000 1.000 1.000 0.000
3 0 0 3 13 7 50 0 -1 0.000 0 1 0 6
	1 1 1.00 90.00 120.00
	 4185 1890 5355 1890 5580 1890 5580 2115 5580 2835 5580 3015
	 0.000 1.000 1.000 1.000 1.000 0.000
3 0 0 1 0 7 50 0 -1 0.000 0 1 0 2
	1 1 1.00 60.00 120.00
	 8370 630 8370 3015
	 0.000 0.000
3 0 1 3 1 7 50 -1 -1 4.000 0 1 0 5
	1 1 1.00 90.00 120.00
	 4185 1935 4365 1935 4455 1935 4455 2160 4455 3600
	 0.000 1.000 1.000 1.000 0.000
3 0 0 1 0 7 50 0 -1 0.000 0 1 0 2
	1 1 1.00 60.00 120.00
	 7920 4050 7920 5940
	 0.000 0.000
3 0 0 1 0 7 50 0 -1 0.000 0 1 0 5
	1 1 1.00 60.00 120.00
	 2970 4500 3555 4500 3735 4500 3780 4590 3825 4770
	 0.000 1.000 1.000 1.000 0.000
3 0 0 1 0 7 50 -1 -1 0.000 0 1 0 5
	1 1 1.00 60.00 120.00
	 5670 4050 5670 4995 5670 5085 5760 5085 5895 5085
	 0.000 1.000 1.000 1.000 0.000
3 0 0 1 0 7 50 -1 -1 0.000 0 1 0 5
	1 1 1.00 60.00 120.00
	 6705 4050 6705 4995 6705 5085 6795 5085 6930 5085
	 0.000 1.000 1.000 1.000 0.000
3 0 0 1 0 7 50 0 -1 0.000 0 1 0 10
	1 1 1.00 60.00 120.00
	 6255 5085 6480 5085 6570 5085 6570 4995 6570 4770 6570 4590
	 6660 4590 6795 4590 6885 4590 6930 4770
	 0.000 1.000 1.000 1.000 1.000 1.000 1.000 1.000
	 1.000 0.000
3 0 0 1 0 7 50 -1 -1 0.000 0 1 0 5
	1 1 1.00 60.00 120.00
	 3600 4050 3600 4995 3600 5085 3690 5085 3825 5085
	 0.000 1.000 1.000 1.000 0.000
3 0 0 1 0 7 50 0 -1 0.000 0 1 0 10
	1 1 1.00 60.00 120.00
	 4185 5085 4410 5085 4500 5085 4500 4995 4500 4770 4500 4590
	 4590 4590 4725 4590 4815 4590 4860 4770
	 0.000 1.000 1.000 1.000 1.000 1.000 1.000 1.000
	 1.000 0.000
3 0 0 1 0 7 50 -1 -1 0.000 0 1 0 5
	1 1 1.00 60.00 120.00
	 4635 4050 4635 4995 4635 5085 4725 5085 4860 5085
	 0.000 1.000 1.000 1.000 0.000
3 0 0 1 0 7 50 0 -1 0.000 0 1 0 10
	1 1 1.00 60.00 120.00
	 5220 5085 5445 5085 5535 5085 5535 4995 5535 4770 5535 4590
	 5625 4590 5760 4590 5850 4590 5895 4770
	 0.000 1.000 1.000 1.000 1.000 1.000 1.000 1.000
	 1.000 0.000
3 0 0 1 0 7 50 -1 -1 0.000 0 1 0 11
	1 1 1.00 60.00 120.00
	 7335 5085 7650 5085 7740 5085 7740 5265 7740 5490 7740 5670
	 7560 5670 4410 5670 4230 5670 4230 5805 4230 5940
	 0.000 1.000 1.000 1.000 1.000 1.000 1.000 1.000
	 1.000 1.000 0.000
4 1 0 50 0 17 8 0.0000 6 105 495 2295 1620 adresse\001
4 1 0 50 0 17 8 0.0000 6 135 150 1845 1620 flg\001
4 1 0 50 0 17 8 0.0000 6 135 930 2160 1485 Page Directory\001
4 1 0 50 0 17 8 0.0000 6 135 150 3555 1620 flg\001
4 1 0 50 0 17 8 0.0000 6 105 495 4005 1620 adresse\001
4 1 0 50 0 17 8 0.0000 6 135 705 3870 1485 Page Table\001
4 1 0 50 0 17 8 0.0000 6 135 570 6030 585 Directory\001
4 1 0 50 0 17 8 0.0000 6 135 315 7155 585 Page\001
4 1 0 50 0 17 8 0.0000 6 105 390 8415 585 Offset\001
4 2 0 50 0 16 8 0.0000 6 105 150 6570 810 22\001
4 0 0 50 0 16 8 0.0000 6 105 150 6660 810 21\001
4 2 0 50 0 16 8 0.0000 6 105 150 7695 810 12\001
4 0 0 50 0 16 8 0.0000 6 90 150 7785 810 11\001
4 2 0 50 0 16 8 0.0000 6 105 75 8955 810 0\001
4 0 0 50 0 16 8 0.0000 6 105 150 5445 810 31\001
4 1 13 50 0 19 8 0.0000 6 135 1260 7200 360 Adresse logique "invité"\001
4 1 0 50 0 17 8 0.0000 6 105 285 810 1125 CR3\001
4 0 0 50 -1 17 10 0.0000 4 165 1290 450 360 Table de pages "invité"\001
4 2 0 50 0 16 8 0.0000 6 105 75 8505 4230 0\001
4 0 0 50 0 16 8 0.0000 6 90 150 7245 4230 11\001
4 2 0 50 0 16 8 0.0000 6 105 150 7155 4230 12\001
4 0 0 50 0 16 8 0.0000 6 105 150 6210 4230 20\001
4 2 0 50 0 16 8 0.0000 6 105 150 6120 4230 21\001
4 0 0 50 0 16 8 0.0000 6 105 150 5175 4230 29\001
4 2 0 50 0 16 8 0.0000 6 105 150 5085 4230 30\001
4 0 0 50 0 16 8 0.0000 6 105 150 4140 4230 38\001
4 2 0 50 0 16 8 0.0000 6 105 150 4050 4230 39\001
4 2 0 50 0 16 8 0.0000 6 105 150 3015 4230 48\001
4 0 0 50 0 16 8 0.0000 6 105 150 3105 4230 47\001
4 0 0 50 0 16 8 0.0000 6 105 150 1395 4230 63\001
4 2 0 50 0 17 8 0.0000 6 105 360 2475 4545 EPTP\001
4 2 0 50 0 16 6 0.0000 6 75 60 5850 4860 0\001
4 1 0 50 0 17 6 0.0000 6 120 120 5985 4725 flg\001
4 1 0 50 0 17 6 0.0000 6 90 390 6255 4725 adresse\001
4 2 0 50 0 16 6 0.0000 6 75 60 6885 4860 0\001
4 1 0 50 0 17 6 0.0000 6 120 120 7020 4725 flg\001
4 1 0 50 0 17 6 0.0000 6 90 390 7290 4725 adresse\001
4 2 0 50 0 16 6 0.0000 6 75 60 3780 4860 0\001
4 1 0 50 0 17 6 0.0000 6 120 120 3915 4725 flg\001
4 1 0 50 0 17 6 0.0000 6 90 390 4185 4725 adresse\001
4 1 0 50 0 17 6 0.0000 6 75 120 4185 5535 52\001
4 1 0 50 0 17 6 0.0000 6 75 120 3915 5535 12\001
4 2 0 50 0 16 6 0.0000 6 75 60 4815 4860 0\001
4 1 0 50 0 17 6 0.0000 6 120 120 4950 4725 flg\001
4 1 0 50 0 17 6 0.0000 6 90 390 5220 4725 adresse\001
4 1 0 50 0 17 6 0.0000 6 75 120 5220 5535 52\001
4 1 0 50 0 17 6 0.0000 6 75 120 4950 5535 12\001
4 1 0 50 0 17 6 0.0000 6 75 120 6255 5535 52\001
4 1 0 50 0 17 6 0.0000 6 75 120 5985 5535 12\001
4 1 0 50 0 17 6 0.0000 6 75 120 7290 5535 52\001
4 1 0 50 0 17 6 0.0000 6 75 120 7020 5535 12\001
4 2 0 50 0 16 8 0.0000 6 105 75 8955 3375 0\001
4 0 0 50 0 16 8 0.0000 6 90 150 7785 3375 11\001
4 2 0 50 0 16 8 0.0000 6 105 150 7695 3375 12\001
4 1 22 50 0 19 8 0.0000 6 135 1170 7380 2925 Adresse physique "hôte"\001
4 0 0 50 0 16 8 0.0000 6 105 150 4680 3375 63\001
4 0 0 50 -1 17 10 0.0000 4 165 120 450 5130 Mécanisme de traduction EPT\001
4 1 0 50 0 17 8 0.0000 6 105 150 1845 2610 12\001
4 1 0 50 0 17 8 0.0000 6 105 150 2295 2610 20\001
4 1 0 50 0 17 8 0.0000 6 105 150 3555 2610 12\001
4 1 0 50 0 17 8 0.0000 6 105 150 4005 2610 20\001
4 2 0 50 0 16 8 0.0000 6 105 75 8505 6300 0\001
4 0 0 50 0 16 8 0.0000 6 105 150 1395 6300 63\001
4 0 1 50 0 19 8 0.0000 6 135 1350 1440 3780 Adresse physique "invité"\001
4 0 22 50 0 19 8 0.0000 6 135 1170 1440 5850 Adresse physique "hôte"\001
