#FIG 3.2  Produced by xfig version 3.2.8b
#encoding: UTF-8
Landscape
Center
Metric
A4
100.00
Single
-2
1200 2
2 1 0 1 0 7 51 -1 -1 0.000 0 0 -1 0 0 2
	 450 1800 630 1800
2 1 0 1 0 7 51 -1 -1 0.000 0 0 -1 1 0 2
	1 1 1.00 60.00 90.00
	 1350 1800 5400 1800
2 1 0 1 10 7 51 -1 -1 0.000 0 0 -1 0 0 2
	 450 1710 450 1890
2 1 0 1 18 7 51 -1 -1 0.000 0 0 7 0 0 2
	 4950 1755 4950 1845
2 1 0 1 10 7 51 -1 -1 0.000 0 0 -1 0 0 2
	 3690 1710 3690 1890
2 1 1 1 0 7 51 -1 -1 2.000 0 0 -1 0 0 2
	 630 1800 1350 1800
2 1 0 1 0 7 51 -1 -1 0.000 0 0 -1 0 0 2
	 675 1755 585 1845
2 1 0 1 0 7 51 -1 -1 0.000 0 0 -1 0 0 2
	 1395 1755 1305 1845
3 0 0 1 18 7 50 -1 -1 0.000 0 0 0 8
	 4905 1620 4905 1575 4860 1530 4770 1530 4455 1530 4365 1530
	 4320 1485 4320 1440
	 0.000 1.000 1.000 1.000 1.000 1.000 1.000 0.000
3 0 0 1 18 7 50 -1 -1 0.000 0 0 0 8
	 3735 1620 3735 1575 3780 1530 3870 1530 4185 1530 4275 1530
	 4320 1485 4320 1440
	 0.000 1.000 1.000 1.000 1.000 1.000 1.000 0.000
3 0 0 1 10 7 50 -1 -1 0.000 0 0 0 8
	 495 1620 495 1575 540 1530 630 1530 1935 1530 2025 1530
	 2070 1485 2070 1440
	 0.000 1.000 1.000 1.000 1.000 1.000 1.000 0.000
3 0 0 1 10 7 50 -1 -1 0.000 0 0 0 8
	 3645 1620 3645 1575 3600 1530 3510 1530 2205 1530 2115 1530
	 2070 1485 2070 1440
	 0.000 1.000 1.000 1.000 1.000 1.000 1.000 0.000
4 2 0 50 -1 16 7 0.0000 4 120 315 5355 1980 temps\001
4 0 10 50 -1 16 8 0.0000 4 105 75 450 2025 0\001
4 0 10 50 -1 17 7 0.0000 4 120 1155 450 2160 (01/01/1970 00h00'00")\001
4 2 0 51 -1 17 6 0.0000 4 105 1080 5355 2115 (échelle non linéaire !)\001
4 1 10 50 -1 16 8 0.0000 4 105 885 3690 2025 1 500 000 000\001
4 1 10 50 -1 17 7 0.0000 4 120 1155 3690 2160 (14/07/2017 02h40'00")\001
4 1 10 50 -1 16 8 0.0000 4 135 1320 2070 1350 depuis 01/01/1970 ...\001
4 1 10 50 -1 16 8 0.0000 4 105 2130 2070 1215 1 500 000 000 secondes écoulées\001
4 1 18 50 -1 16 8 0.0000 4 135 1050 4320 1335 depuis 02h40'00"\001
4 1 18 50 -1 16 8 0.0000 4 105 1290 4320 1215 123 456 us écoulées\001
