#FIG 3.2  Produced by xfig version 3.2.7b
#encoding: UTF-8
Portrait
Center
Metric
A4
100.00
Single
-3
1200 2
6 1845 3375 3960 3600
3 0 0 1 0 7 50 0 -1 4.000 0 1 0 5
	1 1 1.00 60.00 120.00
	 2970 3600 3285 3375 3510 3375 3780 3375 3960 3600
	 0.000 1.000 1.000 1.000 0.000
3 0 0 1 0 7 50 0 -1 4.000 0 1 0 5
	1 1 1.00 60.00 120.00
	 1845 3600 2160 3375 2385 3375 2655 3375 2835 3600
	 0.000 1.000 1.000 1.000 0.000
-6
2 1 0 1 0 7 50 0 -1 4.000 0 0 -1 1 0 2
	1 1 1.00 60.00 120.00
	 6525 1530 6525 4725
2 1 0 1 0 7 50 0 -1 4.000 0 0 -1 0 0 2
	 1350 3060 2475 3060
2 1 0 1 0 7 50 0 -1 4.000 0 0 -1 0 0 2
	 1350 3240 2475 3240
2 1 0 1 0 7 50 0 -1 4.000 0 0 -1 0 0 2
	 1530 2880 1530 4230
2 1 0 1 0 7 50 0 -1 4.000 0 0 -1 0 0 2
	 1935 2880 1935 4230
2 1 0 1 0 7 50 0 -1 4.000 0 0 -1 0 0 2
	 1350 4050 2475 4050
2 2 0 1 0 7 50 0 -1 4.000 0 0 -1 0 0 5
	 1350 3510 2475 3510 2475 3690 1350 3690 1350 3510
2 1 0 1 0 7 50 0 -1 4.000 0 0 -1 0 0 2
	 2475 3060 3600 3060
2 1 0 1 0 7 50 0 -1 4.000 0 0 -1 0 0 2
	 2475 3240 3600 3240
2 1 0 1 0 7 50 0 -1 4.000 0 0 -1 0 0 2
	 2655 2880 2655 4230
2 1 0 1 0 7 50 0 -1 4.000 0 0 -1 0 0 2
	 3060 2880 3060 4230
2 1 0 1 0 7 50 0 -1 4.000 0 0 -1 0 0 2
	 2475 4050 3600 4050
2 2 0 1 0 7 50 0 -1 4.000 0 0 -1 0 0 5
	 2475 3510 3600 3510 3600 3690 2475 3690 2475 3510
2 1 0 1 0 7 50 0 -1 4.000 0 0 -1 0 0 2
	 4725 3060 5850 3060
2 1 0 1 0 7 50 0 -1 4.000 0 0 -1 0 0 2
	 4725 3240 5850 3240
2 1 0 1 0 7 50 0 -1 4.000 0 0 -1 0 0 2
	 4905 2880 4905 4230
2 1 0 1 0 7 50 0 -1 4.000 0 0 -1 0 0 2
	 5310 2880 5310 4230
2 1 0 1 0 7 50 0 -1 4.000 0 0 -1 0 0 2
	 4725 4050 5850 4050
2 2 0 1 0 7 50 0 -1 4.000 0 0 -1 0 0 5
	 4725 3510 5850 3510 5850 3690 4725 3690 4725 3510
2 1 0 1 0 7 50 0 -1 4.000 0 0 -1 0 0 2
	 3600 3060 4725 3060
2 1 0 1 0 7 50 0 -1 4.000 0 0 -1 0 0 2
	 3600 3240 4725 3240
2 1 0 1 0 7 50 0 -1 4.000 0 0 -1 0 0 2
	 3780 2880 3780 4230
2 1 0 1 0 7 50 0 -1 4.000 0 0 -1 0 0 2
	 4185 2880 4185 4230
2 1 0 1 0 7 50 0 -1 4.000 0 0 -1 0 0 2
	 3600 4050 4725 4050
2 2 0 1 0 7 50 0 -1 4.000 0 0 -1 0 0 5
	 3600 3510 4725 3510 4725 3690 3600 3690 3600 3510
2 1 0 1 0 7 50 0 -1 0.000 0 0 -1 0 0 2
	 5850 4770 5850 4950
2 2 0 1 0 1 51 -1 36 0.000 0 0 7 0 0 5
	 3600 4770 7200 4770 7200 4950 3600 4950 3600 4770
2 2 0 1 0 0 55 -1 20 0.000 0 0 -1 0 0 5
	 3645 4815 7245 4815 7245 4995 3645 4995 3645 4815
2 2 0 1 0 0 55 -1 20 0.000 0 0 -1 0 0 5
	 1395 2925 5895 2925 5895 4275 1395 4275 1395 2925
2 2 0 1 0 19 51 0 37 0.000 0 0 7 0 0 5
	 1350 2880 2475 2880 2475 4230 1350 4230 1350 2880
2 1 0 1 0 7 50 0 -1 0.000 0 0 -1 0 0 4
	 3600 1800 3600 1890 5850 1890 5850 1800
2 1 0 1 0 7 50 0 -1 0.000 0 0 -1 0 0 2
	 5400 1800 5400 1890
2 1 2 1 0 7 50 0 -1 3.000 0 0 -1 0 0 2
	 3600 1530 3600 1800
2 1 2 1 0 7 50 0 -1 3.000 0 0 -1 0 0 2
	 5850 1530 5850 1800
2 2 0 1 0 2 51 -1 36 0.000 0 0 7 0 0 5
	 3600 1305 7200 1305 7200 1485 3600 1485 3600 1305
2 1 0 1 0 7 50 0 -1 0.000 0 0 -1 0 0 2
	 5850 1305 5850 1485
2 2 0 1 0 0 55 -1 20 0.000 0 0 7 0 0 5
	 3645 1350 7245 1350 7245 1530 3645 1530 3645 1350
2 2 0 1 0 19 51 0 37 0.000 0 0 7 0 0 5
	 2475 2880 3600 2880 3600 4230 2475 4230 2475 2880
2 2 0 1 0 19 51 0 37 0.000 0 0 7 0 0 5
	 3600 2880 4725 2880 4725 4230 3600 4230 3600 2880
2 2 0 1 0 19 51 0 37 0.000 0 0 7 0 0 5
	 4725 2880 5850 2880 5850 4230 4725 4230 4725 2880
3 0 0 1 0 7 50 0 -1 4.000 0 1 0 11
	1 1 1.00 60.00 120.00
	 5625 1890 5625 2070 5625 2250 5445 2250 1080 2250 900 2250
	 900 2430 900 3105 900 3600 1125 3600 1305 3600
	 0.000 1.000 1.000 1.000 1.000 1.000 1.000 1.000
	 1.000 1.000 0.000
3 0 0 1 0 7 50 0 -1 4.000 0 1 0 12
	1 1 1.00 60.00 120.00
	 4500 1890 4500 1935 4500 2070 4320 2070 810 2070 630 2070
	 630 2250 630 3555 630 3780 675 4005 1125 4005 1665 3600
	 0.000 1.000 1.000 1.000 1.000 1.000 1.000 1.000
	 1.000 1.000 1.000 0.000
3 0 0 1 0 7 51 0 -1 0.000 0 1 0 6
	1 1 1.00 60.00 120.00
	 4455 3600 4455 4005 4455 4185 4725 4320 4725 4455 4725 4725
	 0.000 1.000 1.000 1.000 1.000 0.000
4 2 0 50 0 16 8 0.0000 6 105 75 1305 3015 0\001
4 2 0 50 0 16 8 0.0000 6 90 75 1305 3195 1\001
4 2 0 50 0 16 8 0.0000 6 105 150 1305 4185 15\001
4 1 0 50 0 16 8 0.0000 6 135 150 1440 2835 flg\001
4 1 0 50 0 16 8 0.0000 6 120 195 1710 2835 tag\001
4 1 0 50 0 17 8 0.0000 6 135 375 1890 2655 way 0\001
4 1 0 50 0 16 8 0.0000 6 135 150 2565 2835 flg\001
4 1 0 50 0 16 8 0.0000 6 120 195 2835 2835 tag\001
4 1 0 50 0 16 8 0.0000 6 105 495 3330 2835 adresse\001
4 1 0 50 0 16 8 0.0000 6 135 150 4815 2835 flg\001
4 1 0 50 0 16 8 0.0000 6 120 195 5085 2835 tag\001
4 1 0 50 0 16 8 0.0000 6 105 495 5580 2835 adresse\001
4 1 0 50 0 16 8 0.0000 6 135 150 3690 2835 flg\001
4 1 0 50 0 16 8 0.0000 6 120 195 3960 2835 tag\001
4 1 0 50 0 16 8 0.0000 6 105 495 4455 2835 adresse\001
4 1 0 50 0 17 8 0.0000 6 120 375 3015 2655 way 1\001
4 1 0 50 0 17 8 0.0000 6 135 375 4140 2655 way 2\001
4 1 0 50 0 17 8 0.0000 6 135 375 5265 2655 way 3\001
4 2 0 50 0 19 8 0.0000 6 135 1230 3510 4905 Adresse physique\001
4 1 0 50 0 16 8 0.0000 6 105 495 2205 2835 adresse\001
4 2 0 50 0 16 8 0.0000 6 105 75 7155 5130 0\001
4 0 0 50 0 16 8 0.0000 6 90 150 5895 5130 11\001
4 2 0 50 0 16 8 0.0000 6 105 150 5805 5130 12\001
4 0 0 50 0 16 8 0.0000 6 105 150 3645 5130 31\001
4 1 0 50 0 16 8 0.0000 6 105 150 1710 4410 16\001
4 1 0 50 0 16 8 0.0000 6 105 150 2205 4410 20\001
4 1 0 50 0 16 8 0.0000 6 105 150 2835 4410 16\001
4 1 0 50 0 16 8 0.0000 6 105 150 3330 4410 20\001
4 1 0 50 0 16 8 0.0000 6 105 150 3960 4410 16\001
4 1 0 50 0 16 8 0.0000 6 105 150 4455 4410 20\001
4 1 0 50 0 16 8 0.0000 6 105 150 5085 4410 16\001
4 1 0 50 0 16 8 0.0000 6 105 150 5580 4410 20\001
4 1 0 50 0 16 8 0.0000 6 105 150 4500 1845 16\001
4 1 0 50 0 16 8 0.0000 6 105 75 5625 1845 4\001
4 2 0 50 0 19 8 0.0000 6 135 1125 3510 1440 Adresse logique\001
4 0 0 50 0 16 8 0.0000 6 105 150 3645 1665 31\001
4 2 0 50 0 16 8 0.0000 6 105 150 5805 1665 12\001
4 0 0 50 0 16 8 0.0000 6 90 150 5895 1665 11\001
4 2 0 50 0 16 8 0.0000 6 105 75 7155 1665 0\001
