#FIG 3.2  Produced by xfig version 3.2.7b
#encoding: UTF-8
Landscape
Center
Metric
A4
100.00
Single
-2
1200 2
0 32 #c6b797
0 33 #eff8ff
0 34 #dccba6
0 35 #404040
0 36 #808080
0 37 #c0c0c0
0 38 #e0e0e0
0 39 #8e8f8e
0 40 #aaaaaa
0 41 #555555
0 42 #bebebe
0 43 #515151
0 44 #e7e3e7
0 45 #000049
0 46 #797979
0 47 #303430
0 48 #414141
0 49 #c7b696
0 50 #8e8e8e
0 51 #414541
0 52 #8e8e8e
0 53 #cccccc
0 54 #868286
0 55 #c7c3c7
0 56 #444444
0 57 #868686
0 58 #c7c7c7
0 59 #e7e7e7
0 60 #f7f7f7
0 61 #9e9e9e
0 62 #717571
0 63 #effbff
0 64 #666666
0 65 #909090
0 66 #e6e4ce
0 67 #9b9b9b
0 68 #ce9100
0 69 #f762aa
0 70 #7070ff
0 71 #5f5f5f
0 72 #e2e2ee
0 73 #94949a
0 74 #dbdbdb
0 75 #a1a1b7
0 76 #9c0000
0 77 #000000
0 78 #ffffff
0 79 #dd9d93
0 80 #f1ece0
0 81 #c3c3c3
0 82 #e2c8a8
0 83 #e1e1e1
0 84 #d2d2d2
0 85 #ededed
0 86 #da7a1a
0 87 #f1e41a
0 88 #887dc2
0 89 #d6d6d6
0 90 #8c8ca5
0 91 #4a4a4a
0 92 #5a5a5a
0 93 #636363
0 94 #b79b73
0 95 #4193ff
0 96 #bf703b
0 97 #db7700
0 98 #dab800
0 99 #006400
0 100 #5a6b3b
0 101 #d3d3d3
0 102 #8e8ea4
0 103 #f3b95d
0 104 #89996b
0 105 #646464
0 106 #b7e6ff
0 107 #86c0ec
0 108 #bdbdbd
0 109 #d39552
0 110 #98d2fe
0 111 #8c6b6b
0 112 #8c9c6b
0 113 #f76b00
0 114 #5a6b39
0 115 #8c9c6b
0 116 #8c9c7b
0 117 #184a18
0 118 #adadad
0 119 #f7bd5a
0 120 #636b9c
0 121 #de0000
0 122 #adadad
0 123 #f3eed3
0 124 #f5ae5d
0 125 #95ce99
0 126 #b5157d
0 127 #eeeeee
0 128 #848484
0 129 #7b7b7b
0 130 #005a00
0 131 #e77373
0 132 #ffcb31
0 133 #29794a
0 134 #de2821
0 135 #2159c6
0 136 #f8f8f8
0 137 #e6e6e6
0 138 #a5b5c6
0 139 #6b6b94
0 140 #846b6b
0 141 #529c4a
0 142 #d6e7e7
0 143 #526363
0 144 #186b4a
0 145 #21845a
0 146 #dedede
0 147 #526b29
0 148 #949494
0 149 #006300
0 150 #9ca5b5
0 151 #ff9400
0 152 #ff9400
0 153 #00634a
0 154 #7b844a
0 155 #63737b
0 156 #e7bd7b
1 1 0 1 0 31 51 0 36 0.000 1 0.0000 2925 630 450 181 2925 630 3375 630
1 1 0 1 0 31 53 0 36 0.000 1 0.0000 2925 1530 450 181 2925 1530 3375 1530
1 1 0 1 0 20 55 0 36 0.000 1 0.0000 2925 2070 450 181 2925 2070 3375 2070
1 1 0 1 0 0 60 0 20 0.000 1 0.0000 2970 675 450 181 2970 675 3420 675
1 1 0 1 0 0 60 0 20 0.000 1 0.0000 2970 2115 450 181 2970 2115 3420 2115
2 2 0 1 0 11 50 -1 36 0.000 0 0 -1 0 0 5
	 900 450 1800 450 1800 720 900 720 900 450
2 2 0 1 0 13 50 -1 36 0.000 0 0 -1 0 0 5
	 900 720 1800 720 1800 900 900 900 900 720
2 2 0 1 0 13 50 -1 36 0.000 0 0 -1 0 0 5
	 900 900 1800 900 1800 1260 900 1260 900 900
2 2 0 1 0 13 50 -1 36 0.000 0 0 -1 0 0 5
	 900 1260 1800 1260 1800 1440 900 1440 900 1260
2 2 0 1 0 13 50 -1 36 0.000 0 0 -1 0 0 5
	 900 1620 1800 1620 1800 1890 900 1890 900 1620
2 2 0 1 0 13 50 -1 36 0.000 0 0 -1 0 0 5
	 900 1890 1800 1890 1800 2250 900 2250 900 1890
2 2 0 1 0 7 51 -1 18 0.000 0 0 -1 0 0 5
	 900 450 1800 450 1800 2250 900 2250 900 450
2 2 0 1 0 0 60 -1 20 0.000 0 0 -1 0 0 5
	 945 495 1845 495 1845 2295 945 2295 945 495
2 1 0 1 0 7 51 0 -1 0.000 0 0 -1 0 0 2
	 3375 630 3375 2070
2 1 0 1 0 7 51 0 -1 0.000 0 0 -1 0 0 2
	 2475 630 2475 2070
2 2 0 0 7 31 52 0 36 0.000 0 0 -1 0 0 5
	 2475 630 3375 630 3375 1528 2475 1528 2475 630
2 2 0 0 7 20 54 -1 36 0.000 0 0 -1 0 0 5
	 2475 1530 3375 1530 3375 2070 2475 2070 2475 1530
2 2 0 1 0 0 69 -1 20 0.000 0 0 -1 0 0 5
	 2520 675 3420 675 3420 2115 2520 2115 2520 675
3 0 1 3 4 0 50 -1 -1 4.000 0 1 0 3
	1 1 1.00 60.00 120.00
	 1710 1350 2115 1350 2475 1710
	 0.000 1.000 0.000
4 1 0 50 -1 20 6 0.0000 4 90 225 1350 630 noyau\001
4 1 0 50 -1 20 6 0.0000 4 90 465 1350 855 processus 1\001
4 1 0 50 -1 20 6 0.0000 4 90 465 1350 1080 processus 2\001
4 1 0 50 -1 20 6 0.0000 4 90 465 1350 1395 processus 3\001
4 1 0 50 -1 20 6 0.0000 4 90 465 1350 1800 processus 4\001
4 1 0 50 -1 20 6 0.0000 4 90 465 1350 2115 processus 5\001
4 1 0 50 -1 21 6 0.0000 4 90 150 1350 1575 libre\001
4 1 0 50 -1 20 8 0.0000 4 105 420 1350 225 mémoire\001
4 1 0 50 -1 20 8 0.0000 4 135 450 1350 390 physique\001
4 1 0 50 -1 21 6 0.0000 4 120 330 2925 990 système\001
4 1 0 50 -1 21 6 0.0000 4 75 195 2925 2025 swap\001
4 1 0 50 -1 21 6 0.0000 4 90 300 2925 1890 zone de\001
4 1 0 50 -1 21 6 0.0000 4 90 390 2925 1125 de fichiers\001
4 1 0 50 -1 20 8 0.0000 4 135 330 2925 360 disque\001
4 1 0 50 -1 21 6 0.0000 4 90 435 2115 1305 évincement\001
