#FIG 3.2  Produced by xfig version 3.2.7b
#encoding: UTF-8
Landscape
Center
Metric
A4
100.00
Single
-2
1200 2
6 3248 870 3863 1035
4 1 0 50 -1 17 4 0.0000 4 90 615 3555 945 table de premier\001
4 1 0 50 -1 17 4 0.0000 4 75 240 3555 1035 niveau\001
-6
6 4080 1560 4470 1710
4 1 0 50 -1 17 4 0.0000 4 90 390 4275 1620 tables de deuxième\001
4 1 0 50 -1 17 4 0.0000 4 75 240 4275 1710 niveau\001
-6
6 5588 870 6203 1035
4 1 0 50 -1 17 4 0.0000 4 90 615 5895 945 table de premier\001
4 1 0 50 -1 17 4 0.0000 4 75 240 5895 1035 niveau\001
-6
6 6983 1635 7358 1785
4 1 0 50 -1 17 4 0.0000 4 90 375 7170 1695 tables de troisième\001
4 1 0 50 -1 17 4 0.0000 4 75 240 7170 1785 niveau\001
-6
6 908 870 1523 1035
4 1 0 50 -1 17 4 0.0000 4 90 615 1215 945 table de premier\001
4 1 0 50 -1 17 4 0.0000 4 75 240 1215 1035 niveau\001
-6
6 6345 1425 6735 1575
4 1 0 50 -1 17 4 0.0000 4 90 390 6540 1485 tables de deuxième\001
4 1 0 50 -1 17 4 0.0000 4 75 240 6540 1575 niveau\001
-6
2 1 0 1 0 7 50 -1 -1 0.000 0 0 -1 0 0 2
	 4050 900 4500 900
2 1 0 1 0 7 50 -1 -1 0.000 0 0 -1 0 0 2
	 4050 1890 4500 1890
2 1 0 1 0 7 50 -1 -1 0.000 0 0 -1 0 0 2
	 4050 2340 4500 2340
2 1 0 1 0 7 50 -1 -1 0.000 0 0 -1 0 0 2
	 4050 1350 4500 1350
2 1 0 1 0 7 50 -1 -1 0.000 0 0 -1 0 0 2
	 3690 450 3690 630
2 1 0 1 0 7 50 -1 -1 0.000 0 0 -1 0 0 2
	 4230 450 4230 630
2 2 0 1 0 0 55 -1 20 0.000 0 0 -1 0 0 5
	 3195 495 4995 495 4995 675 3195 675 3195 495
2 2 0 1 0 0 55 -1 20 0.000 0 0 -1 0 0 5
	 4095 855 4545 855 4545 1485 4095 1485 4095 855
2 2 0 1 0 0 55 -1 20 0.000 0 0 -1 0 0 5
	 4095 1845 4545 1845 4545 2475 4095 2475 4095 1845
2 2 0 1 0 7 53 -1 16 0.000 0 0 7 0 0 5
	 4050 810 4500 810 4500 1440 4050 1440 4050 810
2 2 0 1 0 7 53 -1 16 0.000 0 0 7 0 0 5
	 4050 1800 4500 1800 4500 2430 4050 2430 4050 1800
2 1 0 2 12 7 48 -1 -1 0.000 0 0 7 1 0 2
	1 1 1.00 30.00 60.00
	 4770 585 4770 2790
2 2 0 1 0 0 55 -1 20 0.000 0 0 7 0 0 5
	 2745 945 3105 945 3105 1035 2745 1035 2745 945
2 1 0 1 0 7 50 -1 -1 0.000 0 0 -1 0 0 2
	 3330 1620 3780 1620
2 2 0 1 0 0 55 -1 20 0.000 0 0 -1 0 0 5
	 3375 1125 3825 1125 3825 1755 3375 1755 3375 1125
2 2 0 1 0 7 53 -1 16 0.000 0 0 7 0 0 5
	 3330 1080 3780 1080 3780 1710 3330 1710 3330 1080
2 1 0 1 0 7 50 -1 -1 0.000 0 0 -1 0 0 2
	 4230 2790 4230 2970
2 2 0 1 0 0 55 -1 20 0.000 0 0 -1 0 0 5
	 3195 2835 4995 2835 4995 3015 3195 3015 3195 2835
2 2 0 1 0 0 55 -1 20 0.000 0 0 7 0 0 5
	 405 945 765 945 765 1035 405 1035 405 945
2 1 0 1 0 7 50 -1 -1 0.000 0 0 -1 0 0 2
	 990 1170 1440 1170
2 1 0 1 0 7 50 -1 -1 0.000 0 0 -1 0 0 2
	 990 2250 1440 2250
2 1 0 1 0 7 50 -1 -1 0.000 0 0 -1 0 0 2
	 1800 450 1800 630
2 2 0 1 0 2 51 -1 36 0.000 0 0 -1 0 0 5
	 720 450 2520 450 2520 630 720 630 720 450
2 2 0 1 0 0 55 -1 20 0.000 0 0 -1 0 0 5
	 765 495 2565 495 2565 675 765 675 765 495
2 2 0 1 0 0 55 -1 20 0.000 0 0 -1 0 0 5
	 1035 1125 1485 1125 1485 2385 1035 2385 1035 1125
2 2 0 1 0 7 53 -1 16 0.000 0 0 7 0 0 5
	 990 1080 1440 1080 1440 2340 990 2340 990 1080
2 1 0 1 0 7 50 -1 -1 0.000 0 0 -1 0 0 2
	 1800 2790 1800 2970
2 2 0 1 0 0 55 -1 20 0.000 0 0 -1 0 0 5
	 765 2835 2565 2835 2565 3015 765 3015 765 2835
2 1 0 1 0 7 50 -1 -1 0.000 0 0 -1 0 0 2
	 6660 450 6660 630
2 1 0 1 0 7 50 -1 -1 0.000 0 0 -1 0 0 2
	 5940 450 5940 630
2 1 0 1 0 7 50 -1 -1 0.000 0 0 -1 0 0 2
	 6300 450 6300 630
2 2 0 1 0 0 55 -1 20 0.000 0 0 -1 0 0 5
	 5625 495 7425 495 7425 675 5625 675 5625 495
2 2 0 1 0 0 55 -1 20 0.000 0 0 7 0 0 5
	 5085 945 5445 945 5445 1035 5085 1035 5085 945
2 1 0 1 0 7 50 -1 -1 0.000 0 0 -1 0 0 2
	 5670 1440 6120 1440
2 2 0 1 0 0 55 -1 20 0.000 0 0 -1 0 0 5
	 5715 1125 6165 1125 6165 1575 5715 1575 5715 1125
2 1 0 1 0 7 50 -1 -1 0.000 0 0 -1 0 0 2
	 6300 1260 6750 1260
2 2 0 1 0 0 55 -1 20 0.000 0 0 -1 0 0 5
	 6345 945 6795 945 6795 1395 6345 1395 6345 945
2 1 0 1 0 7 50 -1 -1 0.000 0 0 -1 0 0 2
	 6300 1710 6750 1710
2 2 0 1 0 0 55 -1 20 0.000 0 0 -1 0 0 5
	 6345 1665 6795 1665 6795 2115 6345 2115 6345 1665
2 1 0 1 0 7 50 -1 -1 0.000 0 0 -1 0 0 2
	 6930 1080 7380 1080
2 1 0 1 0 7 50 -1 -1 0.000 0 0 -1 0 0 2
	 6930 1350 7380 1350
2 1 0 1 0 7 50 -1 -1 0.000 0 0 -1 0 0 2
	 6930 2340 7380 2340
2 1 0 1 0 7 50 -1 -1 0.000 0 0 -1 0 0 2
	 6660 2790 6660 2970
2 2 0 1 0 0 55 -1 20 0.000 0 0 -1 0 0 5
	 5625 2835 7425 2835 7425 3015 5625 3015 5625 2835
2 1 0 1 0 7 50 -1 -1 0.000 0 0 -1 0 0 2
	 6930 2070 7380 2070
2 2 0 1 0 7 53 -1 16 0.000 0 0 7 0 0 5
	 5670 1080 6120 1080 6120 1530 5670 1530 5670 1080
2 2 0 1 0 7 53 -1 16 0.000 0 0 7 0 0 5
	 6300 900 6750 900 6750 1350 6300 1350 6300 900
2 2 0 1 0 7 53 -1 16 0.000 0 0 7 0 0 5
	 6930 990 7380 990 7380 1440 6930 1440 6930 990
2 2 0 1 0 7 53 -1 16 0.000 0 0 7 0 0 5
	 6300 1620 6750 1620 6750 2070 6300 2070 6300 1620
2 2 0 1 0 7 53 -1 16 0.000 0 0 7 0 0 5
	 6930 1980 7380 1980 7380 2430 6930 2430 6930 1980
2 1 0 1 0 7 50 -1 -1 0.000 0 0 -1 0 0 2
	 6300 1980 6750 1980
2 2 0 1 0 0 55 -1 20 0.000 0 0 -1 0 0 5
	 6975 1035 7425 1035 7425 1485 6975 1485 6975 1035
2 2 0 0 0 31 60 -1 38 0.000 0 0 -1 0 0 5
	 3150 765 4590 765 4590 2520 3150 2520 3150 765
2 2 0 0 0 31 60 -1 38 0.000 0 0 -1 0 0 5
	 5490 765 7470 765 7470 2520 5490 2520 5490 765
2 2 0 0 0 31 60 -1 38 0.000 0 0 -1 0 0 5
	 810 855 1800 855 1800 2520 810 2520 810 855
2 2 0 1 0 2 51 -1 36 0.000 0 0 7 0 0 5
	 3150 450 4950 450 4950 630 3150 630 3150 450
2 2 0 1 0 2 51 -1 36 0.000 0 0 7 0 0 5
	 5580 450 7380 450 7380 630 5580 630 5580 450
2 2 0 1 0 1 51 -1 36 0.000 0 0 7 0 0 5
	 720 2790 2520 2790 2520 2970 720 2970 720 2790
2 2 0 1 0 1 51 -1 36 0.000 0 0 7 0 0 5
	 3150 2790 4950 2790 4950 2970 3150 2970 3150 2790
2 2 0 1 0 1 51 -1 36 0.000 0 0 7 0 0 5
	 5580 2790 7380 2790 7380 2970 5580 2970 5580 2790
2 2 0 1 0 1 51 -1 36 0.000 0 0 -1 0 0 5
	 990 1620 1440 1620 1440 1710 990 1710 990 1620
2 2 0 1 0 1 51 -1 36 0.000 0 0 7 0 0 5
	 360 900 720 900 720 990 360 990 360 900
2 2 0 1 0 1 51 -1 36 0.000 0 0 7 0 0 5
	 2700 900 3060 900 3060 990 2700 990 2700 900
2 2 0 1 0 1 51 -1 36 0.000 0 0 -1 0 0 5
	 3330 1080 3780 1080 3780 1170 3330 1170 3330 1080
2 2 0 1 0 1 51 -1 36 0.000 0 0 -1 0 0 5
	 3330 1305 3780 1305 3780 1395 3330 1395 3330 1305
2 2 0 1 0 1 51 -1 36 0.000 0 0 -1 0 0 5
	 4050 2025 4500 2025 4500 2115 4050 2115 4050 2025
2 2 0 1 0 1 51 -1 36 0.000 0 0 7 0 0 5
	 5040 900 5400 900 5400 990 5040 990 5040 900
2 2 0 1 0 1 51 -1 36 0.000 0 0 -1 0 0 5
	 5670 1080 6120 1080 6120 1170 5670 1170 5670 1080
2 2 0 1 0 1 51 -1 36 0.000 0 0 -1 0 0 5
	 5670 1260 6120 1260 6120 1350 5670 1350 5670 1260
2 2 0 1 0 1 51 -1 36 0.000 0 0 -1 0 0 5
	 6300 900 6750 900 6750 990 6300 990 6300 900
2 2 0 1 0 1 51 -1 36 0.000 0 0 -1 0 0 5
	 6300 1800 6750 1800 6750 1890 6300 1890 6300 1800
2 2 0 1 0 0 55 -1 20 0.000 0 0 -1 0 0 5
	 6975 2025 7425 2025 7425 2475 6975 2475 6975 2025
2 2 0 1 0 1 51 -1 36 0.000 0 0 -1 0 0 5
	 6930 2160 7380 2160 7380 2250 6930 2250 6930 2160
3 0 1 1 0 7 50 -1 -1 2.000 0 1 0 8
	1 1 1.00 30.00 60.00
	 3735 1125 3825 1125 3915 1125 3915 1035 3915 900 3915 810
	 3960 810 4050 810
	 0.000 1.000 1.000 1.000 1.000 1.000 1.000 0.000
3 0 0 2 12 7 48 -1 -1 0.000 0 1 0 10
	1 1 1.00 30.00 60.00
	 3420 585 3420 720 3420 810 3240 810 3150 810 3150 900
	 3150 1260 3150 1350 3240 1350 3330 1350
	 0.000 1.000 1.000 1.000 1.000 1.000 1.000 1.000
	 1.000 0.000
3 0 0 2 12 7 48 -1 -1 0.000 0 1 0 7
	1 1 1.00 30.00 60.00
	 3960 585 3870 720 3870 810 3870 1980 3870 2070 3960 2070
	 4050 2070
	 0.000 1.000 1.000 1.000 1.000 1.000 0.000
3 0 0 2 10 7 49 -1 -1 0.000 0 1 0 11
	1 1 1.00 30.00 60.00
	 4455 2070 4590 2070 4680 2070 4680 2160 4680 2475 4680 2565
	 4590 2565 3780 2565 3690 2565 3690 2655 3690 2790
	 0.000 1.000 1.000 1.000 1.000 1.000 1.000 1.000
	 1.000 1.000 0.000
3 0 0 2 10 7 49 -1 -1 0.000 0 1 0 7
	1 1 1.00 30.00 60.00
	 3735 1350 3825 1350 3915 1350 3915 1440 3915 1665 3915 1755
	 4050 1800
	 0.000 1.000 1.000 1.000 1.000 1.000 0.000
3 0 0 2 10 7 49 -1 -1 0.000 0 1 0 3
	1 1 1.00 30.00 60.00
	 3015 945 3195 945 3330 1080
	 0.000 1.000 0.000
3 0 0 2 12 7 48 -1 -1 0.000 0 1 0 11
	1 1 1.00 30.00 60.00
	 1260 585 1260 720 1260 810 1170 810 945 810 855 810
	 855 900 855 1575 855 1665 945 1665 990 1665
	 0.000 1.000 1.000 1.000 1.000 1.000 1.000 1.000
	 1.000 1.000 0.000
3 0 0 2 12 7 48 -1 -1 0.000 0 1 0 2
	1 1 1.00 30.00 60.00
	 2160 585 2160 2790
	 0.000 0.000
3 0 0 2 10 7 49 -1 -1 0.000 0 1 0 3
	1 1 1.00 30.00 60.00
	 675 945 855 945 990 1080
	 0.000 1.000 0.000
3 0 1 1 0 7 50 -1 -1 2.000 0 1 0 7
	1 1 1.00 30.00 60.00
	 6075 1125 6120 1125 6165 1125 6165 990 6165 900 6210 900
	 6300 900
	 0.000 1.000 1.000 1.000 1.000 1.000 0.000
3 0 1 1 0 7 50 -1 -1 2.000 0 1 0 3
	1 1 1.00 30.00 60.00
	 6705 945 6840 945 6930 990
	 0.000 1.000 0.000
3 0 0 2 12 7 48 -1 -1 0.000 0 1 0 11
	1 1 1.00 30.00 60.00
	 5760 585 5760 720 5760 810 5670 810 5580 810 5490 810
	 5490 900 5490 1215 5490 1305 5580 1305 5670 1305
	 0.000 1.000 1.000 1.000 1.000 1.000 1.000 1.000
	 1.000 1.000 0.000
3 0 0 2 12 7 48 -1 -1 0.000 0 1 0 8
	1 1 1.00 30.00 60.00
	 6120 585 6120 900 6120 990 6210 990 6210 1080 6210 1710
	 6210 1755 6300 1845
	 0.000 1.000 1.000 1.000 1.000 1.000 1.000 0.000
3 0 0 2 12 7 48 -1 -1 0.000 0 1 0 13
	1 1 1.00 30.00 60.00
	 7290 585 7290 720 7290 810 7425 810 7560 810 7560 900
	 7560 2520 7560 2610 7470 2610 7380 2610 7290 2610 7290 2700
	 7290 2790
	 0.000 1.000 1.000 1.000 1.000 1.000 1.000 1.000
	 1.000 1.000 1.000 1.000 0.000
3 0 0 2 10 7 49 -1 -1 0.000 0 1 0 3
	1 1 1.00 30.00 60.00
	 6705 1845 6885 1845 6930 1980
	 0.000 1.000 0.000
3 0 0 2 10 7 49 -1 -1 0.000 0 1 0 11
	1 1 1.00 30.00 60.00
	 7335 2205 7380 2205 7470 2205 7470 2295 7470 2475 7470 2565
	 7380 2565 6210 2565 6120 2565 6120 2655 6120 2790
	 0.000 1.000 1.000 1.000 1.000 1.000 1.000 1.000
	 1.000 1.000 0.000
3 0 0 2 10 7 49 -1 -1 0.000 0 1 0 3
	1 1 1.00 30.00 60.00
	 5355 945 5535 945 5670 1080
	 0.000 1.000 0.000
3 0 0 2 10 7 49 -1 -1 0.000 0 1 0 11
	1 1 1.00 30.00 60.00
	 1395 1665 1530 1665 1620 1665 1620 1755 1620 2520 1620 2610
	 1530 2610 1350 2610 1260 2610 1260 2700 1260 2790
	 0.000 1.000 1.000 1.000 1.000 1.000 1.000 1.000
	 1.000 1.000 0.000
3 0 0 2 12 7 48 -1 -1 0.000 0 1 0 10
	1 1 1.00 30.00 60.00
	 6480 585 6480 675 6480 810 6570 810 6750 810 6840 810
	 6840 900 6840 2025 6840 2115 6930 2205
	 0.000 1.000 1.000 1.000 1.000 1.000 1.000 1.000
	 1.000 0.000
3 0 0 2 10 7 49 -1 -1 0.000 0 1 0 6
	1 1 1.00 30.00 60.00
	 6075 1305 6165 1305 6255 1305 6255 1395 6255 1530 6300 1620
	 0.000 1.000 1.000 1.000 1.000 0.000
4 2 0 50 -1 16 3 0.0000 4 75 255 3285 1710 2^n1-1\001
4 2 0 50 -1 16 3 0.0000 4 75 45 4005 1845 0\001
4 2 0 50 -1 16 3 0.0000 4 75 45 3285 1125 0\001
4 2 0 50 -1 16 3 0.0000 4 75 255 4005 2430 2^n2-1\001
4 1 0 50 -1 16 5 0.0000 4 75 255 3420 405 n1 bits\001
4 1 0 50 -1 16 5 0.0000 4 75 255 3960 405 n2 bits\001
4 1 0 50 -1 16 5 0.0000 4 75 210 4590 405 o bits\001
4 1 0 50 -1 18 8 0.0000 4 135 885 4050 135 Table de pages à 2 niveaux\001
4 1 0 50 -1 17 5 0.0000 4 90 960 4050 3105 adresse physique (p bits)\001
4 0 0 50 -1 17 5 0.0000 4 90 105 3735 2700 numéro de cadre\001
4 1 0 50 -1 17 5 0.0000 4 90 855 4050 270 adresse logique (l bits)\001
4 1 0 50 -1 16 5 0.0000 4 75 120 2880 855 PT\001
4 1 0 50 -1 16 5 0.0000 4 75 120 540 855 PT\001
4 2 0 50 -1 16 3 0.0000 4 75 210 945 2340 2^n-1\001
4 2 0 50 -1 16 3 0.0000 4 75 45 945 1125 0\001
4 1 0 50 -1 16 5 0.0000 4 75 210 1260 405 n bits\001
4 1 0 50 -1 16 5 0.0000 4 75 210 2160 405 o bits\001
4 1 0 50 -1 18 8 0.0000 4 135 885 1620 135 Table de pages à 1 niveau\001
4 1 0 50 -1 17 5 0.0000 4 90 960 1620 3105 adresse physique (p bits)\001
4 0 0 50 -1 17 5 0.0000 4 90 105 1305 2700 numéro de cadre\001
4 0 0 50 -1 17 5 0.0000 4 90 105 1305 810 numéro de page\001
4 1 0 50 -1 17 5 0.0000 4 90 855 1620 270 adresse logique (l bits)\001
4 2 0 50 -1 16 3 0.0000 4 75 45 5625 1125 0\001
4 2 0 50 -1 16 3 0.0000 4 75 255 5625 1530 2^n1-1\001
4 1 0 50 -1 16 5 0.0000 4 75 255 5760 405 n1 bits\001
4 1 0 50 -1 16 5 0.0000 4 75 255 6120 405 n2 bits\001
4 1 0 50 -1 16 5 0.0000 4 75 255 6480 405 n3 bits\001
4 1 0 50 -1 16 5 0.0000 4 75 210 7020 405 o bits\001
4 1 0 50 -1 18 8 0.0000 4 135 885 6480 135 Table de pages à 3 niveaux\001
4 2 0 50 -1 16 3 0.0000 4 75 255 6255 2070 2^n2-1\001
4 2 0 50 -1 16 3 0.0000 4 75 45 6255 1665 0\001
4 1 0 50 -1 17 5 0.0000 4 90 960 6480 3105 adresse physique (p bits)\001
4 0 0 50 -1 17 5 0.0000 4 90 105 6165 2700 numéro de cadre\001
4 2 0 50 -1 16 3 0.0000 4 75 45 6885 2025 0\001
4 2 0 50 -1 16 3 0.0000 4 75 255 6885 2430 2^n3-1\001
4 1 0 50 -1 17 5 0.0000 4 90 855 6480 270 adresse logique (l bits)\001
4 1 0 50 -1 16 5 0.0000 4 75 120 5220 855 PT\001
4 1 0 50 -1 17 5 1.5708 4 90 735 4725 1710 offset dans la page\001
4 1 0 50 -1 17 5 1.5708 4 90 735 7515 1710 offset dans la page\001
4 1 0 50 -1 17 5 1.5708 4 90 735 2115 1710 offset dans la page\001
4 0 0 50 -1 17 4 0.0000 4 90 555 855 2475 table de pages\001
4 0 0 50 -1 17 4 0.0000 4 90 555 3195 2475 table de pages\001
4 0 0 50 -1 17 4 0.0000 4 90 555 5535 2475 table de pages\001
