#FIG 3.2  Produced by xfig version 3.2.5c
#encoding: UTF-8
Landscape
Center
Metric
A4      
100.00
Single
-2
1200 2
2 3 0 0 0 4 50 -1 24 0.000 0 0 7 0 0 5
	 450 900 630 1710 1800 1710 1980 900 450 900
2 3 0 0 0 4 50 -1 24 0.000 0 0 7 0 0 5
	 1890 990 3150 990 3105 1170 1800 1170 1890 990
3 0 0 3 4 7 50 -1 -1 0.000 0 0 0 5
	 1620 180 1530 270 1710 450 1530 630 1620 720
	 0.000 1.000 1.000 1.000 0.000
3 0 0 3 4 7 50 -1 -1 0.000 0 0 0 5
	 1170 270 1080 360 1260 540 1080 720 1170 810
	 0.000 1.000 1.000 1.000 0.000
3 0 0 3 4 7 50 -1 -1 0.000 0 0 0 5
	 810 180 720 270 900 450 720 630 810 720
	 0.000 1.000 1.000 1.000 0.000
