#FIG 3.2  Produced by xfig version 3.2.8b
#encoding: UTF-8
Landscape
Center
Metric
A4
100.00
Single
-2
1200 2
0 32 #c6b797
0 33 #eff8ff
0 34 #dccba6
0 35 #404040
0 36 #808080
0 37 #c0c0c0
0 38 #e0e0e0
0 39 #8e8f8e
0 40 #aaaaaa
0 41 #555555
0 42 #c7c3c7
0 43 #565151
0 44 #8e8e8e
0 45 #d7d7d7
0 46 #85807d
0 47 #d2d2d2
0 48 #3a3a3a
0 49 #4573aa
0 50 #aeaeae
0 51 #7b79a5
0 52 #444444
0 53 #73758c
0 54 #f7f7f7
0 55 #414541
0 56 #635dce
0 57 #bebebe
0 58 #515151
0 59 #e7e3e7
0 60 #000049
0 61 #797979
0 62 #303430
0 63 #414141
0 64 #c7b696
0 65 #cccccc
0 66 #868286
0 67 #868686
0 68 #c7c7c7
0 69 #e7e7e7
0 70 #9e9e9e
0 71 #717571
0 72 #effbff
0 73 #666666
0 74 #909090
0 75 #e6e4ce
0 76 #9b9b9b
0 77 #ce9100
0 78 #f762aa
0 79 #7070ff
0 80 #5f5f5f
0 81 #e2e2ee
0 82 #94949a
0 83 #dbdbdb
0 84 #a1a1b7
0 85 #9c0000
0 86 #ededed
0 87 #86acff
0 88 #fff2d3
0 89 #ffe4ae
0 90 #ffd279
0 91 #cfcfcf
0 92 #999999
0 93 #000000
0 94 #ffffff
0 95 #dd9d93
0 96 #f1ece0
0 97 #c3c3c3
0 98 #e2c8a8
0 99 #e1e1e1
0 100 #da7a1a
0 101 #f1e41a
0 102 #887dc2
0 103 #d6d6d6
0 104 #8c8ca5
0 105 #4a4a4a
0 106 #5a5a5a
0 107 #636363
0 108 #b79b73
0 109 #d39552
0 110 #98d2fe
0 111 #8c6b6b
0 112 #8c9c6b
0 113 #f76b00
0 114 #5a6b39
0 115 #8c9c6b
0 116 #8c9c7b
0 117 #184a18
0 118 #adadad
0 119 #f7bd5a
0 120 #636b9c
0 121 #de0000
0 122 #adadad
0 123 #f3eed3
0 124 #f5ae5d
0 125 #95ce99
0 126 #b5157d
0 127 #eeeeee
0 128 #848484
0 129 #7b7b7b
0 130 #005a00
0 131 #e77373
0 132 #ffcb31
0 133 #29794a
0 134 #de2821
0 135 #2159c6
0 136 #f8f8f8
0 137 #e6e6e6
0 138 #a5b5c6
0 139 #6b6b94
0 140 #846b6b
0 141 #529c4a
0 142 #d6e7e7
0 143 #526363
0 144 #186b4a
0 145 #21845a
0 146 #dedede
0 147 #526b29
0 148 #949494
0 149 #006300
0 150 #9ca5b5
0 151 #ff9400
0 152 #ff9400
0 153 #00634a
0 154 #7b844a
0 155 #63737b
0 156 #e7bd7b
0 157 #a0a0a0
0 158 #4193ff
0 159 #bf703b
0 160 #db7700
0 161 #dab800
0 162 #006400
0 163 #5a6b3b
0 164 #d3d3d3
0 165 #8e8ea4
0 166 #f3b95d
0 167 #89996b
0 168 #646464
0 169 #b7e6ff
0 170 #86c0ec
0 171 #bdbdbd
# Server box
6 3240 1084 3600 1710
6 3280 1310 3560 1617
6 3280 1310 3560 1337
2 2 0 0 0 38 19 0 20 0.000 0 1 -1 0 0 5
	 3280 1324 3560 1324 3560 1337 3280 1337 3280 1324
2 2 0 0 0 35 19 0 20 0.000 0 1 -1 0 0 5
	 3280 1310 3560 1310 3560 1324 3280 1324 3280 1310
-6
6 3280 1350 3560 1377
2 2 0 0 0 38 19 0 20 0.000 0 1 -1 0 0 5
	 3280 1364 3560 1364 3560 1377 3280 1377 3280 1364
2 2 0 0 0 35 19 0 20 0.000 0 1 -1 0 0 5
	 3280 1350 3560 1350 3560 1364 3280 1364 3280 1350
-6
6 3280 1390 3560 1417
2 2 0 0 0 38 19 0 20 0.000 0 1 -1 0 0 5
	 3280 1404 3560 1404 3560 1417 3280 1417 3280 1404
2 2 0 0 0 35 19 0 20 0.000 0 1 -1 0 0 5
	 3280 1390 3560 1390 3560 1404 3280 1404 3280 1390
-6
6 3280 1430 3560 1457
2 2 0 0 0 38 19 0 20 0.000 0 1 -1 0 0 5
	 3280 1444 3560 1444 3560 1457 3280 1457 3280 1444
2 2 0 0 0 35 19 0 20 0.000 0 1 -1 0 0 5
	 3280 1430 3560 1430 3560 1444 3280 1444 3280 1430
-6
6 3280 1470 3560 1497
2 2 0 0 0 38 19 0 20 0.000 0 1 -1 0 0 5
	 3280 1484 3560 1484 3560 1497 3280 1497 3280 1484
2 2 0 0 0 35 19 0 20 0.000 0 1 -1 0 0 5
	 3280 1470 3560 1470 3560 1484 3280 1484 3280 1470
-6
6 3280 1510 3560 1537
2 2 0 0 0 38 19 0 20 0.000 0 1 -1 0 0 5
	 3280 1524 3560 1524 3560 1537 3280 1537 3280 1524
2 2 0 0 0 35 19 0 20 0.000 0 1 -1 0 0 5
	 3280 1510 3560 1510 3560 1524 3280 1524 3280 1510
-6
6 3280 1550 3560 1577
2 2 0 0 0 38 19 0 20 0.000 0 1 -1 0 0 5
	 3280 1563 3560 1563 3560 1577 3280 1577 3280 1563
2 2 0 0 0 35 19 0 20 0.000 0 1 -1 0 0 5
	 3280 1550 3560 1550 3560 1563 3280 1563 3280 1550
-6
6 3280 1590 3560 1617
2 2 0 0 0 38 19 0 20 0.000 0 1 -1 0 0 5
	 3280 1603 3560 1603 3560 1617 3280 1617 3280 1603
2 2 0 0 0 35 19 0 20 0.000 0 1 -1 0 0 5
	 3280 1590 3560 1590 3560 1603 3280 1603 3280 1590
-6
-6
6 3280 1137 3560 1244
6 3280 1217 3560 1244
2 2 0 0 0 38 19 0 20 0.000 0 1 -1 0 0 5
	 3280 1231 3560 1231 3560 1244 3280 1244 3280 1231
2 2 0 0 0 35 19 0 20 0.000 0 1 -1 0 0 5
	 3280 1217 3560 1217 3560 1231 3280 1231 3280 1217
-6
6 3280 1177 3560 1204
2 2 0 0 0 38 19 0 20 0.000 0 1 -1 0 0 5
	 3280 1191 3560 1191 3560 1204 3280 1204 3280 1191
2 2 0 0 0 35 19 0 20 0.000 0 1 -1 0 0 5
	 3280 1177 3560 1177 3560 1191 3280 1191 3280 1177
-6
6 3280 1137 3560 1164
2 2 0 0 0 38 19 0 20 0.000 0 1 -1 0 0 5
	 3280 1151 3560 1151 3560 1164 3280 1164 3280 1151
2 2 0 0 0 35 19 0 20 0.000 0 1 -1 0 0 5
	 3280 1137 3560 1137 3560 1151 3280 1151 3280 1137
-6
-6
2 2 0 1 0 35 19 0 20 0.000 0 1 -1 0 0 5
	 3240 1657 3600 1657 3600 1710 3240 1710 3240 1657
2 1 0 1 0 37 19 0 20 0.000 0 1 -1 0 0 2
	 3240 1270 3600 1270
2 2 0 1 0 37 20 0 20 0.000 0 1 -1 0 0 5
	 3240 1084 3600 1084 3600 1710 3240 1710 3240 1084
-6
# Server box
6 360 1129 720 1755
6 400 1355 680 1662
6 400 1355 680 1382
2 2 0 0 0 38 19 0 20 0.000 0 1 -1 0 0 5
	 400 1369 680 1369 680 1382 400 1382 400 1369
2 2 0 0 0 35 19 0 20 0.000 0 1 -1 0 0 5
	 400 1355 680 1355 680 1369 400 1369 400 1355
-6
6 400 1395 680 1422
2 2 0 0 0 38 19 0 20 0.000 0 1 -1 0 0 5
	 400 1409 680 1409 680 1422 400 1422 400 1409
2 2 0 0 0 35 19 0 20 0.000 0 1 -1 0 0 5
	 400 1395 680 1395 680 1409 400 1409 400 1395
-6
6 400 1435 680 1462
2 2 0 0 0 38 19 0 20 0.000 0 1 -1 0 0 5
	 400 1449 680 1449 680 1462 400 1462 400 1449
2 2 0 0 0 35 19 0 20 0.000 0 1 -1 0 0 5
	 400 1435 680 1435 680 1449 400 1449 400 1435
-6
6 400 1475 680 1502
2 2 0 0 0 38 19 0 20 0.000 0 1 -1 0 0 5
	 400 1489 680 1489 680 1502 400 1502 400 1489
2 2 0 0 0 35 19 0 20 0.000 0 1 -1 0 0 5
	 400 1475 680 1475 680 1489 400 1489 400 1475
-6
6 400 1515 680 1542
2 2 0 0 0 38 19 0 20 0.000 0 1 -1 0 0 5
	 400 1529 680 1529 680 1542 400 1542 400 1529
2 2 0 0 0 35 19 0 20 0.000 0 1 -1 0 0 5
	 400 1515 680 1515 680 1529 400 1529 400 1515
-6
6 400 1555 680 1582
2 2 0 0 0 38 19 0 20 0.000 0 1 -1 0 0 5
	 400 1569 680 1569 680 1582 400 1582 400 1569
2 2 0 0 0 35 19 0 20 0.000 0 1 -1 0 0 5
	 400 1555 680 1555 680 1569 400 1569 400 1555
-6
6 400 1595 680 1622
2 2 0 0 0 38 19 0 20 0.000 0 1 -1 0 0 5
	 400 1608 680 1608 680 1622 400 1622 400 1608
2 2 0 0 0 35 19 0 20 0.000 0 1 -1 0 0 5
	 400 1595 680 1595 680 1608 400 1608 400 1595
-6
6 400 1635 680 1662
2 2 0 0 0 38 19 0 20 0.000 0 1 -1 0 0 5
	 400 1648 680 1648 680 1662 400 1662 400 1648
2 2 0 0 0 35 19 0 20 0.000 0 1 -1 0 0 5
	 400 1635 680 1635 680 1648 400 1648 400 1635
-6
-6
6 400 1182 680 1289
6 400 1262 680 1289
2 2 0 0 0 38 19 0 20 0.000 0 1 -1 0 0 5
	 400 1276 680 1276 680 1289 400 1289 400 1276
2 2 0 0 0 35 19 0 20 0.000 0 1 -1 0 0 5
	 400 1262 680 1262 680 1276 400 1276 400 1262
-6
6 400 1222 680 1249
2 2 0 0 0 38 19 0 20 0.000 0 1 -1 0 0 5
	 400 1236 680 1236 680 1249 400 1249 400 1236
2 2 0 0 0 35 19 0 20 0.000 0 1 -1 0 0 5
	 400 1222 680 1222 680 1236 400 1236 400 1222
-6
6 400 1182 680 1209
2 2 0 0 0 38 19 0 20 0.000 0 1 -1 0 0 5
	 400 1196 680 1196 680 1209 400 1209 400 1196
2 2 0 0 0 35 19 0 20 0.000 0 1 -1 0 0 5
	 400 1182 680 1182 680 1196 400 1196 400 1182
-6
-6
2 2 0 1 0 35 19 0 20 0.000 0 1 -1 0 0 5
	 360 1702 720 1702 720 1755 360 1755 360 1702
2 1 0 1 0 37 19 0 20 0.000 0 1 -1 0 0 2
	 360 1315 720 1315
2 2 0 1 0 37 20 0 20 0.000 0 1 -1 0 0 5
	 360 1129 720 1129 720 1755 360 1755 360 1129
-6
# Trash
# drawn by P. David
6 1350 2070 1530 2340
2 1 0 1 0 7 50 -1 -1 0.000 0 0 -1 0 0 2
	 1350 2106 1530 2106
3 0 0 1 0 7 50 -1 -1 0.000 0 0 0 8
	 1356 2124 1374 2322 1374 2340 1386 2340 1494 2340 1506 2340
	 1506 2322 1524 2124
	 0.000 1.000 1.000 1.000 1.000 1.000 1.000 0.000
3 0 0 1 0 7 50 -1 -1 0.000 0 0 0 2
	 1440 2142 1440 2313
	 0.000 0.000
3 0 0 1 0 7 50 -1 -1 0.000 0 0 0 2
	 1488 2142 1476 2313
	 0.000 0.000
3 0 0 1 0 7 50 -1 -1 0.000 0 0 0 2
	 1392 2142 1404 2313
	 0.000 0.000
3 0 0 1 0 7 50 -1 -1 0.000 0 0 0 6
	 1416 2106 1416 2079 1428 2070 1452 2070 1464 2079 1464 2106
	 0.000 1.000 1.000 1.000 1.000 0.000
-6
1 3 0 1 11 11 50 -1 20 0.000 1 0.0000 2700 1440 186 186 2700 1440 2886 1440
1 3 0 1 11 11 50 -1 20 0.000 1 0.0000 1260 1440 186 186 1260 1440 1446 1440
1 3 0 1 11 11 50 -1 20 0.000 1 0.0000 1980 1980 186 186 1980 1980 2166 1980
1 3 0 1 11 11 50 -1 20 0.000 1 0.0000 1980 900 186 186 1980 900 2166 900
2 2 0 1 0 13 61 -1 36 3.000 0 0 7 0 0 5
	 3960 540 5220 540 5220 990 3960 990 3960 540
2 2 0 1 0 13 61 -1 36 3.000 0 0 7 0 0 5
	 3960 990 5220 990 5220 1440 3960 1440 3960 990
2 2 0 1 0 13 61 -1 36 3.000 0 0 7 0 0 5
	 3960 1440 5220 1440 5220 1890 3960 1890 3960 1440
2 2 0 1 0 13 61 -1 36 3.000 0 0 7 0 0 5
	 3960 1890 5220 1890 5220 2340 3960 2340 3960 1890
2 1 0 3 11 11 51 -1 -1 0.000 0 0 7 0 0 5
	 540 1350 1260 1440 1980 1980 2700 1440 3420 1305
2 1 0 3 11 11 51 -1 -1 0.000 0 0 -1 0 0 3
	 1260 1440 1980 900 2700 1440
2 3 0 1 4 4 5 -1 20 0.000 0 1 0 0 0 17
	 2391 1866 2250 1845 2298 1721 2205 1800 2130 1683 2109 1824
	 1985 1776 2028 1884 1947 1944 2052 2017 2040 2089 2148 2046
	 2208 2126 2237 2030 2353 2034 2310 1926 2391 1866
3 0 0 3 12 11 11 -1 -1 0.000 1 1 0 8
	1 1 1.00 75.00 90.00
	 765 1440 1260 1485 1890 1980 1980 1980 2070 1980 2655 1530
	 2880 1485 3240 1395
	 0.000 1.000 1.000 1.000 1.000 1.000 1.000 0.000
3 0 0 3 23 11 12 -1 -1 0.000 1 1 0 6
	1 1 1.00 75.00 90.00
	 765 1485 1260 1575 1845 1980 1845 2070 1755 2115 1530 2160
	 0.000 1.000 1.000 1.000 1.000 0.000
3 0 0 3 23 11 12 -1 -1 0.000 1 1 0 9
	1 1 1.00 75.00 90.00
	 765 1260 1170 1305 1350 1305 1800 945 1980 855 2160 945
	 2610 1305 2745 1305 3240 1170
	 0.000 1.000 1.000 1.000 1.000 1.000 1.000 1.000
	 0.000
3 0 0 3 1 11 13 -1 -1 0.000 1 1 0 9
	1 1 1.00 75.00 90.00
	 765 1305 1215 1350 1440 1395 1890 1035 1980 990 2115 1035
	 2565 1440 2880 1350 3240 1260
	 0.000 1.000 1.000 1.000 1.000 1.000 1.000 1.000
	 0.000
4 1 0 60 -1 16 8 0.0000 4 135 1185 4590 765 Couche application\001
4 1 0 60 -1 16 8 0.0000 4 135 750 4590 930 (ex : HTTP)\001
4 1 0 60 -1 16 8 0.0000 4 135 1080 4590 1170 Couche transport\001
4 1 0 60 -1 16 8 0.0000 4 135 660 4590 1335 (ex : TCP)\001
4 1 0 60 -1 16 8 0.0000 4 105 990 4590 1620 Couche internet\001
4 1 0 60 -1 16 8 0.0000 4 135 660 4590 1785 (ex : IPv4)\001
4 1 0 60 -1 16 8 0.0000 4 105 945 4590 2070 Couche réseau\001
4 1 0 60 -1 16 8 0.0000 4 135 900 4590 2235 (ex : Ethernet)\001
4 0 12 11 -1 18 10 0.0000 4 120 90 2520 1800 1\001
4 2 23 13 -1 17 7 0.0000 4 120 855 1620 1035 (retransmission)\001
4 2 23 12 -1 18 10 0.0000 4 120 90 1620 945 2\001
4 2 23 12 -1 18 10 0.0000 4 120 90 1575 1935 2\001
4 2 1 13 -1 18 10 0.0000 4 120 90 2385 1440 3\001
4 1 4 5 -1 16 9 0.0000 4 120 495 2250 2250 Boum !\001
