#FIG 3.2  Produced by xfig version 3.2.8b
#encoding: UTF-8
Portrait
Center
Metric
A4
100.00
Single
-2
1200 2
0 32 #c6b797
0 33 #eff8ff
0 34 #dccba6
0 35 #404040
0 36 #808080
0 37 #c0c0c0
0 38 #e0e0e0
0 39 #8e8f8e
0 40 #aaaaaa
0 41 #555555
0 42 #bebebe
0 43 #515151
0 44 #e7e3e7
0 45 #000049
0 46 #797979
0 47 #303430
0 48 #414141
0 49 #c7b696
0 50 #8e8e8e
0 51 #414541
0 52 #8e8e8e
0 53 #909090
0 54 #e6e4ce
0 55 #9b9b9b
0 56 #ce9100
0 57 #f762aa
0 58 #7070ff
0 59 #5f5f5f
0 60 #e2e2ee
0 61 #94949a
0 62 #dbdbdb
0 63 #a1a1b7
0 64 #9c0000
0 65 #ededed
0 66 #86acff
0 67 #444444
0 68 #cccccc
0 69 #fff2d3
0 70 #ffe4ae
0 71 #ffd279
0 72 #cfcfcf
0 73 #999999
0 74 #b2b2b2
0 75 #868286
0 76 #c7c3c7
0 77 #868686
0 78 #c7c7c7
0 79 #e7e7e7
0 80 #f7f7f7
0 81 #9e9e9e
0 82 #717571
0 83 #effbff
0 84 #666666
6 1350 2250 5895 2520
2 2 0 1 0 25 51 0 36 0.000 0 0 -1 0 0 5
	 1350 2250 5850 2250 5850 2475 1350 2475 1350 2250
2 2 0 1 0 0 52 0 20 0.000 0 0 -1 0 0 5
	 1395 2295 5895 2295 5895 2520 1395 2520 1395 2295
-6
1 1 0 1 0 25 50 0 36 0.000 1 0.0000 3150 1530 87 18 3150 1530 3237 1530
2 1 0 1 0 7 50 0 -1 0.000 0 0 -1 0 0 3
	 3420 1620 3240 1620 3240 1530
2 3 0 1 0 25 50 0 36 0.000 0 0 -1 0 0 15
	 3285 1260 3915 1260 3780 1485 3780 1755 3690 1755 3690 1845
	 3645 1845 3645 1890 3555 1890 3555 1845 3510 1845 3510 1755
	 3420 1755 3420 1485 3285 1260
2 1 0 1 0 7 50 0 -1 0.000 0 0 -1 1 0 2
	1 1 1.00 45.00 90.00
	 5310 2565 5310 2835
2 1 0 1 0 7 50 0 -1 0.000 0 0 -1 1 0 2
	1 1 1.00 45.00 90.00
	 3600 1935 3600 2205
2 1 1 1 0 7 50 0 -1 4.000 0 0 -1 0 0 2
	 4725 2475 4725 2880
2 1 1 1 0 7 50 0 -1 4.000 0 0 -1 0 0 2
	 5850 2475 5850 2880
2 1 0 1 0 7 50 -1 18 0.000 0 0 -1 1 0 2
	1 1 1.00 30.00 45.00
	 2880 675 3510 1215
2 1 0 1 0 7 50 -1 18 0.000 0 0 -1 1 0 2
	1 1 1.00 30.00 45.00
	 4410 675 3690 1215
2 1 0 1 0 7 50 -1 18 0.000 0 0 -1 1 0 2
	1 1 1.00 30.00 45.00
	 5355 675 3870 1215
2 2 0 1 0 0 52 0 20 0.000 0 0 -1 0 0 5
	 675 450 2025 450 2025 720 675 720 675 450
2 2 0 1 0 1 51 0 38 0.000 0 0 -1 0 0 5
	 4725 2880 5850 2880 5850 3150 4725 3150 4725 2880
2 2 0 1 0 0 52 0 20 0.000 0 0 -1 0 0 5
	 4770 2925 5895 2925 5895 3195 4770 3195 4770 2925
2 2 0 1 0 0 52 0 20 0.000 0 0 -1 0 0 5
	 2205 450 3555 450 3555 720 2205 720 2205 450
2 2 0 1 0 0 52 0 20 0.000 0 0 -1 0 0 5
	 3735 450 5085 450 5085 720 3735 720 3735 450
2 2 0 1 0 0 52 0 20 0.000 0 0 -1 0 0 5
	 5265 450 6615 450 6615 720 5265 720 5265 450
2 2 0 1 0 13 51 0 38 0.000 0 0 7 0 0 5
	 630 405 1980 405 1980 675 630 675 630 405
2 2 0 1 0 4 51 0 38 0.000 0 0 7 0 0 5
	 2160 405 3510 405 3510 675 2160 675 2160 405
2 2 0 1 0 31 51 0 38 0.000 0 0 7 0 0 5
	 3690 405 5040 405 5040 675 3690 675 3690 405
2 2 0 1 0 21 51 0 38 0.000 0 0 7 0 0 5
	 5220 405 6570 405 6570 675 5220 675 5220 405
3 0 0 1 0 7 50 -1 18 0.000 0 1 0 2
	1 1 1.00 30.00 45.00
	 1890 675 3330 1215
	 0.000 0.000
4 0 0 50 -1 16 8 0.0000 4 105 555 3870 1575 SHA-256\001
4 2 0 50 -1 16 8 0.0000 4 105 1995 4680 3060 identifiant d'interface sur 64 bits\001
4 1 0 50 0 16 8 0.0000 6 135 1395 3600 2430 empreinte sur 256 bits\001
4 1 0 50 0 16 10 0.0000 4 150 1050 1305 360 préfixe réseau\001
4 1 0 50 0 16 10 0.0000 4 120 1110 2835 360 nom d'interface\001
4 1 0 50 0 16 10 0.0000 4 120 855 5895 360 clef secrète\001
4 1 0 50 -1 16 7 0.0000 4 90 210 2835 585 eth0\001
4 1 0 50 -1 16 7 0.0000 4 90 60 4365 585 1\001
4 1 0 50 -1 16 7 0.0000 4 90 1200 1305 585 2001:db8:1234:5678::/64\001
4 1 0 50 0 16 10 0.0000 4 150 1620 4365 360 compteur de collisions\001
4 1 0 50 -1 16 7 0.0000 4 90 1080 5895 585 choisie à l'installation\001
