<?xml version="1.0" encoding="utf-8"  standalone="no"?>
<!DOCTYPE svg PUBLIC "-//W3C//DTD SVG 1.1//EN" 
 "http://www.w3.org/Graphics/SVG/1.1/DTD/svg11.dtd">
<svg 
 width="600" height="480" 
 viewBox="0 0 600 480"
 xmlns="http://www.w3.org/2000/svg"
 xmlns:xlink="http://www.w3.org/1999/xlink"
>

<title>Gnuplot</title>
<desc>Produced by GNUPLOT 4.6 patchlevel 5 </desc>

<g id="gnuplot_canvas">

<rect x="0" y="0" width="600" height="480" fill="none"/>
<defs>

	<circle id='gpDot' r='0.5' stroke-width='0.5'/>
	<path id='gpPt0' stroke-width='0.222' stroke='currentColor' d='M-1,0 h2 M0,-1 v2'/>
	<path id='gpPt1' stroke-width='0.222' stroke='currentColor' d='M-1,-1 L1,1 M1,-1 L-1,1'/>
	<path id='gpPt2' stroke-width='0.222' stroke='currentColor' d='M-1,0 L1,0 M0,-1 L0,1 M-1,-1 L1,1 M-1,1 L1,-1'/>
	<rect id='gpPt3' stroke-width='0.222' stroke='currentColor' x='-1' y='-1' width='2' height='2'/>
	<rect id='gpPt4' stroke-width='0.222' stroke='currentColor' fill='currentColor' x='-1' y='-1' width='2' height='2'/>
	<circle id='gpPt5' stroke-width='0.222' stroke='currentColor' cx='0' cy='0' r='1'/>
	<use xlink:href='#gpPt5' id='gpPt6' fill='currentColor' stroke='none'/>
	<path id='gpPt7' stroke-width='0.222' stroke='currentColor' d='M0,-1.33 L-1.33,0.67 L1.33,0.67 z'/>
	<use xlink:href='#gpPt7' id='gpPt8' fill='currentColor' stroke='none'/>
	<use xlink:href='#gpPt7' id='gpPt9' stroke='currentColor' transform='rotate(180)'/>
	<use xlink:href='#gpPt9' id='gpPt10' fill='currentColor' stroke='none'/>
	<use xlink:href='#gpPt3' id='gpPt11' stroke='currentColor' transform='rotate(45)'/>
	<use xlink:href='#gpPt11' id='gpPt12' fill='currentColor' stroke='none'/>
</defs>
<g style="fill:none; color:white; stroke:currentColor; stroke-width:2.00; stroke-linecap:butt; stroke-linejoin:miter">
</g>
<g style="fill:none; color:black; stroke:currentColor; stroke-width:2.00; stroke-linecap:butt; stroke-linejoin:miter">
</g>
<g style="fill:none; color:gray; stroke:currentColor; stroke-width:2.00; stroke-linecap:butt; stroke-linejoin:miter">
	<path stroke='gray' stroke-dasharray=' 2,4' class="gridline"  d='M105.1,422.4 L575.0,422.4  '/></g>
<g style="fill:none; color:black; stroke:currentColor; stroke-width:2.00; stroke-linecap:butt; stroke-linejoin:miter">
	<path stroke='black'  d='M105.1,422.4 L114.1,422.4 M575.0,422.4 L566.0,422.4  '/>	<g transform="translate(96.8,426.9)" style="stroke:none; fill:black; font-family:Arial; font-size:12.00pt; text-anchor:end">
		<text> 0</text>
	</g>
</g>
<g style="fill:none; color:gray; stroke:currentColor; stroke-width:2.00; stroke-linecap:butt; stroke-linejoin:miter">
	<path stroke='gray' stroke-dasharray=' 2,4' class="gridline"  d='M105.1,361.0 L575.0,361.0  '/></g>
<g style="fill:none; color:black; stroke:currentColor; stroke-width:2.00; stroke-linecap:butt; stroke-linejoin:miter">
	<path stroke='black'  d='M105.1,361.0 L114.1,361.0 M575.0,361.0 L566.0,361.0  '/>	<g transform="translate(96.8,365.5)" style="stroke:none; fill:black; font-family:Arial; font-size:12.00pt; text-anchor:end">
		<text> 200000</text>
	</g>
</g>
<g style="fill:none; color:gray; stroke:currentColor; stroke-width:2.00; stroke-linecap:butt; stroke-linejoin:miter">
	<path stroke='gray' stroke-dasharray=' 2,4' class="gridline"  d='M105.1,299.6 L575.0,299.6  '/></g>
<g style="fill:none; color:black; stroke:currentColor; stroke-width:2.00; stroke-linecap:butt; stroke-linejoin:miter">
	<path stroke='black'  d='M105.1,299.6 L114.1,299.6 M575.0,299.6 L566.0,299.6  '/>	<g transform="translate(96.8,304.1)" style="stroke:none; fill:black; font-family:Arial; font-size:12.00pt; text-anchor:end">
		<text> 400000</text>
	</g>
</g>
<g style="fill:none; color:gray; stroke:currentColor; stroke-width:2.00; stroke-linecap:butt; stroke-linejoin:miter">
	<path stroke='gray' stroke-dasharray=' 2,4' class="gridline"  d='M105.1,238.2 L575.0,238.2  '/></g>
<g style="fill:none; color:black; stroke:currentColor; stroke-width:2.00; stroke-linecap:butt; stroke-linejoin:miter">
	<path stroke='black'  d='M105.1,238.2 L114.1,238.2 M575.0,238.2 L566.0,238.2  '/>	<g transform="translate(96.8,242.7)" style="stroke:none; fill:black; font-family:Arial; font-size:12.00pt; text-anchor:end">
		<text> 600000</text>
	</g>
</g>
<g style="fill:none; color:gray; stroke:currentColor; stroke-width:2.00; stroke-linecap:butt; stroke-linejoin:miter">
	<path stroke='gray' stroke-dasharray=' 2,4' class="gridline"  d='M105.1,176.9 L575.0,176.9  '/></g>
<g style="fill:none; color:black; stroke:currentColor; stroke-width:2.00; stroke-linecap:butt; stroke-linejoin:miter">
	<path stroke='black'  d='M105.1,176.9 L114.1,176.9 M575.0,176.9 L566.0,176.9  '/>	<g transform="translate(96.8,181.4)" style="stroke:none; fill:black; font-family:Arial; font-size:12.00pt; text-anchor:end">
		<text> 800000</text>
	</g>
</g>
<g style="fill:none; color:gray; stroke:currentColor; stroke-width:2.00; stroke-linecap:butt; stroke-linejoin:miter">
	<path stroke='gray' stroke-dasharray=' 2,4' class="gridline"  d='M105.1,115.5 L113.4,115.5 M230.3,115.5 L575.0,115.5  '/></g>
<g style="fill:none; color:black; stroke:currentColor; stroke-width:2.00; stroke-linecap:butt; stroke-linejoin:miter">
	<path stroke='black'  d='M105.1,115.5 L114.1,115.5 M575.0,115.5 L566.0,115.5  '/>	<g transform="translate(96.8,120.0)" style="stroke:none; fill:black; font-family:Arial; font-size:12.00pt; text-anchor:end">
		<text> 1e+06</text>
	</g>
</g>
<g style="fill:none; color:gray; stroke:currentColor; stroke-width:2.00; stroke-linecap:butt; stroke-linejoin:miter">
	<path stroke='gray' stroke-dasharray=' 2,4' class="gridline"  d='M105.1,54.1 L575.0,54.1  '/></g>
<g style="fill:none; color:black; stroke:currentColor; stroke-width:2.00; stroke-linecap:butt; stroke-linejoin:miter">
	<path stroke='black'  d='M105.1,54.1 L114.1,54.1 M575.0,54.1 L566.0,54.1  '/>	<g transform="translate(96.8,58.6)" style="stroke:none; fill:black; font-family:Arial; font-size:12.00pt; text-anchor:end">
		<text> 1.2e+06</text>
	</g>
</g>
<g style="fill:none; color:gray; stroke:currentColor; stroke-width:2.00; stroke-linecap:butt; stroke-linejoin:miter">
	<path stroke='gray' stroke-dasharray=' 2,4' class="gridline"  d='M105.1,422.4 L105.1,54.1  '/></g>
<g style="fill:none; color:black; stroke:currentColor; stroke-width:2.00; stroke-linecap:butt; stroke-linejoin:miter">
	<path stroke='black'  d='M105.1,422.4 L105.1,413.4 M105.1,54.1 L105.1,63.1  '/>	<g transform="translate(105.1,444.9)" style="stroke:none; fill:black; font-family:Arial; font-size:12.00pt; text-anchor:middle">
		<text>2000</text>
	</g>
	<path stroke='black'  d='M112.9,422.4 L112.9,417.9 M112.9,54.1 L112.9,58.6 M120.7,422.4 L120.7,417.9 M120.7,54.1 L120.7,58.6 
		M128.6,422.4 L128.6,417.9 M128.6,54.1 L128.6,58.6 M136.4,422.4 L136.4,417.9 M136.4,54.1 L136.4,58.6 
		M144.1,422.4 L144.1,417.9 M144.1,54.1 L144.1,58.6 M151.9,422.4 L151.9,417.9 M151.9,54.1 L151.9,58.6 
		M159.7,422.4 L159.7,417.9 M159.7,54.1 L159.7,58.6  '/></g>
<g style="fill:none; color:gray; stroke:currentColor; stroke-width:2.00; stroke-linecap:butt; stroke-linejoin:miter">
	<path stroke='gray' stroke-dasharray=' 2,4' class="gridline"  d='M167.6,422.4 L167.6,153.1 M167.6,63.1 L167.6,54.1  '/></g>
<g style="fill:none; color:black; stroke:currentColor; stroke-width:2.00; stroke-linecap:butt; stroke-linejoin:miter">
	<path stroke='black'  d='M167.6,422.4 L167.6,413.4 M167.6,54.1 L167.6,63.1  '/>	<g transform="translate(167.6,444.9)" style="stroke:none; fill:black; font-family:Arial; font-size:12.00pt; text-anchor:middle">
		<text>2002</text>
	</g>
	<path stroke='black'  d='M175.3,422.4 L175.3,417.9 M175.3,54.1 L175.3,58.6 M183.0,422.4 L183.0,417.9 M183.0,54.1 L183.0,58.6 
		M190.9,422.4 L190.9,417.9 M190.9,54.1 L190.9,58.6 M198.7,422.4 L198.7,417.9 M198.7,54.1 L198.7,58.6 
		M206.4,422.4 L206.4,417.9 M206.4,54.1 L206.4,58.6 M214.2,422.4 L214.2,417.9 M214.2,54.1 L214.2,58.6 
		M222.0,422.4 L222.0,417.9 M222.0,54.1 L222.0,58.6  '/></g>
<g style="fill:none; color:gray; stroke:currentColor; stroke-width:2.00; stroke-linecap:butt; stroke-linejoin:miter">
	<path stroke='gray' stroke-dasharray=' 2,4' class="gridline"  d='M229.8,422.4 L229.8,153.1 M229.8,63.1 L229.8,54.1  '/></g>
<g style="fill:none; color:black; stroke:currentColor; stroke-width:2.00; stroke-linecap:butt; stroke-linejoin:miter">
	<path stroke='black'  d='M229.8,422.4 L229.8,413.4 M229.8,54.1 L229.8,63.1  '/>	<g transform="translate(229.8,444.9)" style="stroke:none; fill:black; font-family:Arial; font-size:12.00pt; text-anchor:middle">
		<text>2004</text>
	</g>
	<path stroke='black'  d='M237.6,422.4 L237.6,417.9 M237.6,54.1 L237.6,58.6 M245.4,422.4 L245.4,417.9 M245.4,54.1 L245.4,58.6 
		M253.3,422.4 L253.3,417.9 M253.3,54.1 L253.3,58.6 M261.1,422.4 L261.1,417.9 M261.1,54.1 L261.1,58.6 
		M268.8,422.4 L268.8,417.9 M268.8,54.1 L268.8,58.6 M276.6,422.4 L276.6,417.9 M276.6,54.1 L276.6,58.6 
		M284.4,422.4 L284.4,417.9 M284.4,54.1 L284.4,58.6  '/></g>
<g style="fill:none; color:gray; stroke:currentColor; stroke-width:2.00; stroke-linecap:butt; stroke-linejoin:miter">
	<path stroke='gray' stroke-dasharray=' 2,4' class="gridline"  d='M292.3,422.4 L292.3,54.1  '/></g>
<g style="fill:none; color:black; stroke:currentColor; stroke-width:2.00; stroke-linecap:butt; stroke-linejoin:miter">
	<path stroke='black'  d='M292.3,422.4 L292.3,413.4 M292.3,54.1 L292.3,63.1  '/>	<g transform="translate(292.3,444.9)" style="stroke:none; fill:black; font-family:Arial; font-size:12.00pt; text-anchor:middle">
		<text>2006</text>
	</g>
	<path stroke='black'  d='M300.0,422.4 L300.0,417.9 M300.0,54.1 L300.0,58.6 M307.7,422.4 L307.7,417.9 M307.7,54.1 L307.7,58.6 
		M315.6,422.4 L315.6,417.9 M315.6,54.1 L315.6,58.6 M323.5,422.4 L323.5,417.9 M323.5,54.1 L323.5,58.6 
		M331.1,422.4 L331.1,417.9 M331.1,54.1 L331.1,58.6 M338.9,422.4 L338.9,417.9 M338.9,54.1 L338.9,58.6 
		M346.8,422.4 L346.8,417.9 M346.8,54.1 L346.8,58.6  '/></g>
<g style="fill:none; color:gray; stroke:currentColor; stroke-width:2.00; stroke-linecap:butt; stroke-linejoin:miter">
	<path stroke='gray' stroke-dasharray=' 2,4' class="gridline"  d='M354.6,422.4 L354.6,54.1  '/></g>
<g style="fill:none; color:black; stroke:currentColor; stroke-width:2.00; stroke-linecap:butt; stroke-linejoin:miter">
	<path stroke='black'  d='M354.6,422.4 L354.6,413.4 M354.6,54.1 L354.6,63.1  '/>	<g transform="translate(354.6,444.9)" style="stroke:none; fill:black; font-family:Arial; font-size:12.00pt; text-anchor:middle">
		<text>2008</text>
	</g>
	<path stroke='black'  d='M362.4,422.4 L362.4,417.9 M362.4,54.1 L362.4,58.6 M370.2,422.4 L370.2,417.9 M370.2,54.1 L370.2,58.6 
		M378.1,422.4 L378.1,417.9 M378.1,54.1 L378.1,58.6 M385.9,422.4 L385.9,417.9 M385.9,54.1 L385.9,58.6 
		M393.6,422.4 L393.6,417.9 M393.6,54.1 L393.6,58.6 M401.4,422.4 L401.4,417.9 M401.4,54.1 L401.4,58.6 
		M409.2,422.4 L409.2,417.9 M409.2,54.1 L409.2,58.6  '/></g>
<g style="fill:none; color:gray; stroke:currentColor; stroke-width:2.00; stroke-linecap:butt; stroke-linejoin:miter">
	<path stroke='gray' stroke-dasharray=' 2,4' class="gridline"  d='M417.0,422.4 L417.0,54.1  '/></g>
<g style="fill:none; color:black; stroke:currentColor; stroke-width:2.00; stroke-linecap:butt; stroke-linejoin:miter">
	<path stroke='black'  d='M417.0,422.4 L417.0,413.4 M417.0,54.1 L417.0,63.1  '/>	<g transform="translate(417.0,444.9)" style="stroke:none; fill:black; font-family:Arial; font-size:12.00pt; text-anchor:middle">
		<text>2010</text>
	</g>
	<path stroke='black'  d='M424.8,422.4 L424.8,417.9 M424.8,54.1 L424.8,58.6 M432.5,422.4 L432.5,417.9 M432.5,54.1 L432.5,58.6 
		M440.4,422.4 L440.4,417.9 M440.4,54.1 L440.4,58.6 M448.2,422.4 L448.2,417.9 M448.2,54.1 L448.2,58.6 
		M455.9,422.4 L455.9,417.9 M455.9,54.1 L455.9,58.6 M463.7,422.4 L463.7,417.9 M463.7,54.1 L463.7,58.6 
		M471.5,422.4 L471.5,417.9 M471.5,54.1 L471.5,58.6  '/></g>
<g style="fill:none; color:gray; stroke:currentColor; stroke-width:2.00; stroke-linecap:butt; stroke-linejoin:miter">
	<path stroke='gray' stroke-dasharray=' 2,4' class="gridline"  d='M479.3,422.4 L479.3,54.1  '/></g>
<g style="fill:none; color:black; stroke:currentColor; stroke-width:2.00; stroke-linecap:butt; stroke-linejoin:miter">
	<path stroke='black'  d='M479.3,422.4 L479.3,413.4 M479.3,54.1 L479.3,63.1  '/>	<g transform="translate(479.3,444.9)" style="stroke:none; fill:black; font-family:Arial; font-size:12.00pt; text-anchor:middle">
		<text>2012</text>
	</g>
	<path stroke='black'  d='M487.1,422.4 L487.1,417.9 M487.1,54.1 L487.1,58.6 M494.9,422.4 L494.9,417.9 M494.9,54.1 L494.9,58.6 
		M502.8,422.4 L502.8,417.9 M502.8,54.1 L502.8,58.6 M510.6,422.4 L510.6,417.9 M510.6,54.1 L510.6,58.6 
		M518.3,422.4 L518.3,417.9 M518.3,54.1 L518.3,58.6 M526.1,422.4 L526.1,417.9 M526.1,54.1 L526.1,58.6 
		M533.9,422.4 L533.9,417.9 M533.9,54.1 L533.9,58.6  '/></g>
<g style="fill:none; color:gray; stroke:currentColor; stroke-width:2.00; stroke-linecap:butt; stroke-linejoin:miter">
	<path stroke='gray' stroke-dasharray=' 2,4' class="gridline"  d='M541.8,422.4 L541.8,54.1  '/></g>
<g style="fill:none; color:black; stroke:currentColor; stroke-width:2.00; stroke-linecap:butt; stroke-linejoin:miter">
	<path stroke='black'  d='M541.8,422.4 L541.8,413.4 M541.8,54.1 L541.8,63.1  '/>	<g transform="translate(541.8,444.9)" style="stroke:none; fill:black; font-family:Arial; font-size:12.00pt; text-anchor:middle">
		<text>2014</text>
	</g>
	<path stroke='black'  d='M549.5,422.4 L549.5,417.9 M549.5,54.1 L549.5,58.6 M557.2,422.4 L557.2,417.9 M557.2,54.1 L557.2,58.6 
		M565.1,422.4 L565.1,417.9 M565.1,54.1 L565.1,58.6 M573.0,422.4 L573.0,417.9 M573.0,54.1 L573.0,58.6 
		M105.1,54.1 L105.1,422.4 L575.0,422.4 L575.0,54.1 L105.1,54.1 Z  '/>	<g transform="translate(17.6,238.3) rotate(270)" style="stroke:none; fill:black; font-family:Arial; font-size:12.00pt; text-anchor:middle">
		<text>average assigned addresses per day</text>
	</g>
	<g transform="translate(340.0,471.9)" style="stroke:none; fill:black; font-family:Arial; font-size:12.00pt; text-anchor:middle">
		<text>Date</text>
	</g>
	<g transform="translate(340.0,31.6)" style="stroke:none; fill:black; font-family:Arial; font-size:12.00pt; text-anchor:middle">
		<text>Daily assigment rate per RIR</text>
	</g>
</g>
	<g id="gnuplot_plot_1" ><title>gnuplot_plot_1</title>
<g style="fill:none; color:red; stroke:currentColor; stroke-width:2.00; stroke-linecap:butt; stroke-linejoin:miter">
	<g transform="translate(171.5,76.6)" style="stroke:none; fill:black; font-family:Arial; font-size:12.00pt; text-anchor:end">
		<text>APNIC</text>
	</g>
	<g style = 'stroke:none; shape-rendering:crispEdges'>
		<polygon fill = 'currentColor' points = '179.8,76.6 222.0,76.6 222.0,67.6 179.8,67.6 '/>
	</g>
	<path  d='M179.8,76.6 L222.0,76.6 L222.0,67.6 L179.8,67.6 L179.8,76.6 Z  '/>	<g style = 'stroke:none; shape-rendering:crispEdges'>
		<polygon fill = 'currentColor' points = '105.1,368.2 105.1,368.2 107.7,378.2 110.2,357.5 112.9,348.9 115.4,344.0 118.1,358.1 120.6,361.7 123.3,358.4 125.9,352.3 128.5,333.4 131.1,340.4 133.7,352.0 136.3,353.7 139.0,357.9 141.4,356.8
144.0,358.0 146.6,352.6 149.2,345.0 151.8,359.7 154.4,357.5 157.1,360.9 159.7,341.9 162.3,330.8 164.9,342.7 167.5,365.8 170.2,377.6 172.6,363.9 175.2,337.6 177.8,349.1 180.4,363.8 183.0,376.2
185.6,372.4 188.3,375.0 190.8,374.0 193.5,374.3 196.0,357.8 198.7,345.8 201.3,333.1 203.7,343.7 206.4,365.2 208.9,380.0 211.6,379.8 214.1,380.8 216.8,371.8 219.4,360.4 222.0,344.0 224.6,335.0
227.2,316.2 229.8,325.0 232.5,325.0 235.0,320.3 237.6,294.5 240.2,288.2 242.8,305.0 245.4,318.7 248.0,323.9 250.7,326.4 253.2,333.8 255.9,341.1 258.4,352.0 261.1,351.1 263.7,346.3 266.1,316.7
268.8,313.4 271.3,286.4 274.0,283.8 276.5,278.0 279.2,276.2 281.8,297.4 284.4,298.6 287.0,327.9 289.6,340.6 292.3,328.9 294.9,307.2 297.3,272.1 299.9,287.4 302.5,287.5 305.1,307.5 307.7,281.4
310.4,297.9 313.0,275.5 315.6,298.3 318.2,264.3 320.8,280.4 323.4,259.5 326.1,266.9 328.5,244.4 331.1,261.6 333.7,260.7 336.3,255.0 338.9,235.7 341.5,233.1 344.2,268.6 346.7,278.8 349.4,299.5
351.9,299.0 354.6,315.7 357.2,243.6 359.7,228.6 362.4,170.7 364.9,240.7 367.6,237.8 370.1,278.9 372.8,289.5 375.4,293.1 378.0,310.3 380.6,292.7 383.2,273.2 385.8,264.2 388.5,247.0 390.9,281.4
393.5,270.6 396.1,277.3 398.7,266.8 401.3,258.6 403.9,282.5 406.6,303.6 409.1,302.3 411.8,270.6 414.4,243.2 417.0,247.5 419.6,282.8 422.0,266.7 424.7,254.3 427.2,214.4 429.9,230.9 432.5,239.5
435.1,253.9 437.7,241.6 440.3,219.7 443.0,215.7 445.5,179.6 448.2,173.0 450.8,157.7 453.2,113.5 455.8,146.3 458.4,175.9 461.1,286.5 463.6,312.8 466.3,350.0 468.9,357.1 471.5,374.2 474.1,370.4
476.7,366.3 479.3,359.4 482.0,355.2 484.5,353.4 487.1,345.5 489.7,345.8 492.3,336.9 494.9,348.9 497.5,338.2 500.2,354.5 502.7,354.8 505.4,371.2 507.9,373.1 510.6,376.4 513.2,375.3 515.6,375.6
518.3,380.3 520.8,380.6 523.5,382.3 526.0,369.6 528.7,370.1 531.3,369.1 533.9,372.7 536.5,352.4 539.1,353.0 541.7,348.4 544.4,372.5 546.8,359.7 549.4,355.0 552.0,348.7 554.6,361.5 557.2,379.3
559.8,382.8 562.5,396.1 565.1,392.8 567.7,401.7 570.3,395.7 570.3,422.4 105.1,422.4 '/>
	</g>
	<path  d='M105.1,368.2 L107.7,378.2 L110.2,357.5 L112.9,348.9 L115.4,344.0 L118.1,358.1 L120.6,361.7 L123.3,358.4 
		L125.9,352.3 L128.5,333.4 L131.1,340.4 L133.7,352.0 L136.3,353.7 L139.0,357.9 L141.4,356.8 L144.0,358.0 
		L146.6,352.6 L149.2,345.0 L151.8,359.7 L154.4,357.5 L157.1,360.9 L159.7,341.9 L162.3,330.8 L164.9,342.7 
		L167.5,365.8 L170.2,377.6 L172.6,363.9 L175.2,337.6 L177.8,349.1 L180.4,363.8 L183.0,376.2 L185.6,372.4 
		L188.3,375.0 L190.8,374.0 L193.5,374.3 L196.0,357.8 L198.7,345.8 L201.3,333.1 L203.7,343.7 L206.4,365.2 
		L208.9,380.0 L211.6,379.8 L214.1,380.8 L216.8,371.8 L219.4,360.4 L222.0,344.0 L224.6,335.0 L227.2,316.2 
		L229.8,325.0 L232.5,325.0 L235.0,320.3 L237.6,294.5 L240.2,288.2 L242.8,305.0 L245.4,318.7 L248.0,323.9 
		L250.7,326.4 L253.2,333.8 L255.9,341.1 L258.4,352.0 L261.1,351.1 L263.7,346.3 L266.1,316.7 L268.8,313.4 
		L271.3,286.4 L274.0,283.8 L276.5,278.0 L279.2,276.2 L281.8,297.4 L284.4,298.6 L287.0,327.9 L289.6,340.6 
		L292.3,328.9 L294.9,307.2 L297.3,272.1 L299.9,287.4 L302.5,287.5 L305.1,307.5 L307.7,281.4 L310.4,297.9 
		L313.0,275.5 L315.6,298.3 L318.2,264.3 L320.8,280.4 L323.4,259.5 L326.1,266.9 L328.5,244.4 L331.1,261.6 
		L333.7,260.7 L336.3,255.0 L338.9,235.7 L341.5,233.1 L344.2,268.6 L346.7,278.8 L349.4,299.5 L351.9,299.0 
		L354.6,315.7 L357.2,243.6 L359.7,228.6 L362.4,170.7 L364.9,240.7 L367.6,237.8 L370.1,278.9 L372.8,289.5 
		L375.4,293.1 L378.0,310.3 L380.6,292.7 L383.2,273.2 L385.8,264.2 L388.5,247.0 L390.9,281.4 L393.5,270.6 
		L396.1,277.3 L398.7,266.8 L401.3,258.6 L403.9,282.5 L406.6,303.6 L409.1,302.3 L411.8,270.6 L414.4,243.2 
		L417.0,247.5 L419.6,282.8 L422.0,266.7 L424.7,254.3 L427.2,214.4 L429.9,230.9 L432.5,239.5 L435.1,253.9 
		L437.7,241.6 L440.3,219.7 L443.0,215.7 L445.5,179.6 L448.2,173.0 L450.8,157.7 L453.2,113.5 L455.8,146.3 
		L458.4,175.9 L461.1,286.5 L463.6,312.8 L466.3,350.0 L468.9,357.1 L471.5,374.2 L474.1,370.4 L476.7,366.3 
		L479.3,359.4 L482.0,355.2 L484.5,353.4 L487.1,345.5 L489.7,345.8 L492.3,336.9 L494.9,348.9 L497.5,338.2 
		L500.2,354.5 L502.7,354.8 L505.4,371.2 L507.9,373.1 L510.6,376.4 L513.2,375.3 L515.6,375.6 L518.3,380.3 
		L520.8,380.6 L523.5,382.3 L526.0,369.6 L528.7,370.1 L531.3,369.1 L533.9,372.7 L536.5,352.4 L539.1,353.0 
		L541.7,348.4 L544.4,372.5 L546.8,359.7 L549.4,355.0 L552.0,348.7 L554.6,361.5 L557.2,379.3 L559.8,382.8 
		L562.5,396.1 L565.1,392.8 L567.7,401.7 L570.3,395.7  '/></g>
	</g>
	<g id="gnuplot_plot_2" ><title>gnuplot_plot_2</title>
<g style="fill:none; color:green; stroke:currentColor; stroke-width:2.00; stroke-linecap:butt; stroke-linejoin:miter">
	<g transform="translate(171.5,94.6)" style="stroke:none; fill:black; font-family:Arial; font-size:12.00pt; text-anchor:end">
		<text>RIPENCC</text>
	</g>
	<g style = 'stroke:none; shape-rendering:crispEdges'>
		<polygon fill = 'currentColor' points = '179.8,94.6 222.0,94.6 222.0,85.6 179.8,85.6 '/>
	</g>
	<path  d='M179.8,94.6 L222.0,94.6 L222.0,85.6 L179.8,85.6 L179.8,94.6 Z  '/>	<g style = 'stroke:none; shape-rendering:crispEdges'>
		<polygon fill = 'currentColor' points = '105.1,379.1 105.1,379.1 107.7,385.2 110.2,368.0 112.9,367.2 115.4,368.4 118.1,382.7 120.6,378.4 123.3,370.0 125.9,372.2 128.5,356.3 131.1,364.9 133.7,368.0 136.3,373.0 139.0,374.6 141.4,373.5
144.0,376.9 146.6,376.5 149.2,378.3 151.8,384.4 154.4,376.5 157.1,376.4 159.7,378.4 162.3,373.0 164.9,374.2 167.5,377.7 170.2,383.8 172.6,384.1 175.2,386.9 177.8,397.4 180.4,397.8 183.0,383.9
185.6,384.6 188.3,389.9 190.8,395.5 193.5,391.2 196.0,379.5 198.7,381.9 201.3,371.5 203.7,378.9 206.4,381.2 208.9,394.2 211.6,398.1 214.1,398.1 216.8,394.2 219.4,389.4 222.0,380.5 224.6,372.4
227.2,345.2 229.8,343.3 232.5,341.9 235.0,342.7 237.6,325.3 240.2,336.2 242.8,351.9 245.4,367.0 248.0,364.4 250.7,362.0 253.2,364.1 255.9,365.1 258.4,375.2 261.1,371.3 263.7,359.8 266.1,334.5
268.8,333.6 271.3,316.7 274.0,319.5 276.5,312.3 279.2,325.1 281.8,342.9 284.4,349.8 287.0,355.4 289.6,364.8 292.3,347.4 294.9,334.8 297.3,303.3 299.9,327.1 302.5,330.3 305.1,352.6 307.7,330.8
310.4,344.7 313.0,315.3 315.6,324.1 318.2,314.8 320.8,334.5 323.4,327.6 326.1,320.6 328.5,305.7 331.1,314.9 333.7,310.7 336.3,294.4 338.9,291.5 341.5,306.5 344.2,346.0 346.7,345.5 349.4,337.7
351.9,329.9 354.6,342.8 357.2,290.4 359.7,300.7 362.4,269.6 364.9,325.0 367.6,319.5 370.1,348.8 372.8,356.7 375.4,355.0 378.0,355.4 380.6,356.4 383.2,345.6 385.8,336.7 388.5,323.9 390.9,334.8
393.5,342.8 396.1,354.2 398.7,345.7 401.3,351.3 403.9,348.0 406.6,367.0 409.1,349.9 411.8,344.6 414.4,337.7 417.0,347.0 419.6,357.0 422.0,353.8 424.7,353.6 427.2,326.0 429.9,317.4 432.5,322.1
435.1,352.5 437.7,357.6 440.3,317.0 443.0,286.6 445.5,266.3 448.2,289.8 450.8,317.8 453.2,339.0 455.8,358.1 458.4,329.1 461.1,325.5 463.6,313.5 466.3,350.7 468.9,357.6 471.5,374.8 474.1,370.9
476.7,366.9 479.3,360.0 482.0,355.8 484.5,354.1 487.1,346.1 489.7,346.4 492.3,337.4 494.9,349.5 497.5,338.9 500.2,355.2 502.7,355.5 505.4,372.0 507.9,373.8 510.6,377.1 513.2,376.0 515.6,376.4
518.3,381.3 520.8,381.7 523.5,383.4 526.0,370.7 528.7,371.1 531.3,370.1 533.9,373.7 536.5,353.3 539.1,353.8 541.7,349.2 544.4,373.4 546.8,360.6 549.4,356.0 552.0,349.9 554.6,363.4 557.2,381.7
559.8,385.4 562.5,398.1 565.1,394.4 567.7,403.1 570.3,396.9 570.3,422.4 105.1,422.4 '/>
	</g>
	<path  d='M105.1,379.1 L107.7,385.2 L110.2,368.0 L112.9,367.2 L115.4,368.4 L118.1,382.7 L120.6,378.4 L123.3,370.0 
		L125.9,372.2 L128.5,356.3 L131.1,364.9 L133.7,368.0 L136.3,373.0 L139.0,374.6 L141.4,373.5 L144.0,376.9 
		L146.6,376.5 L149.2,378.3 L151.8,384.4 L154.4,376.5 L157.1,376.4 L159.7,378.4 L162.3,373.0 L164.9,374.2 
		L167.5,377.7 L170.2,383.8 L172.6,384.1 L175.2,386.9 L177.8,397.4 L180.4,397.8 L183.0,383.9 L185.6,384.6 
		L188.3,389.9 L190.8,395.5 L193.5,391.2 L196.0,379.5 L198.7,381.9 L201.3,371.5 L203.7,378.9 L206.4,381.2 
		L208.9,394.2 L211.6,398.1 L214.1,398.1 L216.8,394.2 L219.4,389.4 L222.0,380.5 L224.6,372.4 L227.2,345.2 
		L229.8,343.3 L232.5,341.9 L235.0,342.7 L237.6,325.3 L240.2,336.2 L242.8,351.9 L245.4,367.0 L248.0,364.4 
		L250.7,362.0 L253.2,364.1 L255.9,365.1 L258.4,375.2 L261.1,371.3 L263.7,359.8 L266.1,334.5 L268.8,333.6 
		L271.3,316.7 L274.0,319.5 L276.5,312.3 L279.2,325.1 L281.8,342.9 L284.4,349.8 L287.0,355.4 L289.6,364.8 
		L292.3,347.4 L294.9,334.8 L297.3,303.3 L299.9,327.1 L302.5,330.3 L305.1,352.6 L307.7,330.8 L310.4,344.7 
		L313.0,315.3 L315.6,324.1 L318.2,314.8 L320.8,334.5 L323.4,327.6 L326.1,320.6 L328.5,305.7 L331.1,314.9 
		L333.7,310.7 L336.3,294.4 L338.9,291.5 L341.5,306.5 L344.2,346.0 L346.7,345.5 L349.4,337.7 L351.9,329.9 
		L354.6,342.8 L357.2,290.4 L359.7,300.7 L362.4,269.6 L364.9,325.0 L367.6,319.5 L370.1,348.8 L372.8,356.7 
		L375.4,355.0 L378.0,355.4 L380.6,356.4 L383.2,345.6 L385.8,336.7 L388.5,323.9 L390.9,334.8 L393.5,342.8 
		L396.1,354.2 L398.7,345.7 L401.3,351.3 L403.9,348.0 L406.6,367.0 L409.1,349.9 L411.8,344.6 L414.4,337.7 
		L417.0,347.0 L419.6,357.0 L422.0,353.8 L424.7,353.6 L427.2,326.0 L429.9,317.4 L432.5,322.1 L435.1,352.5 
		L437.7,357.6 L440.3,317.0 L443.0,286.6 L445.5,266.3 L448.2,289.8 L450.8,317.8 L453.2,339.0 L455.8,358.1 
		L458.4,329.1 L461.1,325.5 L463.6,313.5 L466.3,350.7 L468.9,357.6 L471.5,374.8 L474.1,370.9 L476.7,366.9 
		L479.3,360.0 L482.0,355.8 L484.5,354.1 L487.1,346.1 L489.7,346.4 L492.3,337.4 L494.9,349.5 L497.5,338.9 
		L500.2,355.2 L502.7,355.5 L505.4,372.0 L507.9,373.8 L510.6,377.1 L513.2,376.0 L515.6,376.4 L518.3,381.3 
		L520.8,381.7 L523.5,383.4 L526.0,370.7 L528.7,371.1 L531.3,370.1 L533.9,373.7 L536.5,353.3 L539.1,353.8 
		L541.7,349.2 L544.4,373.4 L546.8,360.6 L549.4,356.0 L552.0,349.9 L554.6,363.4 L557.2,381.7 L559.8,385.4 
		L562.5,398.1 L565.1,394.4 L567.7,403.1 L570.3,396.9  '/></g>
	</g>
	<g id="gnuplot_plot_3" ><title>gnuplot_plot_3</title>
<g style="fill:none; color:blue; stroke:currentColor; stroke-width:2.00; stroke-linecap:butt; stroke-linejoin:miter">
	<g transform="translate(171.5,112.6)" style="stroke:none; fill:black; font-family:Arial; font-size:12.00pt; text-anchor:end">
		<text>ARIN</text>
	</g>
	<g style = 'stroke:none; shape-rendering:crispEdges'>
		<polygon fill = 'currentColor' points = '179.8,112.6 222.0,112.6 222.0,103.6 179.8,103.6 '/>
	</g>
	<path  d='M179.8,112.6 L222.0,112.6 L222.0,103.6 L179.8,103.6 L179.8,112.6 Z  '/>	<g style = 'stroke:none; shape-rendering:crispEdges'>
		<polygon fill = 'currentColor' points = '105.1,392.8 105.1,392.8 107.7,398.2 110.2,382.6 112.9,381.8 115.4,385.7 118.1,397.0 120.6,395.4 123.3,385.4 125.9,392.8 128.5,382.8 131.1,392.8 133.7,393.8 136.3,391.4 139.0,390.1 141.4,391.8
144.0,406.0 146.6,405.9 149.2,404.0 151.8,401.8 154.4,399.6 157.1,398.0 159.7,395.9 162.3,386.5 164.9,390.7 167.5,394.6 170.2,399.3 172.6,398.3 175.2,399.6 177.8,408.1 180.4,408.6 183.0,406.8
185.6,407.2 188.3,409.6 190.8,410.8 193.5,411.1 196.0,399.9 198.7,398.8 201.3,394.8 203.7,400.4 206.4,400.7 208.9,405.4 211.6,410.1 214.1,410.5 216.8,408.4 219.4,407.1 222.0,401.6 224.6,400.3
227.2,393.4 229.8,396.7 232.5,385.8 235.0,385.8 237.6,386.6 240.2,399.3 242.8,395.2 245.4,384.4 248.0,384.5 250.7,389.8 253.2,402.2 255.9,401.0 258.4,405.5 261.1,393.1 263.7,396.4 266.1,393.9
268.8,392.8 271.3,377.6 274.0,360.6 276.5,369.1 279.2,370.2 281.8,389.6 284.4,395.4 287.0,401.9 289.6,402.2 292.3,369.7 294.9,360.0 297.3,356.4 299.9,384.0 302.5,386.4 305.1,382.9 307.7,371.5
310.4,380.4 313.0,363.4 315.6,365.1 318.2,367.8 320.8,377.6 323.4,366.0 326.1,361.6 328.5,366.3 331.1,372.2 333.7,362.9 336.3,361.6 338.9,370.7 341.5,372.4 344.2,374.3 346.7,383.2 349.4,378.3
351.9,372.8 354.6,363.2 357.2,330.8 359.7,342.0 362.4,320.8 364.9,358.9 367.6,360.5 370.1,388.9 372.8,394.6 375.4,385.9 378.0,384.1 380.6,386.7 383.2,379.4 385.8,380.4 388.5,370.9 390.9,378.2
393.5,371.9 396.1,380.9 398.7,376.1 401.3,384.6 403.9,389.7 406.6,402.0 409.1,387.5 411.8,374.4 414.4,373.8 417.0,383.9 419.6,396.1 422.0,393.7 424.7,397.2 427.2,370.4 429.9,360.8 432.5,359.2
435.1,386.2 437.7,392.4 440.3,355.7 443.0,344.2 445.5,338.5 448.2,357.5 450.8,367.7 453.2,375.0 455.8,392.0 458.4,373.8 461.1,365.9 463.6,370.1 466.3,389.0 468.9,392.8 471.5,392.4 474.1,392.9
476.7,398.6 479.3,399.6 482.0,397.5 484.5,398.4 487.1,389.4 489.7,387.1 492.3,379.3 494.9,388.5 497.5,383.3 500.2,393.8 502.7,384.2 505.4,386.6 507.9,375.8 510.6,379.0 513.2,377.7 515.6,378.0
518.3,382.8 520.8,383.1 523.5,384.8 526.0,372.0 528.7,372.4 531.3,371.4 533.9,375.0 536.5,354.7 539.1,355.3 541.7,350.5 544.4,374.8 546.8,362.1 549.4,357.7 552.0,351.6 554.6,365.1 557.2,383.3
559.8,386.8 562.5,399.4 565.1,395.8 567.7,404.4 570.3,398.2 570.3,422.4 105.1,422.4 '/>
	</g>
	<path  d='M105.1,392.8 L107.7,398.2 L110.2,382.6 L112.9,381.8 L115.4,385.7 L118.1,397.0 L120.6,395.4 L123.3,385.4 
		L125.9,392.8 L128.5,382.8 L131.1,392.8 L133.7,393.8 L136.3,391.4 L139.0,390.1 L141.4,391.8 L144.0,406.0 
		L146.6,405.9 L149.2,404.0 L151.8,401.8 L154.4,399.6 L157.1,398.0 L159.7,395.9 L162.3,386.5 L164.9,390.7 
		L167.5,394.6 L170.2,399.3 L172.6,398.3 L175.2,399.6 L177.8,408.1 L180.4,408.6 L183.0,406.8 L185.6,407.2 
		L188.3,409.6 L190.8,410.8 L193.5,411.1 L196.0,399.9 L198.7,398.8 L201.3,394.8 L203.7,400.4 L206.4,400.7 
		L208.9,405.4 L211.6,410.1 L214.1,410.5 L216.8,408.4 L219.4,407.1 L222.0,401.6 L224.6,400.3 L227.2,393.4 
		L229.8,396.7 L232.5,385.8 L235.0,385.8 L237.6,386.6 L240.2,399.3 L242.8,395.2 L245.4,384.4 L248.0,384.5 
		L250.7,389.8 L253.2,402.2 L255.9,401.0 L258.4,405.5 L261.1,393.1 L263.7,396.4 L266.1,393.9 L268.8,392.8 
		L271.3,377.6 L274.0,360.6 L276.5,369.1 L279.2,370.2 L281.8,389.6 L284.4,395.4 L287.0,401.9 L289.6,402.2 
		L292.3,369.7 L294.9,360.0 L297.3,356.4 L299.9,384.0 L302.5,386.4 L305.1,382.9 L307.7,371.5 L310.4,380.4 
		L313.0,363.4 L315.6,365.1 L318.2,367.8 L320.8,377.6 L323.4,366.0 L326.1,361.6 L328.5,366.3 L331.1,372.2 
		L333.7,362.9 L336.3,361.6 L338.9,370.7 L341.5,372.4 L344.2,374.3 L346.7,383.2 L349.4,378.3 L351.9,372.8 
		L354.6,363.2 L357.2,330.8 L359.7,342.0 L362.4,320.8 L364.9,358.9 L367.6,360.5 L370.1,388.9 L372.8,394.6 
		L375.4,385.9 L378.0,384.1 L380.6,386.7 L383.2,379.4 L385.8,380.4 L388.5,370.9 L390.9,378.2 L393.5,371.9 
		L396.1,380.9 L398.7,376.1 L401.3,384.6 L403.9,389.7 L406.6,402.0 L409.1,387.5 L411.8,374.4 L414.4,373.8 
		L417.0,383.9 L419.6,396.1 L422.0,393.7 L424.7,397.2 L427.2,370.4 L429.9,360.8 L432.5,359.2 L435.1,386.2 
		L437.7,392.4 L440.3,355.7 L443.0,344.2 L445.5,338.5 L448.2,357.5 L450.8,367.7 L453.2,375.0 L455.8,392.0 
		L458.4,373.8 L461.1,365.9 L463.6,370.1 L466.3,389.0 L468.9,392.8 L471.5,392.4 L474.1,392.9 L476.7,398.6 
		L479.3,399.6 L482.0,397.5 L484.5,398.4 L487.1,389.4 L489.7,387.1 L492.3,379.3 L494.9,388.5 L497.5,383.3 
		L500.2,393.8 L502.7,384.2 L505.4,386.6 L507.9,375.8 L510.6,379.0 L513.2,377.7 L515.6,378.0 L518.3,382.8 
		L520.8,383.1 L523.5,384.8 L526.0,372.0 L528.7,372.4 L531.3,371.4 L533.9,375.0 L536.5,354.7 L539.1,355.3 
		L541.7,350.5 L544.4,374.8 L546.8,362.1 L549.4,357.7 L552.0,351.6 L554.6,365.1 L557.2,383.3 L559.8,386.8 
		L562.5,399.4 L565.1,395.8 L567.7,404.4 L570.3,398.2  '/></g>
	</g>
	<g id="gnuplot_plot_4" ><title>gnuplot_plot_4</title>
<g style="fill:none; color:cyan; stroke:currentColor; stroke-width:2.00; stroke-linecap:butt; stroke-linejoin:miter">
	<g transform="translate(171.5,130.6)" style="stroke:none; fill:black; font-family:Arial; font-size:12.00pt; text-anchor:end">
		<text>LACNIC</text>
	</g>
	<g style = 'stroke:none; shape-rendering:crispEdges'>
		<polygon fill = 'currentColor' points = '179.8,130.6 222.0,130.6 222.0,121.6 179.8,121.6 '/>
	</g>
	<path  d='M179.8,130.6 L222.0,130.6 L222.0,121.6 L179.8,121.6 L179.8,130.6 Z  '/>	<g style = 'stroke:none; shape-rendering:crispEdges'>
		<polygon fill = 'currentColor' points = '105.1,411.7 105.1,411.7 107.7,417.5 110.2,417.1 112.9,416.8 115.4,419.7 118.1,420.1 120.6,420.7 123.3,420.7 125.9,420.4 128.5,418.7 131.1,418.6 133.7,419.2 136.3,420.4 139.0,420.8 141.4,420.8
144.0,420.4 146.6,419.4 149.2,418.7 151.8,419.5 154.4,419.3 157.1,420.2 159.7,420.2 162.3,421.6 164.9,421.4 167.5,420.9 170.2,421.0 172.6,420.9 175.2,421.7 177.8,421.6 180.4,421.3 183.0,421.0
185.6,420.7 188.3,421.0 190.8,420.6 193.5,420.3 196.0,420.1 198.7,420.6 201.3,420.2 203.7,420.1 206.4,420.0 208.9,420.1 211.6,420.5 214.1,420.5 216.8,419.9 219.4,419.6 222.0,419.5 224.6,420.6
227.2,419.6 229.8,419.5 232.5,419.2 235.0,420.3 237.6,420.1 240.2,420.5 242.8,419.8 245.4,418.9 248.0,417.5 250.7,418.3 253.2,419.1 255.9,419.9 258.4,419.0 261.1,418.6 263.7,418.1 266.1,418.8
268.8,418.3 271.3,414.6 274.0,413.0 276.5,413.1 279.2,414.9 281.8,415.6 284.4,415.2 287.0,413.9 289.6,413.3 292.3,413.3 294.9,415.3 297.3,415.2 299.9,414.0 302.5,402.4 305.1,400.6 307.7,402.7
310.4,415.2 313.0,417.0 315.6,414.4 318.2,413.2 320.8,410.5 323.4,411.4 326.1,407.0 328.5,410.3 331.1,408.1 333.7,412.3 336.3,407.2 338.9,409.6 341.5,411.2 344.2,406.4 346.7,406.7 349.4,396.7
351.9,400.6 354.6,402.2 357.2,408.7 359.7,412.9 362.4,411.6 364.9,414.3 367.6,414.5 370.1,414.2 372.8,412.3 375.4,410.9 378.0,409.1 380.6,412.0 383.2,410.8 385.8,411.3 388.5,410.1 390.9,412.8
393.5,408.7 396.1,405.9 398.7,405.4 401.3,408.5 403.9,411.3 406.6,410.6 409.1,410.7 411.8,403.3 414.4,403.6 417.0,405.4 419.6,413.2 422.0,409.8 424.7,409.3 427.2,398.3 429.9,400.4 432.5,398.1
435.1,407.0 437.7,406.7 440.3,408.7 443.0,406.4 445.5,403.9 448.2,399.2 450.8,403.8 453.2,401.8 455.8,404.2 458.4,391.7 461.1,384.1 463.6,384.5 466.3,394.2 468.9,403.6 471.5,405.1 474.1,405.1
476.7,407.8 479.3,407.6 482.0,409.7 484.5,410.3 487.1,411.0 489.7,409.4 492.3,399.6 494.9,401.0 497.5,397.3 500.2,407.4 502.7,399.0 505.4,399.2 507.9,387.4 510.6,390.3 513.2,388.5 515.6,398.2
518.3,402.7 520.8,406.4 523.5,405.1 526.0,399.1 528.7,398.1 531.3,393.3 533.9,392.6 536.5,377.9 539.1,380.5 541.7,374.4 544.4,388.5 546.8,375.6 549.4,382.3 552.0,381.4 554.6,396.7 557.2,403.9
559.8,406.9 562.5,414.7 565.1,416.2 567.7,420.4 570.3,416.8 570.3,422.4 105.1,422.4 '/>
	</g>
	<path  d='M105.1,411.7 L107.7,417.5 L110.2,417.1 L112.9,416.8 L115.4,419.7 L118.1,420.1 L120.6,420.7 L123.3,420.7 
		L125.9,420.4 L128.5,418.7 L131.1,418.6 L133.7,419.2 L136.3,420.4 L139.0,420.8 L141.4,420.8 L144.0,420.4 
		L146.6,419.4 L149.2,418.7 L151.8,419.5 L154.4,419.3 L157.1,420.2 L159.7,420.2 L162.3,421.6 L164.9,421.4 
		L167.5,420.9 L170.2,421.0 L172.6,420.9 L175.2,421.7 L177.8,421.6 L180.4,421.3 L183.0,421.0 L185.6,420.7 
		L188.3,421.0 L190.8,420.6 L193.5,420.3 L196.0,420.1 L198.7,420.6 L201.3,420.2 L203.7,420.1 L206.4,420.0 
		L208.9,420.1 L211.6,420.5 L214.1,420.5 L216.8,419.9 L219.4,419.6 L222.0,419.5 L224.6,420.6 L227.2,419.6 
		L229.8,419.5 L232.5,419.2 L235.0,420.3 L237.6,420.1 L240.2,420.5 L242.8,419.8 L245.4,418.9 L248.0,417.5 
		L250.7,418.3 L253.2,419.1 L255.9,419.9 L258.4,419.0 L261.1,418.6 L263.7,418.1 L266.1,418.8 L268.8,418.3 
		L271.3,414.6 L274.0,413.0 L276.5,413.1 L279.2,414.9 L281.8,415.6 L284.4,415.2 L287.0,413.9 L289.6,413.3 
		L292.3,413.3 L294.9,415.3 L297.3,415.2 L299.9,414.0 L302.5,402.4 L305.1,400.6 L307.7,402.7 L310.4,415.2 
		L313.0,417.0 L315.6,414.4 L318.2,413.2 L320.8,410.5 L323.4,411.4 L326.1,407.0 L328.5,410.3 L331.1,408.1 
		L333.7,412.3 L336.3,407.2 L338.9,409.6 L341.5,411.2 L344.2,406.4 L346.7,406.7 L349.4,396.7 L351.9,400.6 
		L354.6,402.2 L357.2,408.7 L359.7,412.9 L362.4,411.6 L364.9,414.3 L367.6,414.5 L370.1,414.2 L372.8,412.3 
		L375.4,410.9 L378.0,409.1 L380.6,412.0 L383.2,410.8 L385.8,411.3 L388.5,410.1 L390.9,412.8 L393.5,408.7 
		L396.1,405.9 L398.7,405.4 L401.3,408.5 L403.9,411.3 L406.6,410.6 L409.1,410.7 L411.8,403.3 L414.4,403.6 
		L417.0,405.4 L419.6,413.2 L422.0,409.8 L424.7,409.3 L427.2,398.3 L429.9,400.4 L432.5,398.1 L435.1,407.0 
		L437.7,406.7 L440.3,408.7 L443.0,406.4 L445.5,403.9 L448.2,399.2 L450.8,403.8 L453.2,401.8 L455.8,404.2 
		L458.4,391.7 L461.1,384.1 L463.6,384.5 L466.3,394.2 L468.9,403.6 L471.5,405.1 L474.1,405.1 L476.7,407.8 
		L479.3,407.6 L482.0,409.7 L484.5,410.3 L487.1,411.0 L489.7,409.4 L492.3,399.6 L494.9,401.0 L497.5,397.3 
		L500.2,407.4 L502.7,399.0 L505.4,399.2 L507.9,387.4 L510.6,390.3 L513.2,388.5 L515.6,398.2 L518.3,402.7 
		L520.8,406.4 L523.5,405.1 L526.0,399.1 L528.7,398.1 L531.3,393.3 L533.9,392.6 L536.5,377.9 L539.1,380.5 
		L541.7,374.4 L544.4,388.5 L546.8,375.6 L549.4,382.3 L552.0,381.4 L554.6,396.7 L557.2,403.9 L559.8,406.9 
		L562.5,414.7 L565.1,416.2 L567.7,420.4 L570.3,416.8  '/></g>
	</g>
	<g id="gnuplot_plot_5" ><title>gnuplot_plot_5</title>
<g style="fill:none; color:#157545; stroke:currentColor; stroke-width:2.00; stroke-linecap:butt; stroke-linejoin:miter">
	<g transform="translate(171.5,148.6)" style="stroke:none; fill:black; font-family:Arial; font-size:12.00pt; text-anchor:end">
		<text>AfriNIC</text>
	</g>
	<g style = 'stroke:none; shape-rendering:crispEdges'>
		<polygon fill = 'currentColor' points = '179.8,148.6 222.0,148.6 222.0,139.6 179.8,139.6 '/>
	</g>
	<path  d='M179.8,148.6 L222.0,148.6 L222.0,139.6 L179.8,139.6 L179.8,148.6 Z  '/>	<g style = 'stroke:none; shape-rendering:crispEdges'>
		<polygon fill = 'currentColor' points = '105.1,422.4 105.1,422.4 107.7,422.4 110.2,422.3 112.9,422.3 115.4,422.2 118.1,422.2 120.6,422.1 123.3,422.2 125.9,422.1 128.5,421.0 131.1,421.1 133.7,421.3 136.3,422.2 139.0,422.0 141.4,422.0
144.0,422.0 146.6,422.2 149.2,422.2 151.8,422.3 154.4,421.9 157.1,422.0 159.7,421.9 162.3,422.2 164.9,422.2 167.5,422.3 170.2,422.3 172.6,422.3 175.2,422.3 177.8,422.3 180.4,422.3 183.0,422.1
185.6,422.1 188.3,422.1 190.8,422.4 193.5,422.3 196.0,422.3 198.7,422.3 201.3,422.3 203.7,422.4 206.4,422.4 208.9,422.2 211.6,422.1 214.1,422.1 216.8,422.2 219.4,422.2 222.0,422.2 224.6,422.2
227.2,422.3 229.8,422.3 232.5,422.1 235.0,422.1 237.6,422.0 240.2,422.1 242.8,422.0 245.4,421.8 248.0,421.7 250.7,421.6 253.2,421.9 255.9,422.1 258.4,422.3 261.1,422.3 263.7,422.1 266.1,422.1
268.8,421.5 271.3,421.8 274.0,421.7 276.5,422.2 279.2,421.3 281.8,421.1 284.4,420.8 287.0,421.5 289.6,421.7 292.3,421.6 294.9,420.5 297.3,420.4 299.9,420.2 302.5,421.5 305.1,421.5 307.7,421.9
310.4,421.9 313.0,422.1 315.6,420.6 318.2,420.3 320.8,418.1 323.4,419.2 326.1,416.2 328.5,418.3 331.1,416.7 333.7,419.8 336.3,418.9 338.9,420.1 341.5,420.3 344.2,421.0 346.7,421.8 349.4,413.5
351.9,413.6 354.6,413.6 357.2,422.0 359.7,422.1 362.4,422.1 364.9,421.8 367.6,421.3 370.1,420.5 372.8,420.8 375.4,421.2 378.0,421.8 380.6,421.4 383.2,420.6 385.8,419.6 388.5,418.8 390.9,419.6
393.5,417.2 396.1,414.7 398.7,414.7 401.3,418.3 403.9,421.8 406.6,421.7 409.1,420.5 411.8,415.8 414.4,413.6 417.0,414.2 419.6,418.8 422.0,418.9 424.7,418.4 427.2,409.1 429.9,411.0 432.5,409.8
435.1,418.9 437.7,417.6 440.3,418.0 443.0,415.4 445.5,414.9 448.2,415.8 450.8,418.8 453.2,415.7 455.8,414.8 458.4,405.0 461.1,401.0 463.6,402.8 466.3,412.4 468.9,421.7 471.5,421.3 474.1,421.6
476.7,421.4 479.3,421.7 482.0,421.2 484.5,421.6 487.1,421.6 489.7,420.5 492.3,417.8 494.9,416.4 497.5,417.3 500.2,419.9 502.7,415.1 505.4,413.7 507.9,405.8 510.6,412.0 513.2,413.4 515.6,421.0
518.3,420.8 520.8,421.3 523.5,421.2 526.0,416.8 528.7,417.0 531.3,416.2 533.9,419.7 536.5,414.5 539.1,411.8 541.7,404.1 544.4,408.9 546.8,407.3 549.4,413.9 552.0,414.1 554.6,415.7 557.2,416.3
559.8,411.8 562.5,415.7 565.1,417.0 567.7,421.1 570.3,417.4 570.3,422.4 105.1,422.4 '/>
	</g>
	<path  d='M105.1,422.4 L107.7,422.4 L110.2,422.3 L112.9,422.3 L115.4,422.2 L118.1,422.2 L120.6,422.1 L123.3,422.2 
		L125.9,422.1 L128.5,421.0 L131.1,421.1 L133.7,421.3 L136.3,422.2 L139.0,422.0 L141.4,422.0 L144.0,422.0 
		L146.6,422.2 L149.2,422.2 L151.8,422.3 L154.4,421.9 L157.1,422.0 L159.7,421.9 L162.3,422.2 L164.9,422.2 
		L167.5,422.3 L170.2,422.3 L172.6,422.3 L175.2,422.3 L177.8,422.3 L180.4,422.3 L183.0,422.1 L185.6,422.1 
		L188.3,422.1 L190.8,422.4 L193.5,422.3 L196.0,422.3 L198.7,422.3 L201.3,422.3 L203.7,422.4 L206.4,422.4 
		L208.9,422.2 L211.6,422.1 L214.1,422.1 L216.8,422.2 L219.4,422.2 L222.0,422.2 L224.6,422.2 L227.2,422.3 
		L229.8,422.3 L232.5,422.1 L235.0,422.1 L237.6,422.0 L240.2,422.1 L242.8,422.0 L245.4,421.8 L248.0,421.7 
		L250.7,421.6 L253.2,421.9 L255.9,422.1 L258.4,422.3 L261.1,422.3 L263.7,422.1 L266.1,422.1 L268.8,421.5 
		L271.3,421.8 L274.0,421.7 L276.5,422.2 L279.2,421.3 L281.8,421.1 L284.4,420.8 L287.0,421.5 L289.6,421.7 
		L292.3,421.6 L294.9,420.5 L297.3,420.4 L299.9,420.2 L302.5,421.5 L305.1,421.5 L307.7,421.9 L310.4,421.9 
		L313.0,422.1 L315.6,420.6 L318.2,420.3 L320.8,418.1 L323.4,419.2 L326.1,416.2 L328.5,418.3 L331.1,416.7 
		L333.7,419.8 L336.3,418.9 L338.9,420.1 L341.5,420.3 L344.2,421.0 L346.7,421.8 L349.4,413.5 L351.9,413.6 
		L354.6,413.6 L357.2,422.0 L359.7,422.1 L362.4,422.1 L364.9,421.8 L367.6,421.3 L370.1,420.5 L372.8,420.8 
		L375.4,421.2 L378.0,421.8 L380.6,421.4 L383.2,420.6 L385.8,419.6 L388.5,418.8 L390.9,419.6 L393.5,417.2 
		L396.1,414.7 L398.7,414.7 L401.3,418.3 L403.9,421.8 L406.6,421.7 L409.1,420.5 L411.8,415.8 L414.4,413.6 
		L417.0,414.2 L419.6,418.8 L422.0,418.9 L424.7,418.4 L427.2,409.1 L429.9,411.0 L432.5,409.8 L435.1,418.9 
		L437.7,417.6 L440.3,418.0 L443.0,415.4 L445.5,414.9 L448.2,415.8 L450.8,418.8 L453.2,415.7 L455.8,414.8 
		L458.4,405.0 L461.1,401.0 L463.6,402.8 L466.3,412.4 L468.9,421.7 L471.5,421.3 L474.1,421.6 L476.7,421.4 
		L479.3,421.7 L482.0,421.2 L484.5,421.6 L487.1,421.6 L489.7,420.5 L492.3,417.8 L494.9,416.4 L497.5,417.3 
		L500.2,419.9 L502.7,415.1 L505.4,413.7 L507.9,405.8 L510.6,412.0 L513.2,413.4 L515.6,421.0 L518.3,420.8 
		L520.8,421.3 L523.5,421.2 L526.0,416.8 L528.7,417.0 L531.3,416.2 L533.9,419.7 L536.5,414.5 L539.1,411.8 
		L541.7,404.1 L544.4,408.9 L546.8,407.3 L549.4,413.9 L552.0,414.1 L554.6,415.7 L557.2,416.3 L559.8,411.8 
		L562.5,415.7 L565.1,417.0 L567.7,421.1 L570.3,417.4  '/></g>
	</g>
<g style="fill:none; color:black; stroke:currentColor; stroke-width:2.00; stroke-linecap:butt; stroke-linejoin:miter">
	<path stroke='black'  d='M105.1,54.1 L105.1,422.4 L575.0,422.4 L575.0,54.1 L105.1,54.1 Z  '/></g>
</g>
</svg>

