#FIG 3.2  Produced by xfig version 3.2.5c
#encoding: UTF-8
Portrait
Center
Metric
A4      
100.00
Single
-2
1200 2
2 1 0 1 -1 -1 50 0 -1 0.000 0 0 -1 0 0 2
	 450 675 4050 675
2 1 0 1 -1 -1 50 0 -1 0.000 0 0 -1 0 0 2
	 450 900 4050 900
2 1 0 1 -1 -1 50 0 -1 0.000 0 0 -1 0 0 2
	 450 1800 4050 1800
2 1 0 1 -1 -1 50 0 -1 0.000 0 0 -1 0 0 2
	 900 450 900 675
2 1 0 1 -1 -1 50 0 -1 0.000 0 0 -1 0 0 2
	 2250 675 2250 900
2 1 0 1 -1 -1 50 0 -1 0.000 0 0 -1 0 0 2
	 3150 675 3150 900
2 1 0 1 -1 -1 50 0 -1 0.000 0 0 -1 0 0 2
	 1800 450 1800 675
2 1 0 1 0 7 50 -1 -1 0.000 0 0 -1 0 0 2
	 450 1125 495 1125
2 1 0 1 0 7 50 -1 -1 0.000 0 0 -1 0 0 2
	 450 1350 495 1350
2 1 0 1 0 7 50 -1 -1 0.000 0 0 -1 0 0 2
	 450 1575 495 1575
2 1 0 1 0 7 50 -1 -1 0.000 0 0 -1 0 0 2
	 450 2025 495 2025
2 1 0 1 0 7 50 -1 -1 0.000 0 0 -1 0 0 2
	 450 2250 495 2250
2 1 0 1 0 7 50 -1 -1 0.000 0 0 -1 0 0 2
	 450 2475 495 2475
2 1 0 1 0 7 50 -1 -1 0.000 0 0 -1 0 0 2
	 4005 1125 4050 1125
2 1 0 1 0 7 50 -1 -1 0.000 0 0 -1 0 0 2
	 4005 1350 4050 1350
2 1 0 1 0 7 50 -1 -1 0.000 0 0 -1 0 0 2
	 4005 1575 4050 1575
2 1 0 1 0 7 50 -1 -1 0.000 0 0 -1 0 0 2
	 4005 2025 4050 2025
2 1 0 1 0 7 50 -1 -1 0.000 0 0 -1 0 0 2
	 4005 2250 4050 2250
2 1 0 1 0 7 50 -1 -1 0.000 0 0 -1 0 0 2
	 4005 2475 4050 2475
2 2 0 1 0 6 51 -1 38 0.000 0 0 -1 0 0 5
	 450 450 4050 450 4050 2700 450 2700 450 450
2 2 0 1 0 0 52 -1 20 0.000 0 0 -1 0 0 5
	 495 495 4095 495 4095 2745 495 2745 495 495
4 1 -1 50 0 16 8 0.0000 4 135 585 2250 1440 (128 bits)\001
4 1 -1 50 0 16 8 0.0000 4 135 585 2250 2340 (128 bits)\001
4 1 -1 50 0 16 8 0.0000 4 105 795 2700 855 Next Header\001
4 1 -1 50 0 16 8 0.0000 4 135 600 3600 855 Hop Limit\001
4 1 -1 50 0 16 8 0.0000 4 105 1170 2250 1260 Source IP Address\001
4 1 -1 50 0 16 8 0.0000 4 105 1440 2250 2160 Destination IP Address\001
4 1 -1 50 0 16 8 0.0000 4 105 285 675 630 Vers\001
4 1 -1 50 0 16 8 0.0000 4 105 675 2925 630 Flow Label\001
4 1 -1 50 0 16 8 0.0000 4 105 810 1350 630 Traffic Class\001
4 2 -1 50 0 16 8 0.0000 4 90 150 4050 405 31\001
4 0 -1 50 0 16 8 0.0000 4 90 150 3150 405 24\001
4 0 -1 50 0 16 8 0.0000 4 90 150 2250 405 16\001
4 0 -1 50 0 16 8 0.0000 4 90 150 1800 405 12\001
4 0 -1 50 0 16 8 0.0000 4 90 75 1350 405 8\001
4 0 -1 50 0 16 8 0.0000 4 90 75 900 405 4\001
4 0 -1 50 0 16 8 0.0000 4 90 75 450 405 0\001
4 1 -1 50 0 16 8 0.0000 4 135 960 1350 855 Payload Length\001
