#FIG 3.2  Produced by xfig version 3.2.8b
#encoding: UTF-8
Landscape
Center
Metric
A4
100.00
Single
-2
1200 2
0 32 #c6b797
0 33 #eff8ff
0 34 #dccba6
0 35 #404040
0 36 #808080
0 37 #c0c0c0
0 38 #e0e0e0
0 39 #8e8f8e
0 40 #aaaaaa
0 41 #555555
0 42 #c7c3c7
0 43 #565151
0 44 #8e8e8e
0 45 #d7d7d7
0 46 #85807d
0 47 #d2d2d2
0 48 #3a3a3a
0 49 #4573aa
0 50 #aeaeae
0 51 #7b79a5
0 52 #444444
0 53 #73758c
0 54 #f7f7f7
0 55 #414541
0 56 #635dce
0 57 #bebebe
0 58 #515151
0 59 #e7e3e7
0 60 #000049
0 61 #797979
0 62 #303430
0 63 #414141
0 64 #c7b696
# Router small icon
# drawn by P. David
6 900 315 1395 810
1 3 0 1 7 1 50 -1 20 0.000 1 0.0000 1125 540 225 225 1125 540 1350 540
1 3 0 0 0 0 51 -1 20 0.000 1 0.0000 1170 585 225 225 1170 585 1395 585
2 1 0 2 6 7 49 -1 -1 0.000 0 0 7 1 0 3
	1 1 1.00 45.00 60.00
	 1170 360 1170 495 1305 495
2 1 0 2 6 7 49 -1 -1 0.000 0 0 7 1 0 3
	1 1 1.00 45.00 60.00
	 1305 585 1170 585 1170 720
2 1 0 2 6 7 49 -1 -1 0.000 0 0 7 1 0 3
	1 1 1.00 45.00 60.00
	 1080 720 1080 585 945 585
2 1 0 2 6 7 49 -1 -1 0.000 0 0 7 1 0 3
	1 1 1.00 45.00 60.00
	 945 495 1080 495 1080 360
-6
# Router small icon
# drawn by P. David
6 2250 315 2745 810
1 3 0 1 7 1 50 -1 20 0.000 1 0.0000 2475 540 225 225 2475 540 2700 540
1 3 0 0 0 0 51 -1 20 0.000 1 0.0000 2520 585 225 225 2520 585 2745 585
2 1 0 2 6 7 49 -1 -1 0.000 0 0 7 1 0 3
	1 1 1.00 45.00 60.00
	 2520 360 2520 495 2655 495
2 1 0 2 6 7 49 -1 -1 0.000 0 0 7 1 0 3
	1 1 1.00 45.00 60.00
	 2655 585 2520 585 2520 720
2 1 0 2 6 7 49 -1 -1 0.000 0 0 7 1 0 3
	1 1 1.00 45.00 60.00
	 2430 720 2430 585 2295 585
2 1 0 2 6 7 49 -1 -1 0.000 0 0 7 1 0 3
	1 1 1.00 45.00 60.00
	 2295 495 2430 495 2430 360
-6
# Router small icon
# drawn by P. David
6 450 990 945 1485
1 3 0 1 7 1 50 -1 20 0.000 1 0.0000 675 1215 225 225 675 1215 900 1215
1 3 0 0 0 0 51 -1 20 0.000 1 0.0000 720 1260 225 225 720 1260 945 1260
2 1 0 2 6 7 49 -1 -1 0.000 0 0 7 1 0 3
	1 1 1.00 45.00 60.00
	 720 1035 720 1170 855 1170
2 1 0 2 6 7 49 -1 -1 0.000 0 0 7 1 0 3
	1 1 1.00 45.00 60.00
	 855 1260 720 1260 720 1395
2 1 0 2 6 7 49 -1 -1 0.000 0 0 7 1 0 3
	1 1 1.00 45.00 60.00
	 630 1395 630 1260 495 1260
2 1 0 2 6 7 49 -1 -1 0.000 0 0 7 1 0 3
	1 1 1.00 45.00 60.00
	 495 1170 630 1170 630 1035
-6
# Router small icon
# drawn by P. David
6 1575 1125 2070 1620
1 3 0 1 7 1 50 -1 20 0.000 1 0.0000 1800 1350 225 225 1800 1350 2025 1350
1 3 0 0 0 0 51 -1 20 0.000 1 0.0000 1845 1395 225 225 1845 1395 2070 1395
2 1 0 2 6 7 49 -1 -1 0.000 0 0 7 1 0 3
	1 1 1.00 45.00 60.00
	 1845 1170 1845 1305 1980 1305
2 1 0 2 6 7 49 -1 -1 0.000 0 0 7 1 0 3
	1 1 1.00 45.00 60.00
	 1980 1395 1845 1395 1845 1530
2 1 0 2 6 7 49 -1 -1 0.000 0 0 7 1 0 3
	1 1 1.00 45.00 60.00
	 1755 1530 1755 1395 1620 1395
2 1 0 2 6 7 49 -1 -1 0.000 0 0 7 1 0 3
	1 1 1.00 45.00 60.00
	 1620 1305 1755 1305 1755 1170
-6
# Router small icon
# drawn by P. David
6 2700 990 3195 1485
1 3 0 1 7 1 50 -1 20 0.000 1 0.0000 2925 1215 225 225 2925 1215 3150 1215
1 3 0 0 0 0 51 -1 20 0.000 1 0.0000 2970 1260 225 225 2970 1260 3195 1260
2 1 0 2 6 7 49 -1 -1 0.000 0 0 7 1 0 3
	1 1 1.00 45.00 60.00
	 2970 1035 2970 1170 3105 1170
2 1 0 2 6 7 49 -1 -1 0.000 0 0 7 1 0 3
	1 1 1.00 45.00 60.00
	 3105 1260 2970 1260 2970 1395
2 1 0 2 6 7 49 -1 -1 0.000 0 0 7 1 0 3
	1 1 1.00 45.00 60.00
	 2880 1395 2880 1260 2745 1260
2 1 0 2 6 7 49 -1 -1 0.000 0 0 7 1 0 3
	1 1 1.00 45.00 60.00
	 2745 1170 2880 1170 2880 1035
-6
# Router small icon
# drawn by P. David
6 900 1665 1395 2160
1 3 0 1 7 1 50 -1 20 0.000 1 0.0000 1125 1890 225 225 1125 1890 1350 1890
1 3 0 0 0 0 51 -1 20 0.000 1 0.0000 1170 1935 225 225 1170 1935 1395 1935
2 1 0 2 6 7 49 -1 -1 0.000 0 0 7 1 0 3
	1 1 1.00 45.00 60.00
	 1170 1710 1170 1845 1305 1845
2 1 0 2 6 7 49 -1 -1 0.000 0 0 7 1 0 3
	1 1 1.00 45.00 60.00
	 1305 1935 1170 1935 1170 2070
2 1 0 2 6 7 49 -1 -1 0.000 0 0 7 1 0 3
	1 1 1.00 45.00 60.00
	 1080 2070 1080 1935 945 1935
2 1 0 2 6 7 49 -1 -1 0.000 0 0 7 1 0 3
	1 1 1.00 45.00 60.00
	 945 1845 1080 1845 1080 1710
-6
# Router small icon
# drawn by P. David
6 225 1665 720 2160
1 3 0 1 7 1 50 -1 20 0.000 1 0.0000 450 1890 225 225 450 1890 675 1890
1 3 0 0 0 0 51 -1 20 0.000 1 0.0000 495 1935 225 225 495 1935 720 1935
2 1 0 2 6 7 49 -1 -1 0.000 0 0 7 1 0 3
	1 1 1.00 45.00 60.00
	 495 1710 495 1845 630 1845
2 1 0 2 6 7 49 -1 -1 0.000 0 0 7 1 0 3
	1 1 1.00 45.00 60.00
	 630 1935 495 1935 495 2070
2 1 0 2 6 7 49 -1 -1 0.000 0 0 7 1 0 3
	1 1 1.00 45.00 60.00
	 405 2070 405 1935 270 1935
2 1 0 2 6 7 49 -1 -1 0.000 0 0 7 1 0 3
	1 1 1.00 45.00 60.00
	 270 1845 405 1845 405 1710
-6
2 1 0 3 12 -1 60 0 -1 0.000 0 0 7 0 0 2
	 225 900 3600 900
2 1 0 3 12 -1 60 0 -1 0.000 0 0 7 0 0 2
	 1125 675 1125 900
2 1 0 3 12 -1 60 0 -1 0.000 0 0 7 0 0 2
	 675 900 675 1125
2 1 0 3 12 -1 60 0 -1 0.000 0 0 7 0 0 2
	 1800 900 1800 1125
2 1 0 3 12 -1 60 0 -1 0.000 0 0 7 0 0 2
	 2925 900 2925 1125
2 1 0 3 12 -1 60 0 -1 0.000 0 0 7 0 0 2
	 2475 675 2475 900
2 1 0 3 26 -1 60 0 -1 0.000 0 0 7 0 0 2
	 675 225 1575 225
2 1 0 3 26 -1 60 0 -1 0.000 0 0 7 0 0 2
	 1125 225 1125 450
2 1 0 3 26 -1 60 0 -1 0.000 0 0 7 0 0 2
	 2250 225 3375 225
2 1 0 3 26 -1 60 0 -1 0.000 0 0 7 0 0 2
	 2475 225 2475 450
2 1 0 3 26 -1 60 0 -1 0.000 0 0 7 0 0 2
	 2925 1350 2925 1575
2 1 0 3 26 -1 60 0 -1 0.000 0 0 7 0 0 2
	 2475 1575 3600 1575
2 1 0 3 26 -1 60 0 -1 0.000 0 0 7 0 0 2
	 1800 1350 1800 1800
2 1 0 3 26 -1 60 0 -1 0.000 0 0 7 0 0 2
	 1575 1800 2925 1800
2 1 0 3 26 -1 60 0 -1 0.000 0 0 7 0 0 2
	 225 1575 1350 1575
2 1 0 3 26 -1 60 0 -1 0.000 0 0 7 0 0 2
	 1125 1575 1125 1800
2 1 0 3 26 -1 60 0 -1 0.000 0 0 7 0 0 2
	 675 1350 675 1575
2 1 0 3 26 -1 60 0 -1 0.000 0 0 7 0 0 2
	 450 1575 450 1800
2 1 0 3 26 -1 60 0 -1 0.000 0 0 7 0 0 2
	 450 2025 450 2475
2 1 0 3 26 -1 60 0 -1 0.000 0 0 7 0 0 2
	 900 2250 2025 2250
2 1 0 3 26 -1 60 0 -1 0.000 0 0 7 0 0 2
	 1125 2025 1125 2250
2 1 0 3 26 -1 60 0 -1 0.000 0 0 7 0 0 2
	 225 2475 2925 2475
3 0 1 1 0 -1 50 -1 -1 4.000 0 1 0 3
	1 1 1.00 45.00 90.00
	 1845 495 1845 675 2025 855
	 0.000 1.000 0.000
3 0 1 1 0 -1 64 -1 -1 4.000 0 1 0 5
	1 1 1.00 45.00 90.00
	 2430 2250 2430 2070 2295 1980 1620 1980 1350 1620
	 0.000 1.000 1.000 1.000 0.000
3 0 1 1 0 -1 63 -1 -1 4.000 0 1 0 5
	1 1 1.00 45.00 90.00
	 2430 2250 2430 2070 2295 1980 1710 1980 1530 2205
	 0.000 1.000 1.000 1.000 0.000
3 0 1 1 0 -1 61 -1 -1 4.000 0 1 0 6
	1 1 1.00 45.00 90.00
	 2430 2250 2430 2070 2565 1980 4232 1861 4232 871 3242 286
	 0.000 1.000 1.000 1.000 1.000 0.000
3 0 1 1 0 -1 62 -1 -1 4.000 0 1 0 5
	1 1 1.00 45.00 90.00
	 2430 2250 2430 2070 2565 1980 3240 1890 3330 1620
	 0.000 1.000 1.000 1.000 0.000
4 1 26 50 0 16 12 0.0000 4 195 2310 3150 2385 réseaux des départements\001
4 1 12 50 0 16 12 0.0000 4 150 630 1845 450 dorsale\001
