#FIG 3.2  Produced by xfig version 3.2.5b
#encoding: UTF-8
Portrait
Center
Metric
A4      
100.00
Single
-2
1200 2
6 2790 630 3510 855
4 2 -1 0 0 16 6 0.0000 4 105 390 3510 720 (4) D->E\001
4 2 -1 0 0 16 6 0.0000 4 105 720 3510 810 PIM Join (S,G)\001
-6
2 2 0 1 -1 7 0 0 -1 0.000 0 0 -1 0 0 5
	 2250 1350 2520 1350 2520 1620 2250 1620 2250 1350
2 1 0 1 -1 7 0 0 -1 0.000 0 0 -1 0 0 2
	 1845 1890 2250 1485
2 1 0 1 -1 7 0 0 -1 0.000 0 0 -1 0 0 2
	 2520 1485 2925 1890
2 1 0 1 -1 7 0 0 -1 0.000 0 0 -1 0 0 2
	 1935 1125 2655 1125
2 1 0 1 -1 7 0 0 -1 0.000 0 0 -1 0 0 2
	 2250 900 2250 1125
2 2 0 1 -1 7 0 0 -1 0.000 0 0 -1 0 0 5
	 2115 630 2385 630 2385 900 2115 900 2115 630
2 2 0 1 -1 7 0 0 -1 0.000 0 0 -1 0 0 5
	 1710 1890 1980 1890 1980 2160 1710 2160 1710 1890
2 2 0 1 -1 7 0 0 -1 0.000 0 0 -1 0 0 5
	 2790 1890 3060 1890 3060 2160 2790 2160 2790 1890
2 1 0 1 -1 7 0 0 -1 0.000 0 0 -1 0 0 2
	 2925 2160 2925 2565
2 1 0 1 -1 7 0 0 -1 0.000 0 0 -1 0 0 2
	 1260 2700 1710 2700
2 1 0 1 -1 7 0 0 -1 0.000 0 0 -1 0 0 2
	 1980 2700 2790 2700
2 1 0 1 -1 7 0 0 -1 0.000 0 0 -1 0 0 2
	 1845 2160 1845 2565
2 2 0 1 -1 7 0 0 -1 0.000 0 0 -1 0 0 5
	 1710 2565 1980 2565 1980 2835 1710 2835 1710 2565
2 2 0 1 -1 7 0 0 -1 0.000 0 0 -1 0 0 5
	 2790 2565 3060 2565 3060 2835 2790 2835 2790 2565
2 2 0 1 -1 7 0 0 -1 0.000 0 0 -1 0 0 5
	 990 2565 1260 2565 1260 2835 990 2835 990 2565
2 1 0 1 -1 7 0 0 -1 0.000 0 0 -1 0 0 2
	 765 2700 990 2700
2 1 0 1 -1 7 0 0 -1 0.000 0 0 -1 0 0 2
	 765 2340 765 3015
2 1 0 1 -1 7 0 0 -1 0.000 0 0 -1 0 0 2
	 540 2565 765 2565
2 2 0 1 -1 7 0 0 -1 0.000 0 0 -1 0 0 5
	 270 2430 540 2430 540 2700 270 2700 270 2430
2 1 0 1 -1 7 0 0 -1 0.000 0 0 -1 0 0 2
	 2385 1125 2385 1350
2 1 1 1 -1 7 0 0 -1 2.000 0 0 -1 1 0 2
	0 0 1.00 30.00 60.00
	 1838 856 2115 1035
2 1 1 1 -1 7 0 0 -1 2.000 0 0 -1 1 0 2
	0 0 1.00 30.00 60.00
	 1614 1439 2790 2250
2 1 1 1 -1 7 0 0 -1 2.000 0 0 -1 1 0 2
	0 0 1.00 30.00 60.00
	 3330 855 2925 1755
2 1 1 1 -1 7 0 0 -1 2.000 0 0 -1 1 0 2
	0 0 1.00 30.00 60.00
	 2651 2385 2970 2385
3 0 0 1 -1 7 0 0 -1 0.000 0 1 0 4
	0 0 1.00 30.00 60.00
	 2295 855 2295 1035 2340 1080 2610 1080
	 0.000 1.000 1.000 0.000
3 0 0 1 -1 7 0 0 -1 0.000 0 1 0 4
	0 0 1.00 30.00 60.00
	 2295 855 2295 1035 2250 1080 1980 1080
	 0.000 1.000 1.000 0.000
3 0 0 1 -1 7 0 0 -1 0.000 0 1 0 2
	0 0 1.00 30.00 60.00
	 3022 1918 2565 1440
	 0.000 0.000
3 0 0 1 -1 7 0 0 -1 0.000 0 1 0 2
	0 0 1.00 30.00 60.00
	 3015 2610 3015 2205
	 0.000 0.000
3 0 0 1 -1 7 0 0 -1 0.000 0 1 0 5
	0 0 1.00 30.00 60.00
	 2475 1530 2790 1845 2835 1935 2835 1980 2835 2520
	 0.000 1.000 1.000 1.000 0.000
4 1 -1 0 0 16 7 0.0000 4 90 75 2250 810 S\001
4 1 -1 0 0 16 7 0.0000 4 90 90 405 2610 R\001
4 1 -1 0 0 16 7 0.0000 4 90 165 2925 2745 RP\001
4 1 -1 0 0 16 7 0.0000 4 90 75 1125 2745 A\001
4 1 -1 0 0 16 7 0.0000 4 90 75 1845 2745 B\001
4 1 -1 0 0 16 7 0.0000 4 90 90 1845 2070 C\001
4 1 -1 0 0 16 7 0.0000 4 90 90 2925 2070 D\001
4 1 -1 0 0 16 7 0.0000 4 90 75 2385 1530 E\001
4 2 -1 0 0 16 6 0.0000 4 105 405 1845 810 (1) S->G\001
4 2 -1 0 0 16 6 0.0000 4 105 465 2610 2385 (3) RP->D\001
4 2 -1 0 0 16 6 0.0000 4 105 720 2610 2475 PIM Join (S,G)\001
4 2 -1 0 0 16 6 0.0000 4 105 465 1575 1350 (2) E->RP\001
4 2 -1 0 0 16 6 0.0000 4 105 915 1575 1440 PIM Register (S,G)\001
4 2 -1 0 0 16 6 0.0000 4 105 1440 1575 1530 Datagramme S->G encapsulé\001
