#FIG 3.2  Produced by xfig version 3.2.5c
#encoding: UTF-8
Landscape
Center
Metric
A4      
100.00
Single
-2
1200 2
2 1 1 1 0 4 50 -1 30 3.000 0 0 -1 0 0 2
	 1350 1530 1800 810
2 1 1 1 0 4 50 -1 30 3.000 0 0 -1 0 0 2
	 1350 1350 1800 630
2 1 1 1 0 4 50 -1 30 3.000 0 0 -1 0 0 2
	 1350 1575 1800 1620
2 1 1 1 0 4 50 -1 30 3.000 0 0 -1 0 0 2
	 1350 1800 1800 1845
2 1 1 1 0 4 50 -1 30 3.000 0 0 -1 0 0 2
	 1350 2520 1800 1080
2 1 1 1 0 4 50 -1 30 3.000 0 0 -1 0 0 2
	 1800 1215 1350 2655
2 1 1 1 0 4 50 -1 30 3.000 0 0 -1 0 0 2
	 3150 1350 2700 1260
2 1 1 1 0 4 50 -1 30 3.000 0 0 -1 0 0 2
	 3150 1530 2700 1440
2 1 1 1 0 4 50 -1 30 3.000 0 0 -1 0 0 2
	 3150 1575 2700 1980
2 1 1 1 0 4 50 -1 30 3.000 0 0 -1 0 0 2
	 3150 1980 2700 2385
2 1 1 1 0 4 50 -1 30 3.000 0 0 -1 0 0 2
	 2700 855 3150 2520
2 1 1 1 0 4 50 -1 30 3.000 0 0 -1 0 0 2
	 2700 1035 3150 2655
2 1 1 1 0 7 50 -1 -1 3.000 0 0 -1 0 0 2
	 1350 1890 1800 2520
2 1 1 1 0 7 50 -1 -1 3.000 0 0 -1 0 0 2
	 1350 2070 1800 2700
2 1 1 1 0 7 50 -1 -1 3.000 0 0 -1 0 0 2
	 3150 2070 2700 2520
2 1 1 1 0 7 50 -1 -1 3.000 0 0 -1 0 0 2
	 3150 2250 2700 2700
2 2 0 1 0 13 51 -1 34 0.000 0 0 -1 0 0 5
	 450 1350 1350 1350 1350 1530 450 1530 450 1350
2 2 0 1 0 13 51 -1 34 0.000 0 0 7 0 0 5
	 450 1575 1350 1575 1350 1800 450 1800 450 1575
2 2 0 1 0 16 51 -1 35 0.000 0 0 -1 0 0 5
	 450 1890 1350 1890 1350 2070 450 2070 450 1890
2 2 0 1 0 13 51 -1 34 0.000 0 0 7 0 0 5
	 450 2520 1350 2520 1350 2655 450 2655 450 2520
2 2 0 1 0 16 51 -1 35 0.000 0 0 -1 0 0 5
	 1800 2520 2700 2520 2700 2700 1800 2700 1800 2520
2 2 0 1 0 4 51 -1 34 0.000 0 0 7 0 0 5
	 1800 1980 2700 1980 2700 2385 1800 2385 1800 1980
2 2 0 1 0 13 51 -1 34 0.000 0 0 7 0 0 5
	 1800 1620 2700 1620 2700 1845 1800 1845 1800 1620
2 2 0 1 0 4 51 -1 34 0.000 0 0 7 0 0 5
	 1800 1260 2700 1260 2700 1440 1800 1440 1800 1260
2 2 0 1 0 13 51 -1 34 0.000 0 0 7 0 0 5
	 1800 1080 2700 1080 2700 1215 1800 1215 1800 1080
2 2 0 1 0 4 51 -1 34 0.000 0 0 7 0 0 5
	 1800 900 2700 900 2700 1035 1800 1035 1800 900
2 2 0 1 0 13 51 -1 34 0.000 0 0 7 0 0 5
	 1800 630 2700 630 2700 810 1800 810 1800 630
2 2 0 1 0 4 51 -1 34 0.000 0 0 -1 0 0 5
	 3150 1350 4050 1350 4050 1530 3150 1530 3150 1350
2 2 0 1 0 4 51 -1 34 0.000 0 0 7 0 0 5
	 3150 1575 4050 1575 4050 1980 3150 1980 3150 1575
2 2 0 1 0 16 51 -1 35 0.000 0 0 -1 0 0 5
	 3150 2070 4050 2070 4050 2250 3150 2250 3150 2070
2 2 0 1 0 4 51 -1 34 0.000 0 0 7 0 0 5
	 3150 2520 4050 2520 4050 2655 3150 2655 3150 2520
2 2 0 1 0 7 52 -1 16 0.000 0 0 -1 0 0 5
	 450 1170 1350 1170 1350 2655 450 2655 450 1170
2 2 0 1 0 7 52 -1 16 0.000 0 0 -1 0 0 5
	 1800 450 2700 450 2700 2970 1800 2970 1800 450
2 2 0 1 0 7 52 -1 16 0.000 0 0 -1 0 0 5
	 3150 1170 4050 1170 4050 2655 3150 2655 3150 1170
2 2 0 1 0 0 55 -1 20 0.000 0 0 -1 0 0 5
	 495 1215 1395 1215 1395 2700 495 2700 495 1215
2 2 0 1 0 0 55 -1 20 0.000 0 0 -1 0 0 5
	 3195 1215 4095 1215 4095 2700 3195 2700 3195 1215
2 2 0 1 0 0 55 -1 20 0.000 0 0 -1 0 0 5
	 1845 495 2745 495 2745 3015 1845 3015 1845 495
4 1 0 50 -1 16 7 0.0000 4 120 465 2250 360 Mémoire\001
4 1 0 50 -1 16 7 0.0000 4 105 405 900 765 Espace\001
4 1 0 50 -1 16 7 0.0000 4 135 660 900 930 d'adressage\001
4 1 0 50 -1 16 7 0.0000 4 120 825 900 1095 du processus 1\001
4 1 0 50 -1 16 7 0.0000 4 105 405 3600 765 Espace\001
4 1 0 50 -1 16 7 0.0000 4 135 660 3600 930 d'adressage\001
4 1 0 50 -1 16 7 0.0000 4 120 825 3600 1095 du processus 2\001
4 1 0 50 -1 17 6 0.0000 4 75 195 900 1485 text\001
4 1 0 50 -1 17 6 0.0000 4 90 180 900 1755 data\001
4 1 0 50 -1 17 6 0.0000 4 90 225 900 2610 stack\001
4 1 0 50 -1 17 6 0.0000 4 90 225 3600 2610 stack\001
4 1 0 50 -1 17 6 0.0000 4 90 180 3600 1755 data\001
4 1 0 50 -1 17 6 0.0000 4 75 195 3600 1485 text\001
4 1 0 50 -1 17 6 0.0000 4 90 180 900 2025 shm\001
4 1 0 50 -1 17 6 0.0000 4 90 180 3600 2205 shm\001
