#FIG 3.2  Produced by xfig version 3.2.8b
#encoding: UTF-8
Portrait
Center
Metric
A4
100.00
Single
-2
1200 2
0 32 #808080
0 33 #c0c0c0
0 34 #e0e0e0
0 35 #9e9e9e
0 36 #868286
0 37 #717571
0 38 #aaaaaa
0 39 #aeaaae
0 40 #555555
0 41 #8e8e8e
0 42 #444444
0 43 #c7c3c7
0 44 #e7e3e7
0 45 #c7c7c7
0 46 #757575
0 47 #f3f3f3
0 48 #414541
0 49 #666666
0 50 #8e8f8e
0 51 #c6b797
0 52 #eff8ff
0 53 #dccba6
0 54 #404040
0 55 #565151
0 56 #d7d7d7
0 57 #85807d
0 58 #d2d2d2
0 59 #3a3a3a
0 60 #4573aa
0 61 #aeaeae
0 62 #7b79a5
0 63 #73758c
0 64 #f7f7f7
0 65 #635dce
0 66 #bebebe
0 67 #515151
0 68 #000049
0 69 #797979
0 70 #303430
0 71 #414141
0 72 #c7b696
0 73 #868686
0 74 #e7e7e7
0 75 #effbff
6 2318 1035 2925 1350
6 2409 1126 2909 1233
6 2409 1126 2909 1233
2 1 0 1 50 -1 19 0 -1 0.000 2 0 -1 0 0 3
	 2414 1202 2414 1132 2900 1132
2 1 0 1 7 50 19 0 -1 0.000 2 0 -1 0 0 3
	 2414 1202 2900 1202 2900 1132
-6
-6
6 2766 1126 2837 1198
2 1 0 1 7 50 19 0 -1 0.000 2 0 -1 0 0 2
	 2804 1196 2804 1128
2 1 0 1 50 -1 19 0 -1 0.000 2 0 -1 0 0 2
	 2795 1196 2795 1128
-6
6 2659 1126 2694 1198
2 1 0 1 7 50 19 0 -1 0.000 2 0 -1 0 0 2
	 2690 1196 2690 1128
2 1 0 1 50 -1 19 0 -1 0.000 2 0 -1 0 0 2
	 2681 1196 2681 1128
-6
6 2837 1233 2909 1269
2 1 0 1 7 50 19 0 -1 0.000 2 0 -1 0 0 3
	 2842 1254 2842 1245 2879 1245
2 1 0 1 50 -1 19 0 -1 0.000 2 0 -1 0 0 3
	 2842 1254 2879 1254 2879 1245
-6
6 2409 1269 2909 1340
2 1 0 1 50 32 18 0 -1 0.000 2 0 -1 0 0 3
	 2427 1323 2427 1287 2891 1287
2 1 0 1 34 32 18 0 -1 0.000 2 0 -1 0 0 3
	 2427 1323 2891 1323 2891 1287
-6
1 1 0 1 42 4 2 0 20 0.000 1 0.0000 2444 1162 11 12 2444 1162 2456 1174
1 1 0 1 42 2 2 0 20 0.000 1 0.0000 2480 1162 11 12 2480 1162 2492 1174
2 3 0 1 42 42 6 0 20 0.000 1 0 -1 0 0 5
	 2409 1126 2337 1055 2337 1269 2409 1340 2409 1126
2 3 0 1 42 50 26 0 20 0.000 1 0 -1 0 0 5
	 2409 1126 2337 1055 2837 1055 2909 1126 2409 1126
2 2 0 1 42 34 26 0 20 0.000 1 0 -1 0 0 5
	 2409 1126 2909 1126 2909 1340 2409 1340 2409 1126
2 2 0 0 50 13 19 0 20 0.000 2 0 -1 0 0 5
	 2807 1252 2784 1252 2784 1239 2807 1239 2807 1252
2 2 0 0 50 6 19 0 20 0.000 2 0 -1 0 0 5
	 2766 1252 2742 1252 2742 1239 2766 1239 2766 1252
-6
6 360 855 855 1620
# Desktop computer
6 360 855 821 1440
6 398 865 788 1223
2 2 0 1 0 34 20 0 20 0.000 2 0 7 0 0 5
	 398 865 788 865 788 1190 398 1190 398 865
2 2 0 0 0 54 19 0 22 0.000 1 0 -1 0 0 5
	 707 897 674 897 674 1158 707 1158 707 897
2 2 0 0 0 54 19 0 24 0.000 1 0 -1 0 0 5
	 674 897 642 897 642 1158 674 1158 674 897
2 2 0 0 0 54 19 0 26 0.000 1 0 -1 0 0 5
	 642 897 593 897 593 1158 642 1158 642 897
2 2 0 0 0 54 19 0 28 0.000 1 0 -1 0 0 5
	 593 897 544 897 544 1158 593 1158 593 897
2 2 0 0 0 54 19 0 30 0.000 1 0 -1 0 0 5
	 544 897 512 897 512 1158 544 1158 544 897
2 2 0 0 0 54 19 0 33 0.000 1 0 -1 0 0 5
	 512 897 479 897 479 1158 512 1158 512 897
2 2 0 0 0 54 19 0 33 0.000 1 0 -1 0 0 5
	 479 897 447 897 447 1158 479 1158 479 897
2 2 0 1 0 32 20 0 20 0.000 2 0 7 0 0 5
	 512 1190 674 1190 674 1207 512 1207 512 1190
2 2 0 1 0 32 20 0 20 0.000 2 0 -1 0 0 5
	 495 1207 691 1207 691 1223 495 1223 495 1207
2 2 0 0 0 54 19 0 20 0.000 1 0 7 0 0 5
	 739 897 707 897 707 1158 739 1158 739 897
3 5 0 0 0 33 18 0 20 0.000 0 0 0 4
	 430 897 430 1158 447 1141 447 913
	 0.000 0.000 0.000 0.000
3 5 0 0 0 7 18 0 20 0.000 0 0 0 5
	 430 1158 447 1141 596 1148 739 1141 756 1158
	 0.000 0.000 -1.000 0.000 0.000
3 5 0 0 0 33 18 0 20 0.000 0 0 0 4
	 756 897 756 1158 739 1141 739 913
	 0.000 0.000 0.000 0.000
3 5 0 0 0 32 18 0 20 0.000 0 0 0 5
	 430 897 447 913 596 907 739 913 756 897
	 0.000 0.000 -1.000 0.000 0.000
-6
6 365 1337 821 1435
2 3 0 1 0 34 20 0 20 0.000 2 0 7 0 0 7
	 414 1337 772 1337 821 1419 821 1435 365 1435 365 1419
	 414 1337
2 1 0 1 0 33 19 0 20 0.000 2 0 -1 0 0 4
	 365 1419 365 1435 821 1435 821 1419
2 3 0 0 0 7 19 0 20 0.000 2 0 -1 0 0 5
	 430 1353 398 1402 691 1402 674 1353 430 1353
2 2 0 0 0 32 18 0 20 0.000 2 0 -1 0 0 5
	 398 1402 691 1402 691 1408 398 1408 398 1402
2 3 0 0 0 33 18 0 20 0.000 2 0 -1 0 0 9
	 424 1353 398 1402 447 1402 453 1386 442 1386 449 1370
	 438 1370 447 1353 424 1353
2 3 0 0 0 33 18 0 20 0.000 2 0 -1 0 0 10
	 691 1402 642 1402 642 1386 652 1386 651 1370 658 1370
	 660 1370 657 1353 677 1353 691 1402
2 3 0 0 0 7 19 0 20 0.000 2 0 -1 0 0 5
	 756 1353 691 1353 707 1402 788 1402 756 1353
2 3 0 0 0 33 18 0 20 0.000 2 0 -1 0 0 7
	 788 1402 773 1402 756 1363 694 1363 690 1353 762 1353
	 788 1402
2 2 0 0 0 32 18 0 20 0.000 2 0 -1 0 0 5
	 707 1402 788 1402 788 1408 707 1408 707 1402
2 3 0 0 0 32 18 0 20 0.000 2 0 -1 0 0 5
	 707 1402 706 1408 690 1358 690 1354 707 1402
-6
6 406 1223 780 1321
6 647 1240 760 1272
6 647 1240 760 1272
2 1 0 1 32 -1 19 0 -1 0.000 2 0 -1 0 0 5
	 647 1256 647 1248 682 1248 682 1240 725 1240
2 1 0 1 32 -1 19 0 -1 0.000 2 0 -1 0 0 3
	 682 1272 682 1256 725 1256
2 1 0 1 32 -1 19 0 -1 0.000 2 0 -1 0 0 2
	 725 1248 760 1248
2 1 0 1 7 -1 19 0 -1 0.000 2 0 -1 0 0 2
	 725 1240 725 1248
2 1 0 1 7 -1 19 0 -1 0.000 2 0 -1 0 0 2
	 647 1256 682 1256
2 1 0 1 7 -1 19 0 -1 0.000 2 0 -1 0 0 5
	 682 1272 725 1272 725 1256 760 1256 760 1248
2 1 0 1 32 -1 19 0 -1 0.000 2 0 -1 0 0 3
	 734 1272 752 1272 752 1264
2 1 0 1 7 -1 19 0 -1 0.000 2 0 -1 0 0 3
	 734 1272 734 1264 752 1264
-6
-6
2 2 0 1 0 54 20 0 20 0.000 2 0 -1 0 0 5
	 406 1321 455 1321 455 1312 406 1312 406 1321
2 2 0 1 0 54 20 0 20 0.000 2 0 -1 0 0 5
	 731 1321 780 1321 780 1312 731 1312 731 1321
2 2 0 1 0 34 20 0 20 0.000 2 0 -1 0 0 5
	 406 1223 780 1223 780 1313 406 1313 406 1223
-6
-6
2 1 0 1 0 7 50 -1 -1 0.000 0 0 -1 0 0 2
	 585 1035 585 1620
4 2 0 50 -1 16 8 0.0000 4 90 120 540 1575 .1\001
-6
2 1 0 1 0 7 50 -1 -1 0.000 0 0 -1 0 0 3
	 2790 1260 3060 1260 3060 1620
2 1 0 1 0 7 50 -1 -1 0.000 0 0 -1 0 0 3
	 2430 1260 2160 1260 2160 1620
2 1 0 1 0 7 50 -1 -1 0.000 0 0 -1 0 0 2
	 2430 1620 270 1620
2 1 0 1 0 7 50 -1 -1 0.000 0 0 -1 0 0 2
	 2790 1620 4950 1620
2 2 0 1 0 0 52 -1 20 0.000 0 0 -1 0 0 5
	 675 1800 2115 1800 2115 1935 675 1935 675 1800
2 2 0 1 0 0 52 -1 20 0.000 0 0 -1 0 0 5
	 3195 1800 4635 1800 4635 1935 3195 1935 3195 1800
2 2 0 1 0 11 51 -1 34 0.000 0 0 -1 0 0 5
	 630 1755 2070 1755 2070 1890 630 1890 630 1755
2 2 0 1 0 11 51 -1 34 0.000 0 0 7 0 0 5
	 3150 1755 4590 1755 4590 1890 3150 1890 3150 1755
2 1 0 1 0 7 50 -1 -1 0.000 0 0 -1 0 0 2
	 2610 630 2610 990
2 2 0 1 0 7 50 -1 -1 0.000 0 0 -1 0 0 5
	 1710 630 3510 630 3510 990 1710 990 1710 630
3 0 0 1 0 7 50 -1 -1 0.000 0 1 1 4
	1 1 1.00 60.00 120.00
	1 1 1.00 60.00 120.00
	 2160 1845 2475 1710 2790 1710 3060 1845
	 0.000 1.000 1.000 0.000
4 0 0 50 -1 16 8 0.0000 4 105 270 2205 1575 .254\001
4 2 0 50 -1 16 8 0.0000 4 90 120 3015 1575 .1\001
4 1 0 50 -1 16 5 0.0000 4 75 1230 3870 1845 198.51.100.2 -> 130.79.201.195\001
4 1 0 50 -1 16 8 0.0000 4 105 930 1440 1575 192.168.1.0/24\001
4 1 0 50 -1 17 8 0.0000 4 105 885 1440 1215 réseau interne\001
4 1 0 50 -1 17 8 0.0000 4 105 930 4050 1215 réseau externe\001
4 1 0 50 -1 16 8 0.0000 4 105 1005 4050 1575 198.51.100.0/24\001
4 1 0 50 -1 16 5 0.0000 4 75 1185 1350 1845 192.168.1.1 -> 130.79.201.195\001
4 1 0 50 -1 16 7 0.0000 4 90 630 3060 765 198.51.100.2\001
4 1 0 50 -1 16 7 0.0000 4 90 570 2160 765 192.168.1.1\001
4 1 0 50 -1 16 7 0.0000 4 15 120 2160 900 ....\001
4 1 0 50 -1 16 7 0.0000 4 15 120 3060 900 ....\001
4 1 0 50 -1 17 7 0.0000 4 90 915 2610 585 table de traduction\001
