#FIG 3.2  Produced by xfig version 3.2.5c
#encoding: UTF-8
Portrait
Center
Metric
A4      
100.00
Single
-2
1200 2
6 1755 3780 3645 3915
4 1 -1 0 0 16 10 0.0000 4 120 45 3600 3915 t\001
4 1 -1 0 0 16 10 0.0000 4 120 45 1800 3915 t\001
-6
6 2115 2280 2565 2925
4 0 8 0 0 20 8 0.0000 4 105 450 2115 2385 TSval=t2\001
4 0 8 0 0 20 8 0.0000 4 105 450 2115 2655 TSval=t3\001
4 0 8 0 0 20 8 0.0000 4 105 450 2115 2925 TSval=t4\001
-6
2 1 0 1 -1 -1 0 0 -1 0.000 0 0 -1 1 0 2
	1 1 1.00 45.00 90.00
	 3600 900 3600 3780
2 1 0 1 -1 -1 0 0 -1 0.000 0 0 -1 1 0 2
	1 1 1.00 45.00 90.00
	 1890 1125 3510 1575
2 1 0 1 -1 -1 0 0 -1 0.000 0 0 -1 1 0 2
	1 1 1.00 45.00 90.00
	 3510 1665 1890 2115
2 1 0 1 -1 -1 0 0 -1 0.000 0 0 -1 1 0 2
	1 1 1.00 45.00 90.00
	 1890 2340 3510 2790
2 1 0 1 -1 -1 0 0 -1 0.000 0 0 -1 1 0 2
	1 1 1.00 45.00 90.00
	 1890 2610 3510 3060
2 1 0 1 -1 -1 0 0 -1 0.000 0 0 -1 1 0 2
	1 1 1.00 45.00 90.00
	 1890 2880 3510 3330
2 1 0 1 -1 -1 0 0 -1 0.000 0 0 -1 1 0 2
	1 1 1.00 45.00 90.00
	 3510 3150 1890 3600
2 1 0 1 -1 7 0 -1 -1 0.000 0 0 -1 0 0 3
	 1755 3600 1800 3600 1845 3600
2 1 0 1 -1 7 0 -1 -1 0.000 0 0 -1 0 0 2
	 1755 2610 1845 2610
2 1 0 1 -1 7 0 -1 -1 0.000 0 0 -1 0 0 2
	 1755 3600 1845 3600
2 1 0 1 -1 7 0 -1 -1 0.000 0 0 -1 1 1 2
	0 0 1.00 60.00 120.00
	0 0 1.00 60.00 120.00
	 1080 2610 1080 3600
2 1 0 1 -1 7 0 -1 -1 0.000 0 0 -1 0 0 2
	 1755 1125 1845 1125
2 1 0 1 -1 7 0 -1 -1 0.000 0 0 -1 0 0 2
	 1755 2115 1845 2115
2 1 0 1 -1 7 0 -1 -1 0.000 0 0 -1 1 1 2
	0 0 1.00 60.00 120.00
	0 0 1.00 60.00 120.00
	 1080 1125 1080 2115
2 1 0 1 -1 7 0 -1 -1 0.000 0 0 -1 0 0 2
	 1755 2340 1845 2340
2 1 0 1 -1 -1 0 0 -1 0.000 0 0 -1 1 0 2
	1 1 1.00 45.00 90.00
	 1800 900 1800 3780
2 1 0 1 -1 7 0 -1 -1 0.000 0 0 -1 0 0 2
	 1755 2880 1845 2880
2 1 1 1 0 7 50 -1 -1 4.000 0 0 -1 0 0 2
	 1035 1125 1755 1125
2 1 1 1 0 7 50 -1 -1 4.000 0 0 -1 0 0 2
	 1035 2115 1755 2115
2 1 1 1 0 7 50 -1 -1 4.000 0 0 -1 0 0 2
	 1035 2610 1755 2610
2 1 1 1 0 7 50 -1 -1 4.000 0 0 -1 0 0 2
	 1035 3600 1755 3600
4 0 -1 0 -1 20 8 0.0000 4 105 495 1125 1665 RTT=t1-t0\001
4 0 -1 0 -1 20 8 0.0000 4 105 495 1125 3150 RTT=t5-t3\001
4 2 -1 0 -1 20 8 0.0000 4 90 90 1710 1125 t0\001
4 2 -1 0 -1 20 8 0.0000 4 90 90 1710 2115 t1\001
4 2 -1 0 -1 20 8 0.0000 4 90 90 1710 2610 t3\001
4 2 -1 0 -1 20 8 0.0000 4 90 90 1710 2340 t2\001
4 2 -1 0 -1 20 8 0.0000 4 90 90 1710 3600 t5\001
4 2 -1 0 -1 20 8 0.0000 4 90 90 1710 2880 t4\001
4 0 8 0 0 20 8 0.0000 4 120 1110 2115 1170 TS TSval=t0, TSecr=?\001
4 2 12 0 0 20 8 0.0000 4 120 1185 3285 1710 ACK TSval=?, TSecr=t0\001
4 2 12 0 0 20 8 0.0000 4 105 705 2790 3330 ACK TSecr=t3\001
