#FIG 3.2  Produced by xfig version 3.2.6a
Landscape
Center
Metric
A4
100.00
Single
-2
1200 2
2 1 0 1 0 7 50 -1 -1 0.000 0 0 -1 0 0 2
	 2880 360 2880 540
2 1 0 1 0 7 50 -1 -1 0.000 0 0 -1 0 0 2
	 2970 360 2970 540
2 1 0 1 0 7 50 -1 -1 0.000 0 0 -1 0 0 2
	 1350 855 3150 855
2 1 0 1 0 7 50 -1 -1 0.000 0 0 -1 0 0 2
	 1350 1035 3150 1035
2 1 0 1 0 7 50 -1 -1 0.000 0 0 -1 0 0 2
	 1350 1215 3150 1215
2 1 0 1 0 7 50 -1 -1 0.000 0 0 -1 0 0 2
	 1350 1395 3150 1395
2 1 0 1 0 7 50 -1 -1 0.000 0 0 -1 0 0 3
	 2700 1530 2700 1755 2520 1755
2 1 0 1 0 7 50 -1 -1 0.000 0 0 -1 0 0 3
	 2925 1530 2925 1890 2520 1890
2 1 0 1 0 7 50 -1 -1 0.000 0 0 -1 0 0 3
	 3060 1530 3060 2025 2520 2025
2 1 0 1 0 7 50 -1 -1 0.000 0 0 -1 0 0 2
	 2880 675 2880 1575
2 1 0 1 0 7 50 -1 -1 0.000 0 0 -1 0 0 2
	 2970 675 2970 1575
2 2 0 1 0 0 52 -1 20 0.000 0 0 -1 0 0 5
	 1395 720 3195 720 3195 1620 1395 1620 1395 720
2 2 0 1 0 0 52 -1 20 0.000 0 0 -1 0 0 5
	 1395 405 3195 405 3195 585 1395 585 1395 405
2 1 0 1 0 7 50 -1 -1 0.000 0 0 -1 0 0 5
	 3060 495 3060 630 3330 630 3330 2160 2520 2160
2 2 0 1 0 11 51 -1 36 0.000 0 0 7 0 0 5
	 3150 360 1350 360 1350 540 3150 540 3150 360
2 2 0 1 0 11 51 -1 36 0.000 0 0 7 0 0 5
	 3150 675 1350 675 1350 1575 3150 1575 3150 675
4 0 0 50 -1 16 8 0.0000 4 135 180 1395 315 15\001
4 2 0 50 -1 16 8 0.0000 4 135 180 1305 495 CS\001
4 2 0 50 -1 16 8 0.0000 4 135 90 3105 315 0\001
4 2 0 50 -1 16 8 0.0000 4 135 90 2925 315 2\001
4 2 0 50 -1 16 8 0.0000 4 135 90 2835 315 3\001
4 2 0 50 -1 16 8 0.0000 4 135 90 3015 315 1\001
4 2 0 50 -1 16 8 0.0000 4 135 180 1305 810 DS\001
4 2 0 50 -1 16 8 0.0000 4 135 180 1305 990 SS\001
4 2 0 50 -1 16 8 0.0000 4 135 180 1305 1170 ES\001
4 2 0 50 -1 16 8 0.0000 4 135 180 1305 1350 FS\001
4 2 0 50 -1 16 8 0.0000 4 135 180 1305 1530 GS\001
4 2 0 50 -1 20 6 0.0000 4 135 1350 2475 1935 Table Indicator\001
4 2 0 50 -1 20 6 0.0000 4 135 450 2475 1800 Index\001
4 2 0 50 -1 20 6 0.0000 4 165 2250 2475 2070 Requested Privilege Level\001
4 2 0 50 -1 20 6 0.0000 4 165 2070 2475 2205 Current Privilege Level\001
