#FIG 3.2  Produced by xfig version 3.2.5c
#encoding: UTF-8
Landscape
Center
Metric
A4      
100.00
Single
-2
1200 2
6 1170 1755 1755 2340
1 3 0 1 0 0 52 -1 20 0.000 1 0.0000 1485 2070 270 270 1485 2070 1755 2070
1 3 0 1 0 7 51 -1 20 0.000 1 0.0000 1440 2025 270 270 1440 2025 1710 2025
4 1 0 50 -1 16 10 0.0000 4 120 195 1440 2070 P1\001
-6
6 2430 1755 3015 2340
1 3 0 1 0 0 52 -1 20 0.000 1 0.0000 2745 2070 270 270 2745 2070 3015 2070
1 3 0 1 0 7 51 -1 20 0.000 1 0.0000 2700 2025 270 270 2700 2025 2970 2025
4 1 0 50 -1 16 10 0.0000 4 120 195 2700 2070 P2\001
-6
6 1800 735 2295 1305
1 3 0 1 1 1 50 -1 20 0.000 1 0.0000 2025 1080 45 45 2025 1080 2070 1080
2 2 0 1 0 7 51 -1 20 0.000 0 0 -1 0 0 5
	 1800 900 2250 900 2250 1260 1800 1260 1800 900
2 2 0 1 0 0 52 -1 20 0.000 0 0 -1 0 0 5
	 1845 945 2295 945 2295 1305 1845 1305 1845 945
4 1 0 50 -1 16 10 0.0000 4 120 195 2025 855 R1\001
-6
6 2475 2535 2970 3105
1 3 0 1 1 1 50 -1 20 0.000 1 0.0000 2700 2880 45 45 2700 2880 2745 2880
2 2 0 1 0 7 51 -1 20 0.000 0 0 -1 0 0 5
	 2475 2700 2925 2700 2925 3060 2475 3060 2475 2700
2 2 0 1 0 0 52 -1 20 0.000 0 0 -1 0 0 5
	 2520 2745 2970 2745 2970 3105 2520 3105 2520 2745
4 1 0 50 -1 16 10 0.0000 4 120 195 2700 2655 R3\001
-6
6 3060 735 3555 1305
1 3 0 1 1 1 50 -1 20 0.000 1 0.0000 3285 1080 45 45 3285 1080 3330 1080
2 2 0 1 0 7 51 -1 20 0.000 0 0 -1 0 0 5
	 3060 900 3510 900 3510 1260 3060 1260 3060 900
2 2 0 1 0 0 52 -1 20 0.000 0 0 -1 0 0 5
	 3105 945 3555 945 3555 1305 3105 1305 3105 945
4 1 0 50 -1 16 10 0.0000 4 120 195 3285 855 R2\001
-6
6 3690 1755 4275 2340
1 3 0 1 0 0 52 -1 20 0.000 1 0.0000 4005 2070 270 270 4005 2070 4275 2070
1 3 0 1 0 7 51 -1 20 0.000 1 0.0000 3960 2025 270 270 3960 2025 4230 2025
4 1 0 50 -1 16 10 0.0000 4 120 195 3960 2070 P3\001
-6
2 1 0 2 18 7 50 -1 -1 0.000 0 0 7 1 0 2
	1 1 1.00 60.00 120.00
	 2025 1080 1575 1755
2 1 0 2 18 7 50 -1 -1 0.000 0 0 7 1 0 2
	1 1 1.00 60.00 120.00
	 2700 2880 3735 2205
2 1 0 2 18 7 50 -1 -1 0.000 0 0 7 0 1 2
	1 1 1.00 60.00 120.00
	 2205 1305 2520 1800
2 1 0 2 18 7 50 -1 -1 0.000 0 0 7 0 1 2
	1 1 1.00 60.00 120.00
	 2430 2700 1710 2160
2 1 0 2 18 7 50 -1 -1 0.000 0 0 7 0 1 2
	1 1 1.00 60.00 120.00
	 3454 1305 3769 1800
2 1 0 2 18 7 50 -1 -1 0.000 0 0 7 1 0 2
	1 1 1.00 60.00 120.00
	 3281 1080 2880 1755
