#FIG 3.2  Produced by xfig version 3.2.5c
#encoding: UTF-8
Landscape
Center
Metric
A4      
100.00
Single
-2
1200 2
0 32 #c6b797
0 33 #eff8ff
0 34 #dccba6
0 35 #404040
0 36 #808080
0 37 #c0c0c0
0 38 #e0e0e0
0 39 #8e8f8e
0 40 #aaaaaa
0 41 #555555
0 42 #c7c3c7
0 43 #565151
0 44 #8e8e8e
0 45 #d7d7d7
0 46 #85807d
0 47 #d2d2d2
0 48 #3a3a3a
0 49 #4573aa
0 50 #aeaeae
0 51 #7b79a5
0 52 #444444
0 53 #73758c
0 54 #f7f7f7
0 55 #414541
0 56 #635dce
0 57 #bebebe
0 58 #515151
0 59 #e7e3e7
0 60 #000049
0 61 #797979
0 62 #303430
0 63 #414141
0 64 #c7b696
# Server box
6 450 450 811 1080
6 490 678 771 986
6 490 678 771 705
2 2 0 0 0 38 19 0 20 0.000 0 1 -1 0 0 5
	 490 691 771 691 771 705 490 705 490 691
2 2 0 0 0 35 19 0 20 0.000 0 1 -1 0 0 5
	 490 678 771 678 771 691 490 691 490 678
-6
6 490 718 771 745
2 2 0 0 0 38 19 0 20 0.000 0 1 -1 0 0 5
	 490 731 771 731 771 745 490 745 490 731
2 2 0 0 0 35 19 0 20 0.000 0 1 -1 0 0 5
	 490 718 771 718 771 731 490 731 490 718
-6
6 490 758 771 785
2 2 0 0 0 38 19 0 20 0.000 0 1 -1 0 0 5
	 490 772 771 772 771 785 490 785 490 772
2 2 0 0 0 35 19 0 20 0.000 0 1 -1 0 0 5
	 490 758 771 758 771 772 490 772 490 758
-6
6 490 799 771 825
2 2 0 0 0 38 19 0 20 0.000 0 1 -1 0 0 5
	 490 812 771 812 771 825 490 825 490 812
2 2 0 0 0 35 19 0 20 0.000 0 1 -1 0 0 5
	 490 799 771 799 771 812 490 812 490 799
-6
6 490 839 771 866
2 2 0 0 0 38 19 0 20 0.000 0 1 -1 0 0 5
	 490 852 771 852 771 866 490 866 490 852
2 2 0 0 0 35 19 0 20 0.000 0 1 -1 0 0 5
	 490 839 771 839 771 852 490 852 490 839
-6
6 490 879 771 906
2 2 0 0 0 38 19 0 20 0.000 0 1 -1 0 0 5
	 490 892 771 892 771 906 490 906 490 892
2 2 0 0 0 35 19 0 20 0.000 0 1 -1 0 0 5
	 490 879 771 879 771 892 490 892 490 879
-6
6 490 919 771 946
2 2 0 0 0 38 19 0 20 0.000 0 1 -1 0 0 5
	 490 933 771 933 771 946 490 946 490 933
2 2 0 0 0 35 19 0 20 0.000 0 1 -1 0 0 5
	 490 919 771 919 771 933 490 933 490 919
-6
6 490 959 771 986
2 2 0 0 0 38 19 0 20 0.000 0 1 -1 0 0 5
	 490 973 771 973 771 986 490 986 490 973
2 2 0 0 0 35 19 0 20 0.000 0 1 -1 0 0 5
	 490 959 771 959 771 973 490 973 490 959
-6
-6
6 490 504 771 611
6 490 584 771 611
2 2 0 0 0 38 19 0 20 0.000 0 1 -1 0 0 5
	 490 597 771 597 771 611 490 611 490 597
2 2 0 0 0 35 19 0 20 0.000 0 1 -1 0 0 5
	 490 584 771 584 771 597 490 597 490 584
-6
6 490 544 771 571
2 2 0 0 0 38 19 0 20 0.000 0 1 -1 0 0 5
	 490 557 771 557 771 571 490 571 490 557
2 2 0 0 0 35 19 0 20 0.000 0 1 -1 0 0 5
	 490 544 771 544 771 557 490 557 490 544
-6
6 490 504 771 530
2 2 0 0 0 38 19 0 20 0.000 0 1 -1 0 0 5
	 490 517 771 517 771 530 490 530 490 517
2 2 0 0 0 35 19 0 20 0.000 0 1 -1 0 0 5
	 490 504 771 504 771 517 490 517 490 504
-6
-6
2 2 0 1 0 35 19 0 20 0.000 0 1 -1 0 0 5
	 450 1026 811 1026 811 1080 450 1080 450 1026
2 1 0 1 0 37 19 0 20 0.000 0 1 -1 0 0 2
	 450 638 811 638
2 2 0 1 0 37 20 0 20 0.000 0 1 -1 0 0 5
	 450 450 811 450 811 1080 450 1080 450 450
-6
# Server box
6 899 450 1260 1080
6 939 678 1220 986
6 939 678 1220 705
2 2 0 0 0 38 19 0 20 0.000 0 1 -1 0 0 5
	 939 691 1220 691 1220 705 939 705 939 691
2 2 0 0 0 35 19 0 20 0.000 0 1 -1 0 0 5
	 939 678 1220 678 1220 691 939 691 939 678
-6
6 939 718 1220 745
2 2 0 0 0 38 19 0 20 0.000 0 1 -1 0 0 5
	 939 731 1220 731 1220 745 939 745 939 731
2 2 0 0 0 35 19 0 20 0.000 0 1 -1 0 0 5
	 939 718 1220 718 1220 731 939 731 939 718
-6
6 939 758 1220 785
2 2 0 0 0 38 19 0 20 0.000 0 1 -1 0 0 5
	 939 772 1220 772 1220 785 939 785 939 772
2 2 0 0 0 35 19 0 20 0.000 0 1 -1 0 0 5
	 939 758 1220 758 1220 772 939 772 939 758
-6
6 939 799 1220 825
2 2 0 0 0 38 19 0 20 0.000 0 1 -1 0 0 5
	 939 812 1220 812 1220 825 939 825 939 812
2 2 0 0 0 35 19 0 20 0.000 0 1 -1 0 0 5
	 939 799 1220 799 1220 812 939 812 939 799
-6
6 939 839 1220 866
2 2 0 0 0 38 19 0 20 0.000 0 1 -1 0 0 5
	 939 852 1220 852 1220 866 939 866 939 852
2 2 0 0 0 35 19 0 20 0.000 0 1 -1 0 0 5
	 939 839 1220 839 1220 852 939 852 939 839
-6
6 939 879 1220 906
2 2 0 0 0 38 19 0 20 0.000 0 1 -1 0 0 5
	 939 892 1220 892 1220 906 939 906 939 892
2 2 0 0 0 35 19 0 20 0.000 0 1 -1 0 0 5
	 939 879 1220 879 1220 892 939 892 939 879
-6
6 939 919 1220 946
2 2 0 0 0 38 19 0 20 0.000 0 1 -1 0 0 5
	 939 933 1220 933 1220 946 939 946 939 933
2 2 0 0 0 35 19 0 20 0.000 0 1 -1 0 0 5
	 939 919 1220 919 1220 933 939 933 939 919
-6
6 939 959 1220 986
2 2 0 0 0 38 19 0 20 0.000 0 1 -1 0 0 5
	 939 973 1220 973 1220 986 939 986 939 973
2 2 0 0 0 35 19 0 20 0.000 0 1 -1 0 0 5
	 939 959 1220 959 1220 973 939 973 939 959
-6
-6
6 939 504 1220 611
6 939 584 1220 611
2 2 0 0 0 38 19 0 20 0.000 0 1 -1 0 0 5
	 939 597 1220 597 1220 611 939 611 939 597
2 2 0 0 0 35 19 0 20 0.000 0 1 -1 0 0 5
	 939 584 1220 584 1220 597 939 597 939 584
-6
6 939 544 1220 571
2 2 0 0 0 38 19 0 20 0.000 0 1 -1 0 0 5
	 939 557 1220 557 1220 571 939 571 939 557
2 2 0 0 0 35 19 0 20 0.000 0 1 -1 0 0 5
	 939 544 1220 544 1220 557 939 557 939 544
-6
6 939 504 1220 530
2 2 0 0 0 38 19 0 20 0.000 0 1 -1 0 0 5
	 939 517 1220 517 1220 530 939 530 939 517
2 2 0 0 0 35 19 0 20 0.000 0 1 -1 0 0 5
	 939 504 1220 504 1220 517 939 517 939 504
-6
-6
2 2 0 1 0 35 19 0 20 0.000 0 1 -1 0 0 5
	 899 1026 1260 1026 1260 1080 899 1080 899 1026
2 1 0 1 0 37 19 0 20 0.000 0 1 -1 0 0 2
	 899 638 1260 638
2 2 0 1 0 37 20 0 20 0.000 0 1 -1 0 0 5
	 899 450 1260 450 1260 1080 899 1080 899 450
-6
# Server box
6 1349 450 1710 1080
6 1389 678 1670 986
6 1389 678 1670 705
2 2 0 0 0 38 19 0 20 0.000 0 1 -1 0 0 5
	 1389 691 1670 691 1670 705 1389 705 1389 691
2 2 0 0 0 35 19 0 20 0.000 0 1 -1 0 0 5
	 1389 678 1670 678 1670 691 1389 691 1389 678
-6
6 1389 718 1670 745
2 2 0 0 0 38 19 0 20 0.000 0 1 -1 0 0 5
	 1389 731 1670 731 1670 745 1389 745 1389 731
2 2 0 0 0 35 19 0 20 0.000 0 1 -1 0 0 5
	 1389 718 1670 718 1670 731 1389 731 1389 718
-6
6 1389 758 1670 785
2 2 0 0 0 38 19 0 20 0.000 0 1 -1 0 0 5
	 1389 772 1670 772 1670 785 1389 785 1389 772
2 2 0 0 0 35 19 0 20 0.000 0 1 -1 0 0 5
	 1389 758 1670 758 1670 772 1389 772 1389 758
-6
6 1389 799 1670 825
2 2 0 0 0 38 19 0 20 0.000 0 1 -1 0 0 5
	 1389 812 1670 812 1670 825 1389 825 1389 812
2 2 0 0 0 35 19 0 20 0.000 0 1 -1 0 0 5
	 1389 799 1670 799 1670 812 1389 812 1389 799
-6
6 1389 839 1670 866
2 2 0 0 0 38 19 0 20 0.000 0 1 -1 0 0 5
	 1389 852 1670 852 1670 866 1389 866 1389 852
2 2 0 0 0 35 19 0 20 0.000 0 1 -1 0 0 5
	 1389 839 1670 839 1670 852 1389 852 1389 839
-6
6 1389 879 1670 906
2 2 0 0 0 38 19 0 20 0.000 0 1 -1 0 0 5
	 1389 892 1670 892 1670 906 1389 906 1389 892
2 2 0 0 0 35 19 0 20 0.000 0 1 -1 0 0 5
	 1389 879 1670 879 1670 892 1389 892 1389 879
-6
6 1389 919 1670 946
2 2 0 0 0 38 19 0 20 0.000 0 1 -1 0 0 5
	 1389 933 1670 933 1670 946 1389 946 1389 933
2 2 0 0 0 35 19 0 20 0.000 0 1 -1 0 0 5
	 1389 919 1670 919 1670 933 1389 933 1389 919
-6
6 1389 959 1670 986
2 2 0 0 0 38 19 0 20 0.000 0 1 -1 0 0 5
	 1389 973 1670 973 1670 986 1389 986 1389 973
2 2 0 0 0 35 19 0 20 0.000 0 1 -1 0 0 5
	 1389 959 1670 959 1670 973 1389 973 1389 959
-6
-6
6 1389 504 1670 611
6 1389 584 1670 611
2 2 0 0 0 38 19 0 20 0.000 0 1 -1 0 0 5
	 1389 597 1670 597 1670 611 1389 611 1389 597
2 2 0 0 0 35 19 0 20 0.000 0 1 -1 0 0 5
	 1389 584 1670 584 1670 597 1389 597 1389 584
-6
6 1389 544 1670 571
2 2 0 0 0 38 19 0 20 0.000 0 1 -1 0 0 5
	 1389 557 1670 557 1670 571 1389 571 1389 557
2 2 0 0 0 35 19 0 20 0.000 0 1 -1 0 0 5
	 1389 544 1670 544 1670 557 1389 557 1389 544
-6
6 1389 504 1670 530
2 2 0 0 0 38 19 0 20 0.000 0 1 -1 0 0 5
	 1389 517 1670 517 1670 530 1389 530 1389 517
2 2 0 0 0 35 19 0 20 0.000 0 1 -1 0 0 5
	 1389 504 1670 504 1670 517 1389 517 1389 504
-6
-6
2 2 0 1 0 35 19 0 20 0.000 0 1 -1 0 0 5
	 1349 1026 1710 1026 1710 1080 1349 1080 1349 1026
2 1 0 1 0 37 19 0 20 0.000 0 1 -1 0 0 2
	 1349 638 1710 638
2 2 0 1 0 37 20 0 20 0.000 0 1 -1 0 0 5
	 1349 450 1710 450 1710 1080 1349 1080 1349 450
-6
# Server box
6 2159 450 2520 1080
6 2199 678 2480 986
6 2199 678 2480 705
2 2 0 0 0 38 19 0 20 0.000 0 1 -1 0 0 5
	 2199 691 2480 691 2480 705 2199 705 2199 691
2 2 0 0 0 35 19 0 20 0.000 0 1 -1 0 0 5
	 2199 678 2480 678 2480 691 2199 691 2199 678
-6
6 2199 718 2480 745
2 2 0 0 0 38 19 0 20 0.000 0 1 -1 0 0 5
	 2199 731 2480 731 2480 745 2199 745 2199 731
2 2 0 0 0 35 19 0 20 0.000 0 1 -1 0 0 5
	 2199 718 2480 718 2480 731 2199 731 2199 718
-6
6 2199 758 2480 785
2 2 0 0 0 38 19 0 20 0.000 0 1 -1 0 0 5
	 2199 772 2480 772 2480 785 2199 785 2199 772
2 2 0 0 0 35 19 0 20 0.000 0 1 -1 0 0 5
	 2199 758 2480 758 2480 772 2199 772 2199 758
-6
6 2199 799 2480 825
2 2 0 0 0 38 19 0 20 0.000 0 1 -1 0 0 5
	 2199 812 2480 812 2480 825 2199 825 2199 812
2 2 0 0 0 35 19 0 20 0.000 0 1 -1 0 0 5
	 2199 799 2480 799 2480 812 2199 812 2199 799
-6
6 2199 839 2480 866
2 2 0 0 0 38 19 0 20 0.000 0 1 -1 0 0 5
	 2199 852 2480 852 2480 866 2199 866 2199 852
2 2 0 0 0 35 19 0 20 0.000 0 1 -1 0 0 5
	 2199 839 2480 839 2480 852 2199 852 2199 839
-6
6 2199 879 2480 906
2 2 0 0 0 38 19 0 20 0.000 0 1 -1 0 0 5
	 2199 892 2480 892 2480 906 2199 906 2199 892
2 2 0 0 0 35 19 0 20 0.000 0 1 -1 0 0 5
	 2199 879 2480 879 2480 892 2199 892 2199 879
-6
6 2199 919 2480 946
2 2 0 0 0 38 19 0 20 0.000 0 1 -1 0 0 5
	 2199 933 2480 933 2480 946 2199 946 2199 933
2 2 0 0 0 35 19 0 20 0.000 0 1 -1 0 0 5
	 2199 919 2480 919 2480 933 2199 933 2199 919
-6
6 2199 959 2480 986
2 2 0 0 0 38 19 0 20 0.000 0 1 -1 0 0 5
	 2199 973 2480 973 2480 986 2199 986 2199 973
2 2 0 0 0 35 19 0 20 0.000 0 1 -1 0 0 5
	 2199 959 2480 959 2480 973 2199 973 2199 959
-6
-6
6 2199 504 2480 611
6 2199 584 2480 611
2 2 0 0 0 38 19 0 20 0.000 0 1 -1 0 0 5
	 2199 597 2480 597 2480 611 2199 611 2199 597
2 2 0 0 0 35 19 0 20 0.000 0 1 -1 0 0 5
	 2199 584 2480 584 2480 597 2199 597 2199 584
-6
6 2199 544 2480 571
2 2 0 0 0 38 19 0 20 0.000 0 1 -1 0 0 5
	 2199 557 2480 557 2480 571 2199 571 2199 557
2 2 0 0 0 35 19 0 20 0.000 0 1 -1 0 0 5
	 2199 544 2480 544 2480 557 2199 557 2199 544
-6
6 2199 504 2480 530
2 2 0 0 0 38 19 0 20 0.000 0 1 -1 0 0 5
	 2199 517 2480 517 2480 530 2199 530 2199 517
2 2 0 0 0 35 19 0 20 0.000 0 1 -1 0 0 5
	 2199 504 2480 504 2480 517 2199 517 2199 504
-6
-6
2 2 0 1 0 35 19 0 20 0.000 0 1 -1 0 0 5
	 2159 1026 2520 1026 2520 1080 2159 1080 2159 1026
2 1 0 1 0 37 19 0 20 0.000 0 1 -1 0 0 2
	 2159 638 2520 638
2 2 0 1 0 37 20 0 20 0.000 0 1 -1 0 0 5
	 2159 450 2520 450 2520 1080 2159 1080 2159 450
-6
2 1 0 1 0 7 50 -1 -1 0.000 0 0 -1 0 0 2
	 630 1035 630 1260
2 1 0 1 0 7 50 -1 -1 0.000 0 0 -1 0 0 2
	 1080 1035 1080 1260
2 1 0 1 0 7 50 -1 -1 0.000 0 0 -1 0 0 2
	 2340 1035 2340 1260
2 1 0 1 0 7 50 -1 -1 0.000 0 0 -1 0 0 2
	 1530 1035 1530 1260
2 1 0 1 0 7 50 -1 -1 0.000 0 0 -1 0 0 2
	 450 1260 2520 1260
2 1 2 1 0 7 50 -1 -1 3.000 0 0 -1 0 0 2
	 1755 765 2115 765
2 1 0 1 0 7 52 -1 20 3.000 0 0 7 0 0 2
	 1440 1260 1440 1440
3 1 0 1 0 7 51 -1 20 3.000 0 0 0 7
	 868 1595 1093 1370 1453 1370 1858 1415 2083 1775 1408 1775
	 1048 1730
	 1.000 1.000 1.000 1.000 1.000 1.000 1.000
4 1 0 50 -1 17 7 0.0000 4 90 375 1440 1620 Internet\001
