#FIG 3.2  Produced by xfig version 3.2.7a
#encoding: UTF-8
Landscape
Center
Metric
A4
100.00
Single
-2
1200 2
2 2 0 0 0 4 50 -1 35 0.000 0 0 -1 0 0 5
	 1710 990 2970 990 2970 1710 1710 1710 1710 990
2 1 0 1 0 4 50 -1 30 0.000 0 0 -1 1 0 2
	1 1 1.00 60.00 120.00
	 1080 855 1395 675
2 1 0 1 0 4 50 -1 30 0.000 0 0 -1 1 0 2
	1 1 1.00 60.00 120.00
	 1080 900 1395 2025
2 2 0 0 0 13 50 -1 35 0.000 0 0 -1 0 0 5
	 1710 450 2970 450 2970 900 1710 900 1710 450
2 2 0 0 0 13 50 -1 35 0.000 0 0 -1 0 0 5
	 1710 1800 2970 1800 2970 2250 1710 2250 1710 1800
2 2 0 1 0 0 51 -1 62 0.000 0 0 -1 0 0 5
	 1755 495 3015 495 3015 945 1755 945 1755 495
2 2 0 1 0 0 51 -1 62 0.000 0 0 -1 0 0 5
	 1755 1035 3015 1035 3015 1755 1755 1755 1755 1035
2 2 0 1 0 0 51 -1 62 0.000 0 0 -1 0 0 5
	 1755 1845 3015 1845 3015 2295 1755 2295 1755 1845
3 0 0 1 0 7 50 -1 -1 0.000 0 0 0 6
	 3060 990 3150 990 3150 1080 3150 1260 3150 1350 3240 1350
	 0.000 1.000 1.000 1.000 1.000 0.000
3 0 0 1 0 7 50 -1 -1 0.000 0 0 0 6
	 3060 1710 3150 1710 3150 1620 3150 1440 3150 1350 3240 1350
	 0.000 1.000 1.000 1.000 1.000 0.000
3 0 0 1 0 7 50 -1 -1 0.000 0 0 0 6
	 1620 450 1530 450 1530 540 1530 630 1530 675 1440 675
	 0.000 1.000 1.000 1.000 1.000 0.000
3 0 0 1 0 7 50 -1 -1 0.000 0 0 0 6
	 1620 900 1530 900 1530 810 1530 720 1530 675 1440 675
	 0.000 1.000 1.000 1.000 1.000 0.000
3 0 0 1 0 7 50 -1 -1 0.000 0 0 0 6
	 1620 1800 1530 1800 1530 1890 1530 1980 1530 2025 1440 2025
	 0.000 1.000 1.000 1.000 1.000 0.000
3 0 0 1 0 7 50 -1 -1 0.000 0 0 0 6
	 1620 2250 1530 2250 1530 2160 1530 2070 1530 2025 1440 2025
	 0.000 1.000 1.000 1.000 1.000 0.000
4 2 0 49 -1 17 7 0.0000 4 90 630 990 855 Protocole de\001
4 2 0 49 -1 17 7 0.0000 4 105 765 990 1020 section critique\001
4 0 0 49 -1 17 8 0.0000 4 135 540 1800 630 Prologue\001
4 0 0 49 -1 17 8 0.0000 4 135 525 1800 1980 Epilogue\001
4 0 0 49 -1 17 7 0.0000 4 90 375 3285 1305 Section\001
4 0 0 49 -1 17 7 0.0000 4 105 375 3285 1470 critique\001
4 0 1 49 -1 12 7 0.0000 4 90 975 1800 1170 ld  [1000],%a\001
4 0 1 49 -1 12 7 0.0000 4 90 675 1800 1365 add 10,%a\001
4 0 1 49 -1 12 7 0.0000 4 90 975 1800 1560 st  %a,[1000]\001
