#FIG 3.2  Produced by xfig version 3.2.5c
#encoding: UTF-8
Landscape
Center
Metric
Letter  
100.00
Single
-2
1200 2
1 1 0 1 0 11 50 -1 36 0.000 1 0.0000 1350 450 630 90 1350 450 1980 540
1 1 0 1 0 11 54 -1 36 0.000 1 0.0000 1350 810 630 90 1350 810 1980 720
1 1 0 1 0 11 52 -1 36 0.000 1 0.0000 1350 630 630 90 1350 630 1980 540
1 1 0 1 0 11 56 -1 36 0.000 1 0.0000 1350 1350 630 90 1350 1350 1980 1260
1 1 0 1 0 11 58 -1 36 0.000 1 0.0000 1350 2432 630 92 1350 2432 1980 2340
1 1 0 1 0 11 60 -1 36 0.000 1 0.0000 1350 2880 630 90 1350 2880 1980 2790
1 1 0 1 0 0 70 -1 20 0.000 1 0.0000 1395 495 630 90 1395 495 2025 405
1 1 0 1 0 0 70 -1 20 0.000 1 0.0000 1395 2925 630 90 1395 2925 2025 2835
2 1 0 1 0 7 49 -1 -1 0.000 0 0 -1 0 0 2
	 720 450 720 2880
2 1 0 1 0 7 49 -1 -1 0.000 0 0 -1 0 0 2
	 1980 450 1980 2880
2 2 0 0 7 11 51 -1 36 0.000 0 0 -1 0 0 5
	 720 450 1980 450 1980 630 720 630 720 450
2 2 0 0 7 11 53 -1 36 0.000 0 0 -1 0 0 5
	 720 630 1980 630 1980 810 720 810 720 630
2 2 0 0 7 11 55 -1 36 0.000 0 0 -1 0 0 5
	 720 810 1980 810 1980 1350 720 1350 720 810
2 2 0 0 7 11 57 -1 36 0.000 0 0 -1 0 0 5
	 720 1350 1980 1350 1980 2430 720 2430 720 1350
2 2 0 0 7 11 59 -1 36 0.000 0 0 -1 0 0 5
	 720 2430 1980 2430 1980 2880 720 2880 720 2430
2 2 0 1 0 0 70 -1 20 0.000 0 0 -1 0 0 5
	 2025 495 765 495 765 2925 2025 2925 2025 495
4 1 0 49 -1 16 8 0.0000 4 105 645 1350 675 boot-block\001
4 1 0 49 -1 16 8 0.0000 4 135 720 1350 855 super-block\001
4 1 0 49 -1 16 8 0.0000 4 105 570 1350 1080 table des\001
4 1 0 49 -1 16 8 0.0000 4 105 405 1350 1275 inodes\001
4 1 0 49 -1 16 8 0.0000 4 105 525 1350 1845 blocs de\001
4 1 0 49 -1 16 8 0.0000 4 105 525 1350 2040 données\001
4 1 0 49 -1 16 8 0.0000 4 105 450 1350 2700 espace\001
4 1 0 49 -1 16 8 0.0000 4 135 525 1350 2895 de swap\001
