#FIG 3.2  Produced by xfig version 3.2.5c
#encoding: UTF-8
Portrait
Center
Metric
A4      
100.00
Single
-2
1200 2
0 32 #c6b797
0 33 #eff8ff
0 34 #dccba6
0 35 #404040
0 36 #808080
0 37 #c0c0c0
0 38 #e0e0e0
0 39 #8e8f8e
0 40 #aaaaaa
0 41 #555555
0 42 #c7c3c7
0 43 #565151
0 44 #8e8e8e
0 45 #d7d7d7
0 46 #85807d
0 47 #d2d2d2
0 48 #3a3a3a
0 49 #4573aa
0 50 #aeaeae
0 51 #7b79a5
0 52 #444444
0 53 #73758c
0 54 #f7f7f7
0 55 #414541
0 56 #635dce
0 57 #bebebe
0 58 #515151
0 59 #e7e3e7
0 60 #000049
0 61 #797979
0 62 #303430
0 63 #414141
0 64 #c7b696
0 65 #cccccc
0 66 #868286
0 67 #868686
0 68 #c7c7c7
0 69 #e7e7e7
0 70 #9e9e9e
0 71 #717571
0 72 #effbff
0 73 #666666
0 74 #000000
0 75 #ffffff
0 76 #dd9d93
0 77 #f1ece0
0 78 #c3c3c3
0 79 #e2c8a8
0 80 #e1e1e1
0 81 #ededed
0 82 #da7a1a
0 83 #f1e41a
0 84 #887dc2
0 85 #d6d6d6
0 86 #8c8ca5
0 87 #4a4a4a
0 88 #5a5a5a
0 89 #636363
0 90 #b79b73
0 91 #4193ff
0 92 #bf703b
0 93 #db7700
0 94 #dab800
0 95 #006400
0 96 #5a6b3b
0 97 #d3d3d3
0 98 #8e8ea4
0 99 #f3b95d
0 100 #89996b
0 101 #646464
0 102 #b7e6ff
0 103 #86c0ec
0 104 #bdbdbd
0 105 #d39552
0 106 #98d2fe
0 107 #8c6b6b
0 108 #8c9c6b
0 109 #f76b00
0 110 #5a6b39
0 111 #8c9c6b
0 112 #8c9c7b
0 113 #184a18
0 114 #adadad
0 115 #f7bd5a
0 116 #636b9c
0 117 #186b4a
0 118 #21845a
0 119 #f3eed3
0 120 #f5ae5d
0 121 #95ce99
0 122 #b5157d
0 123 #eeeeee
0 124 #848484
0 125 #7b7b7b
0 126 #005a00
0 127 #e77373
0 128 #ffcb31
0 129 #29794a
0 130 #de2821
0 131 #2159c6
0 132 #f8f8f8
0 133 #e6e6e6
0 134 #a5b5c6
0 135 #6b6b94
0 136 #846b6b
0 137 #529c4a
0 138 #d6e7e7
0 139 #526363
0 140 #ff9400
0 141 #ff9400
0 142 #00634a
0 143 #7b844a
0 144 #63737b
0 145 #e7bd7b
0 146 #dedede
0 147 #de0000
0 148 #526b29
0 149 #949494
0 150 #006300
0 151 #9ca5b5
# Router small icon
# drawn by P. David
6 3150 1485 3645 1980
1 3 0 1 7 1 50 -1 20 0.000 1 0.0000 3375 1710 225 225 3375 1710 3600 1710
1 3 0 0 0 0 51 -1 20 0.000 1 0.0000 3420 1755 225 225 3420 1755 3645 1755
2 1 0 2 6 7 49 -1 -1 0.000 0 0 7 1 0 3
	1 1 1.00 45.00 60.00
	 3420 1530 3420 1665 3555 1665
2 1 0 2 6 7 49 -1 -1 0.000 0 0 7 1 0 3
	1 1 1.00 45.00 60.00
	 3555 1755 3420 1755 3420 1890
2 1 0 2 6 7 49 -1 -1 0.000 0 0 7 1 0 3
	1 1 1.00 45.00 60.00
	 3330 1890 3330 1755 3195 1755
2 1 0 2 6 7 49 -1 -1 0.000 0 0 7 1 0 3
	1 1 1.00 45.00 60.00
	 3195 1665 3330 1665 3330 1530
-6
# Server box
6 628 1395 1170 2340
6 688 1737 1110 2199
6 688 1737 1110 1777
2 2 0 0 0 38 19 0 20 0.000 0 1 -1 0 0 5
	 688 1757 1110 1757 1110 1777 688 1777 688 1757
2 2 0 0 0 35 19 0 20 0.000 0 1 -1 0 0 5
	 688 1737 1110 1737 1110 1757 688 1757 688 1737
-6
6 688 1797 1110 1837
2 2 0 0 0 38 19 0 20 0.000 0 1 -1 0 0 5
	 688 1817 1110 1817 1110 1837 688 1837 688 1817
2 2 0 0 0 35 19 0 20 0.000 0 1 -1 0 0 5
	 688 1797 1110 1797 1110 1817 688 1817 688 1797
-6
6 688 1857 1110 1898
2 2 0 0 0 38 19 0 20 0.000 0 1 -1 0 0 5
	 688 1878 1110 1878 1110 1898 688 1898 688 1878
2 2 0 0 0 35 19 0 20 0.000 0 1 -1 0 0 5
	 688 1857 1110 1857 1110 1878 688 1878 688 1857
-6
6 688 1918 1110 1958
2 2 0 0 0 38 19 0 20 0.000 0 1 -1 0 0 5
	 688 1938 1110 1938 1110 1958 688 1958 688 1938
2 2 0 0 0 35 19 0 20 0.000 0 1 -1 0 0 5
	 688 1918 1110 1918 1110 1938 688 1938 688 1918
-6
6 688 1978 1110 2018
2 2 0 0 0 38 19 0 20 0.000 0 1 -1 0 0 5
	 688 1998 1110 1998 1110 2018 688 2018 688 1998
2 2 0 0 0 35 19 0 20 0.000 0 1 -1 0 0 5
	 688 1978 1110 1978 1110 1998 688 1998 688 1978
-6
6 688 2038 1110 2079
2 2 0 0 0 38 19 0 20 0.000 0 1 -1 0 0 5
	 688 2059 1110 2059 1110 2079 688 2079 688 2059
2 2 0 0 0 35 19 0 20 0.000 0 1 -1 0 0 5
	 688 2038 1110 2038 1110 2059 688 2059 688 2038
-6
6 688 2099 1110 2139
2 2 0 0 0 38 19 0 20 0.000 0 1 -1 0 0 5
	 688 2119 1110 2119 1110 2139 688 2139 688 2119
2 2 0 0 0 35 19 0 20 0.000 0 1 -1 0 0 5
	 688 2099 1110 2099 1110 2119 688 2119 688 2099
-6
6 688 2159 1110 2199
2 2 0 0 0 38 19 0 20 0.000 0 1 -1 0 0 5
	 688 2179 1110 2179 1110 2199 688 2199 688 2179
2 2 0 0 0 35 19 0 20 0.000 0 1 -1 0 0 5
	 688 2159 1110 2159 1110 2179 688 2179 688 2159
-6
-6
6 688 1475 1110 1636
6 688 1596 1110 1636
2 2 0 0 0 38 19 0 20 0.000 0 1 -1 0 0 5
	 688 1616 1110 1616 1110 1636 688 1636 688 1616
2 2 0 0 0 35 19 0 20 0.000 0 1 -1 0 0 5
	 688 1596 1110 1596 1110 1616 688 1616 688 1596
-6
6 688 1536 1110 1576
2 2 0 0 0 38 19 0 20 0.000 0 1 -1 0 0 5
	 688 1556 1110 1556 1110 1576 688 1576 688 1556
2 2 0 0 0 35 19 0 20 0.000 0 1 -1 0 0 5
	 688 1536 1110 1536 1110 1556 688 1556 688 1536
-6
6 688 1475 1110 1516
2 2 0 0 0 38 19 0 20 0.000 0 1 -1 0 0 5
	 688 1495 1110 1495 1110 1516 688 1516 688 1495
2 2 0 0 0 35 19 0 20 0.000 0 1 -1 0 0 5
	 688 1475 1110 1475 1110 1495 688 1495 688 1475
-6
-6
2 2 0 1 0 35 19 0 20 0.000 0 1 -1 0 0 5
	 628 2260 1170 2260 1170 2340 628 2340 628 2260
2 1 0 1 0 37 19 0 20 0.000 0 1 -1 0 0 2
	 628 1676 1170 1676
2 2 0 1 0 37 20 0 20 0.000 0 1 -1 0 0 5
	 628 1395 1170 1395 1170 2340 628 2340 628 1395
-6
# Desktop computer
6 2520 2475 3052 3150
6 2564 2486 3014 2899
2 2 0 1 0 38 20 0 20 0.000 2 0 7 0 0 5
	 2564 2486 3014 2486 3014 2862 2564 2862 2564 2486
2 2 0 0 0 35 19 0 22 0.000 1 0 -1 0 0 5
	 2920 2524 2883 2524 2883 2824 2920 2824 2920 2524
2 2 0 0 0 35 19 0 24 0.000 1 0 -1 0 0 5
	 2883 2524 2845 2524 2845 2824 2883 2824 2883 2524
2 2 0 0 0 35 19 0 26 0.000 1 0 -1 0 0 5
	 2845 2524 2789 2524 2789 2824 2845 2824 2845 2524
2 2 0 0 0 35 19 0 28 0.000 1 0 -1 0 0 5
	 2789 2524 2733 2524 2733 2824 2789 2824 2789 2524
2 2 0 0 0 35 19 0 30 0.000 1 0 -1 0 0 5
	 2733 2524 2695 2524 2695 2824 2733 2824 2733 2524
2 2 0 0 0 35 19 0 33 0.000 1 0 -1 0 0 5
	 2695 2524 2657 2524 2657 2824 2695 2824 2695 2524
2 2 0 0 0 35 19 0 33 0.000 1 0 -1 0 0 5
	 2657 2524 2620 2524 2620 2824 2657 2824 2657 2524
2 2 0 1 0 36 20 0 20 0.000 2 0 7 0 0 5
	 2695 2862 2883 2862 2883 2881 2695 2881 2695 2862
2 2 0 1 0 36 20 0 20 0.000 2 0 -1 0 0 5
	 2676 2881 2901 2881 2901 2899 2676 2899 2676 2881
2 2 0 0 0 35 19 0 20 0.000 1 0 7 0 0 5
	 2958 2524 2920 2524 2920 2824 2958 2824 2958 2524
3 5 0 0 0 37 18 0 20 0.000 0 0 0 4
	 2601 2524 2601 2824 2620 2806 2620 2542
	 0.000 0.000 0.000 0.000
3 5 0 0 0 7 18 0 20 0.000 0 0 0 5
	 2601 2824 2620 2806 2793 2813 2958 2806 2977 2824
	 0.000 0.000 -1.000 0.000 0.000
3 5 0 0 0 37 18 0 20 0.000 0 0 0 4
	 2977 2524 2977 2824 2958 2806 2958 2542
	 0.000 0.000 0.000 0.000
3 5 0 0 0 36 18 0 20 0.000 0 0 0 5
	 2601 2524 2620 2542 2793 2535 2958 2542 2977 2524
	 0.000 0.000 -1.000 0.000 0.000
-6
6 2526 3031 3051 3144
2 3 0 1 0 38 20 0 20 0.000 2 0 7 0 0 7
	 2582 3031 2995 3031 3051 3125 3051 3144 2526 3144 2526 3125
	 2582 3031
2 1 0 1 0 37 19 0 20 0.000 2 0 -1 0 0 4
	 2526 3125 2526 3144 3051 3144 3051 3125
2 3 0 0 0 7 19 0 20 0.000 2 0 -1 0 0 5
	 2601 3050 2564 3106 2901 3106 2883 3050 2601 3050
2 2 0 0 0 36 18 0 20 0.000 2 0 -1 0 0 5
	 2564 3106 2901 3106 2901 3113 2564 3113 2564 3106
2 3 0 0 0 37 18 0 20 0.000 2 0 -1 0 0 9
	 2594 3050 2564 3106 2620 3106 2628 3088 2615 3088 2622 3069
	 2610 3069 2620 3050 2594 3050
2 3 0 0 0 37 18 0 20 0.000 2 0 -1 0 0 10
	 2901 3106 2845 3106 2845 3087 2857 3088 2855 3069 2864 3069
	 2867 3069 2863 3050 2886 3050 2901 3106
2 3 0 0 0 7 19 0 20 0.000 2 0 -1 0 0 5
	 2977 3050 2901 3050 2920 3106 3014 3106 2977 3050
2 3 0 0 0 37 18 0 20 0.000 2 0 -1 0 0 7
	 3014 3106 2997 3106 2977 3061 2905 3061 2901 3050 2984 3050
	 3014 3106
2 2 0 0 0 36 18 0 20 0.000 2 0 -1 0 0 5
	 2920 3106 3014 3106 3014 3113 2920 3113 2920 3106
2 3 0 0 0 36 18 0 20 0.000 2 0 -1 0 0 5
	 2920 3107 2920 3113 2901 3056 2901 3050 2920 3107
-6
6 2573 2899 3004 3012
6 2851 2919 2982 2957
6 2851 2919 2982 2957
2 1 0 1 36 -1 19 0 -1 0.000 2 0 -1 0 0 5
	 2851 2938 2851 2928 2891 2928 2891 2919 2941 2919
2 1 0 1 36 -1 19 0 -1 0.000 2 0 -1 0 0 3
	 2891 2957 2891 2938 2941 2938
2 1 0 1 36 -1 19 0 -1 0.000 2 0 -1 0 0 2
	 2941 2928 2982 2928
2 1 0 1 7 -1 19 0 -1 0.000 2 0 -1 0 0 2
	 2941 2919 2941 2928
2 1 0 1 7 -1 19 0 -1 0.000 2 0 -1 0 0 2
	 2851 2938 2891 2938
2 1 0 1 7 -1 19 0 -1 0.000 2 0 -1 0 0 5
	 2891 2957 2941 2957 2941 2938 2982 2938 2982 2928
2 1 0 1 36 -1 19 0 -1 0.000 2 0 -1 0 0 3
	 2952 2957 2972 2957 2972 2947
2 1 0 1 7 -1 19 0 -1 0.000 2 0 -1 0 0 3
	 2952 2957 2952 2947 2972 2947
-6
-6
2 2 0 1 0 35 20 0 20 0.000 2 0 -1 0 0 5
	 2573 3012 2629 3012 2629 3003 2573 3003 2573 3012
2 2 0 1 0 35 20 0 20 0.000 2 0 -1 0 0 5
	 2948 3012 3004 3012 3004 3003 2948 3003 2948 3012
2 2 0 1 0 38 20 0 20 0.000 2 0 -1 0 0 5
	 2573 2899 3004 2899 3004 3003 2573 3003 2573 2899
-6
-6
# Server box
6 4228 2475 4770 3420
6 4288 2817 4710 3279
6 4288 2817 4710 2857
2 2 0 0 0 38 19 0 20 0.000 0 1 -1 0 0 5
	 4288 2837 4710 2837 4710 2857 4288 2857 4288 2837
2 2 0 0 0 35 19 0 20 0.000 0 1 -1 0 0 5
	 4288 2817 4710 2817 4710 2837 4288 2837 4288 2817
-6
6 4288 2877 4710 2917
2 2 0 0 0 38 19 0 20 0.000 0 1 -1 0 0 5
	 4288 2897 4710 2897 4710 2917 4288 2917 4288 2897
2 2 0 0 0 35 19 0 20 0.000 0 1 -1 0 0 5
	 4288 2877 4710 2877 4710 2897 4288 2897 4288 2877
-6
6 4288 2937 4710 2978
2 2 0 0 0 38 19 0 20 0.000 0 1 -1 0 0 5
	 4288 2958 4710 2958 4710 2978 4288 2978 4288 2958
2 2 0 0 0 35 19 0 20 0.000 0 1 -1 0 0 5
	 4288 2937 4710 2937 4710 2958 4288 2958 4288 2937
-6
6 4288 2998 4710 3038
2 2 0 0 0 38 19 0 20 0.000 0 1 -1 0 0 5
	 4288 3018 4710 3018 4710 3038 4288 3038 4288 3018
2 2 0 0 0 35 19 0 20 0.000 0 1 -1 0 0 5
	 4288 2998 4710 2998 4710 3018 4288 3018 4288 2998
-6
6 4288 3058 4710 3098
2 2 0 0 0 38 19 0 20 0.000 0 1 -1 0 0 5
	 4288 3078 4710 3078 4710 3098 4288 3098 4288 3078
2 2 0 0 0 35 19 0 20 0.000 0 1 -1 0 0 5
	 4288 3058 4710 3058 4710 3078 4288 3078 4288 3058
-6
6 4288 3118 4710 3159
2 2 0 0 0 38 19 0 20 0.000 0 1 -1 0 0 5
	 4288 3139 4710 3139 4710 3159 4288 3159 4288 3139
2 2 0 0 0 35 19 0 20 0.000 0 1 -1 0 0 5
	 4288 3118 4710 3118 4710 3139 4288 3139 4288 3118
-6
6 4288 3179 4710 3219
2 2 0 0 0 38 19 0 20 0.000 0 1 -1 0 0 5
	 4288 3199 4710 3199 4710 3219 4288 3219 4288 3199
2 2 0 0 0 35 19 0 20 0.000 0 1 -1 0 0 5
	 4288 3179 4710 3179 4710 3199 4288 3199 4288 3179
-6
6 4288 3239 4710 3279
2 2 0 0 0 38 19 0 20 0.000 0 1 -1 0 0 5
	 4288 3259 4710 3259 4710 3279 4288 3279 4288 3259
2 2 0 0 0 35 19 0 20 0.000 0 1 -1 0 0 5
	 4288 3239 4710 3239 4710 3259 4288 3259 4288 3239
-6
-6
6 4288 2555 4710 2716
6 4288 2676 4710 2716
2 2 0 0 0 38 19 0 20 0.000 0 1 -1 0 0 5
	 4288 2696 4710 2696 4710 2716 4288 2716 4288 2696
2 2 0 0 0 35 19 0 20 0.000 0 1 -1 0 0 5
	 4288 2676 4710 2676 4710 2696 4288 2696 4288 2676
-6
6 4288 2616 4710 2656
2 2 0 0 0 38 19 0 20 0.000 0 1 -1 0 0 5
	 4288 2636 4710 2636 4710 2656 4288 2656 4288 2636
2 2 0 0 0 35 19 0 20 0.000 0 1 -1 0 0 5
	 4288 2616 4710 2616 4710 2636 4288 2636 4288 2616
-6
6 4288 2555 4710 2596
2 2 0 0 0 38 19 0 20 0.000 0 1 -1 0 0 5
	 4288 2575 4710 2575 4710 2596 4288 2596 4288 2575
2 2 0 0 0 35 19 0 20 0.000 0 1 -1 0 0 5
	 4288 2555 4710 2555 4710 2575 4288 2575 4288 2555
-6
-6
2 2 0 1 0 35 19 0 20 0.000 0 1 -1 0 0 5
	 4228 3340 4770 3340 4770 3420 4228 3420 4228 3340
2 1 0 1 0 37 19 0 20 0.000 0 1 -1 0 0 2
	 4228 2756 4770 2756
2 2 0 1 0 37 20 0 20 0.000 0 1 -1 0 0 5
	 4228 2475 4770 2475 4770 3420 4228 3420 4228 2475
-6
2 1 0 1 -1 -1 60 0 -1 0.000 0 0 -1 0 0 2
	 225 1170 4050 1170
2 1 0 1 -1 -1 60 0 -1 0.000 0 0 -1 0 0 2
	 3375 1170 3375 1620
2 1 0 1 0 7 60 0 -1 0.000 0 0 -1 0 0 2
	 3375 1800 3375 2250
2 1 0 1 0 7 60 0 -1 0.000 0 0 -1 0 0 2
	 2070 2250 4950 2250
2 1 0 1 0 7 60 0 -1 0.000 0 0 -1 0 0 2
	 2790 2250 2790 2520
2 1 0 1 0 7 60 0 -1 0.000 0 0 -1 0 0 2
	 4500 2250 4500 2700
2 1 0 1 -1 -1 60 0 -1 0.000 0 0 -1 0 0 2
	 900 1170 900 1620
4 1 -1 50 0 4 12 0.0000 0 135 90 990 1350 D\001
4 0 0 50 0 4 10 0.0000 0 120 630 3780 1710 routeur\001
4 2 0 50 0 4 10 0.0000 0 135 540 2475 2790 client\001
4 2 0 50 0 4 10 0.0000 0 135 1260 4185 2970 serveur relais\001
4 1 -1 50 0 4 12 0.0000 0 135 90 2880 2430 A\001
4 1 -1 50 0 4 12 0.0000 0 135 90 4590 2430 B\001
4 1 -1 50 0 4 12 0.0000 0 135 90 3060 1800 C\001
4 0 0 50 0 4 10 0.0000 0 135 1260 1260 1800 serveur maître\001
