#FIG 3.2  Produced by xfig version 3.2.8b
#encoding: UTF-8
Portrait
Center
Metric
A4
100.00
Single
-2
1200 2
2 1 0 1 -1 -1 0 0 -1 0.000 0 0 -1 0 0 2
	 3150 270 630 900
2 1 0 1 -1 -1 0 0 -1 0.000 0 0 -1 0 0 2
	 3150 270 4725 900
2 1 0 1 -1 -1 0 0 -1 0.000 0 0 -1 0 0 2
	 3150 270 2520 900
2 1 0 1 -1 -1 0 0 -1 0.000 0 0 -1 0 0 2
	 2520 1215 1890 1845
2 1 0 1 -1 -1 0 0 -1 0.000 0 0 -1 0 0 2
	 2520 1215 4275 1800
2 1 0 1 -1 -1 0 0 -1 0.000 0 0 -1 0 0 2
	 1890 2115 1305 2700
2 1 0 1 -1 -1 0 0 -1 0.000 0 0 -1 0 0 2
	 1890 2115 3645 2700
4 1 1 0 0 5 10 0.0000 2 135 1575 3150 225 multipart-mixed\001
4 1 1 0 0 5 10 0.0000 2 135 2205 2520 1125 multipart/alternative\001
4 1 1 0 0 5 10 0.0000 2 135 1470 4725 1125 message/rfc822\001
4 1 1 0 0 5 10 0.0000 2 135 1050 630 1125 text/plain\001
4 1 1 0 0 5 10 0.0000 2 135 1890 1890 2025 multipart/parallel\001
4 1 1 0 0 5 10 0.0000 2 135 1050 1305 2925 image/jpeg\001
4 1 1 0 0 5 10 0.0000 2 120 1155 3645 2925 audio/basic\001
4 1 1 0 0 5 10 0.0000 2 135 1050 4275 2025 video/mpeg\001
