#FIG 3.2  Produced by xfig version 3.2.5c
#encoding: UTF-8
Portrait
Center
Metric
A4      
100.00
Single
-3
1200 2
2 1 0 1 0 7 50 -1 -1 0.000 0 0 -1 0 0 2
	 450 1350 3150 1350
2 1 0 1 0 7 50 -1 -1 0.000 0 0 -1 0 0 2
	 450 900 3150 900
2 1 0 1 0 7 50 -1 -1 0.000 0 0 -1 0 0 2
	 1800 900 1800 1350
2 2 0 1 0 31 51 -1 36 0.000 0 0 -1 0 0 5
	 450 450 3150 450 3150 1800 450 1800 450 450
2 2 0 1 0 11 51 -1 36 0.000 0 0 -1 0 0 5
	 450 1800 3150 1800 3150 2250 450 2250 450 1800
2 2 0 1 0 0 52 -1 20 0.000 0 0 -1 0 0 5
	 495 495 3195 495 3195 2295 495 2295 495 495
4 1 0 50 -1 16 11 0.0000 6 165 1245 1800 720 Application ssh\001
4 1 0 50 -1 16 11 0.0000 6 135 900 2475 1080 connection\001
4 1 0 50 -1 16 11 0.0000 6 165 1080 2475 1275 management\001
4 1 0 50 -1 16 11 0.0000 6 90 405 1125 1080 user \001
4 1 0 50 -1 16 11 0.0000 6 135 1155 1125 1260 authentication\001
4 1 0 50 -1 16 11 0.0000 6 150 720 1800 1620 transport\001
4 1 0 50 -1 16 11 0.0000 6 135 360 1800 2070 TCP\001
