#FIG 3.2  Produced by xfig version 3.2.5-alpha5
#encoding: UTF-8
Portrait
Center
Metric
A4      
100.00
Single
-3
1200 2
6 360 495 540 2475
2 1 0 1 0 7 50 -1 -1 0.000 0 0 -1 1 0 2
	1 1 1.00 60.00 120.00
	 450 675 450 2475
4 1 0 50 -1 16 10 0.0000 6 120 120 450 630 C\001
-6
6 2160 495 2340 2475
2 1 0 1 0 7 50 -1 -1 0.000 0 0 -1 1 0 2
	1 1 1.00 60.00 120.00
	 2250 675 2250 2475
4 1 0 50 -1 16 10 0.0000 6 120 105 2250 630 S\001
-6
2 1 0 1 0 7 50 -1 -1 0.000 0 0 -1 1 0 2
	1 1 1.00 60.00 120.00
	 2205 1125 495 1350
2 1 0 1 0 7 50 -1 -1 0.000 0 0 -1 1 0 2
	1 1 1.00 60.00 120.00
	 540 1575 2205 1800
4 1 0 50 -1 16 8 0.0000 6 105 840 1350 1125 MSG_KEXINIT\001
4 1 0 50 -1 16 8 0.0000 6 105 840 1350 1575 MSG_KEXINIT\001
