#FIG 3.2  Produced by xfig version 3.2.8b
#encoding: UTF-8
Portrait
Center
Metric
A4
100.00
Single
-2
1200 2
2 1 2 1 -1 -1 0 0 -1 3.000 0 0 -1 0 0 2
	 675 360 675 3240
2 1 2 1 -1 -1 0 0 -1 3.000 0 0 -1 0 0 2
	 2475 360 2475 3285
2 1 0 1 -1 -1 0 0 -1 0.000 0 0 -1 1 0 2
	0 0 1.00 60.00 120.00
	 450 405 450 3330
2 1 0 1 -1 -1 0 0 -1 0.000 0 0 -1 1 0 2
	0 0 1.00 45.00 90.00
	 2490 945 690 1035
2 1 0 1 -1 -1 0 0 -1 0.000 0 0 -1 1 0 2
	0 0 1.00 45.00 90.00
	 2490 1440 690 1530
2 1 0 1 -1 -1 0 0 -1 0.000 0 0 -1 1 0 2
	0 0 1.00 45.00 90.00
	 675 1245 2475 1335
2 1 0 1 -1 -1 0 0 -1 0.000 0 0 -1 1 0 2
	0 0 1.00 45.00 90.00
	 2490 1935 690 2025
2 1 0 1 -1 -1 0 0 -1 0.000 0 0 -1 1 0 2
	0 0 1.00 45.00 90.00
	 675 1740 2475 1830
2 1 0 1 -1 -1 0 0 -1 0.000 0 0 -1 1 0 2
	0 0 1.00 45.00 90.00
	 2490 2835 690 2925
2 1 0 1 -1 -1 0 0 -1 0.000 0 0 -1 1 0 2
	0 0 1.00 45.00 90.00
	 675 2640 2475 2730
2 1 0 1 -1 -1 0 0 -1 0.000 0 0 -1 1 0 2
	0 0 1.00 45.00 90.00
	 675 750 2475 840
4 0 -1 0 0 16 8 0.0000 4 105 360 585 180 Client\001
4 0 -1 0 0 16 6 0.0000 4 105 360 585 315 port = ?\001
4 2 -1 0 0 16 8 0.0000 4 105 480 2520 180 Serveur\001
4 2 -1 0 0 16 6 0.0000 4 90 420 2520 315 port = 69\001
4 1 -1 0 -1 17 6 0.0000 4 105 1485 1575 540 (pas d'ouverture de connexion)\001
4 1 -1 0 -1 17 6 0.0000 4 105 270 1575 3195 (fini !)\001
4 2 -1 0 -1 16 6 0.0000 4 105 1140 2430 1080 data bloc 1 (512 octets)\001
4 2 -1 0 -1 16 6 0.0000 4 105 1140 2430 1575 data bloc 2 (512 octets)\001
4 2 -1 0 -1 16 6 0.0000 4 105 1140 2430 2070 data bloc 3 (512 octets)\001
4 2 -1 0 -1 16 6 0.0000 4 105 1380 2430 2970 data bloc 124 (0..511 octets)\001
4 0 -1 0 0 16 6 0.0000 4 90 420 765 720 read toto\001
4 0 -1 0 0 16 6 0.0000 4 90 270 765 1215 ack 1\001
4 0 -1 0 0 16 6 0.0000 4 90 270 765 1710 ack 2\001
4 0 -1 0 0 16 6 0.0000 4 90 390 765 2610 ack 123\001
