#FIG 3.2  Produced by xfig version 3.2.7a
#encoding: UTF-8
Landscape
Center
Metric
A4
100.00
Single
-2
1200 2
6 2250 990 3600 2070
2 4 0 1 0 13 51 -1 37 0.000 0 0 7 0 0 5
	 3600 2070 3600 990 2250 990 2250 2070 3600 2070
2 1 0 1 0 13 50 -1 -1 0.000 0 0 -1 0 0 2
	 2475 1395 3375 1395
2 1 0 1 0 13 50 -1 -1 0.000 0 0 -1 0 0 2
	 2475 1530 3375 1530
2 1 0 1 0 13 50 -1 -1 0.000 0 0 -1 0 0 2
	 2475 1665 3375 1665
2 2 0 1 0 13 50 -1 -1 0.000 0 0 -1 0 0 5
	 2475 1260 3375 1260 3375 1935 2475 1935 2475 1260
4 1 0 50 -1 17 8 0.0000 4 120 660 2925 1170 arguments\001
4 2 0 50 -1 16 6 0.0000 4 75 60 2430 1350 0\001
4 2 0 50 -1 16 6 0.0000 4 75 60 2430 1485 1\001
4 2 0 50 -1 16 6 0.0000 4 75 60 2430 1620 2\001
4 0 0 50 -1 16 6 0.0000 4 90 60 2520 1485 -l\001
4 0 0 50 -1 16 6 0.0000 4 90 90 2520 1350 ls\001
4 0 0 50 -1 16 6 0.0000 4 75 180 2520 1620 toto\001
4 0 0 50 -1 16 6 0.0000 4 15 150 2520 1755 . . .\001
-6
6 3735 990 5130 2070
2 4 0 1 0 13 51 -1 37 0.000 0 0 7 0 0 5
	 5130 2070 5130 990 3780 990 3780 2070 5130 2070
2 1 0 1 0 13 50 -1 -1 0.000 0 0 -1 0 0 2
	 4185 1395 4905 1395
2 1 0 1 0 13 50 -1 -1 0.000 0 0 -1 0 0 2
	 4185 1530 4905 1530
2 1 0 1 0 13 50 -1 -1 0.000 0 0 -1 0 0 2
	 4185 1665 4905 1665
2 2 0 1 0 13 50 -1 -1 0.000 0 0 -1 0 0 5
	 4185 1260 4905 1260 4905 1935 4185 1935 4185 1260
4 1 0 50 -1 17 8 0.0000 4 105 1305 4455 1170 var. d'environnement\001
4 0 0 50 -1 16 6 0.0000 4 105 510 4230 1350 /home/pda\001
4 0 0 50 -1 16 6 0.0000 4 90 690 4230 1485 /bin:/usr/bin:...\001
4 0 0 50 -1 16 6 0.0000 4 90 180 4230 1620 vim\001
4 0 0 50 -1 16 6 0.0000 4 15 150 4230 1755 . . .\001
4 2 0 50 -1 16 6 0.0000 4 90 405 4140 1620 EDITOR\001
4 2 0 50 -1 16 6 0.0000 4 90 285 4140 1485 PATH\001
4 2 0 50 -1 16 6 0.0000 4 90 330 4140 1350 HOME\001
-6
6 2250 2250 3600 3330
2 4 0 1 0 13 51 -1 37 0.000 0 0 7 0 0 5
	 3600 3330 3600 2250 2250 2250 2250 3330 3600 3330
2 1 0 1 0 13 50 -1 -1 0.000 0 0 -1 0 0 2
	 2475 2655 3375 2655
2 1 0 1 0 13 50 -1 -1 0.000 0 0 -1 0 0 2
	 2475 2790 3375 2790
2 1 0 1 0 13 50 -1 -1 0.000 0 0 -1 0 0 2
	 2475 2925 3375 2925
2 2 0 1 0 13 50 -1 -1 0.000 0 0 -1 0 0 5
	 2475 2520 3375 2520 3375 3195 2475 3195 2475 2520
4 1 0 50 -1 17 8 0.0000 4 105 1350 2925 2430 ouvertures de fichiers\001
4 2 0 50 -1 16 6 0.0000 4 75 60 2430 2610 0\001
4 2 0 50 -1 16 6 0.0000 4 75 60 2430 2745 1\001
4 2 0 50 -1 16 6 0.0000 4 75 60 2430 2880 2\001
4 0 0 50 -1 16 6 0.0000 4 105 420 2520 2745 /tmp/toto\001
4 0 0 50 -1 16 6 0.0000 4 120 360 2520 2610 /dev/tty\001
4 0 0 50 -1 16 6 0.0000 4 120 360 2520 2880 /dev/tty\001
4 0 0 50 -1 16 6 0.0000 4 15 150 2520 3015 . . .\001
-6
6 3780 3510 5130 4590
2 4 0 1 0 13 51 -1 37 0.000 0 0 7 0 0 5
	 5130 4590 5130 3510 3780 3510 3780 4590 5130 4590
4 1 0 50 -1 17 8 0.0000 4 105 945 4455 3690 autres attributs\001
4 1 0 50 -1 16 6 0.0000 4 90 150 4455 3915 uid\001
4 1 0 50 -1 16 6 0.0000 4 105 390 4005 4185 signaux\001
4 1 0 50 -1 16 6 0.0000 4 90 390 4770 3870 terminal\001
4 1 0 50 -1 16 6 0.0000 4 75 240 4725 4500 stats\001
4 1 0 50 -1 16 6 0.0000 4 105 90 4725 4140 exécutable\001
4 1 0 50 -1 16 6 0.0000 4 75 180 4815 4320 etat\001
4 1 0 50 -1 16 6 0.0000 4 105 150 4095 3825 pid\001
4 1 0 50 -1 16 6 0.0000 4 105 15 4140 4005 répertoire\001
4 1 0 50 -1 16 6 0.0000 4 105 150 4725 4005 gid\001
4 1 0 50 -1 16 6 0.0000 4 105 210 4275 4545 ppid\001
4 1 0 50 -1 16 6 0.0000 4 90 510 4140 4410 temps-cpu\001
4 1 0 50 -1 16 6 0.0000 4 105 195 4455 4275 priorité\001
-6
6 3780 2250 5130 3330
2 4 0 1 0 13 51 -1 37 0.000 0 0 7 0 0 5
	 5130 3330 5130 2250 3780 2250 3780 3330 5130 3330
4 1 0 50 -1 17 8 0.0000 4 135 105 4455 2430 mémoire\001
4 1 0 50 -1 16 6 0.0000 4 105 270 4455 2655 code exécutable\001
4 1 0 50 -1 16 6 0.0000 4 105 165 4455 2880 données\001
4 1 0 50 -1 16 6 0.0000 4 105 285 4455 3105 pile d'exécution\001
-6
6 2250 3510 3600 4590
2 4 0 1 0 13 51 -1 37 0.000 0 0 7 0 0 5
	 3600 4590 3600 3510 2250 3510 2250 4590 3600 4590
4 1 0 50 -1 17 8 0.0000 4 135 675 2925 3690 contexte matériel\001
4 1 0 50 -1 16 6 0.0000 4 105 720 2925 3915 sauvegarde du\001
4 1 0 50 -1 16 6 0.0000 4 105 435 2925 4050 contexte matériel\001
4 1 0 50 -1 16 6 0.0000 4 105 735 2925 4185 (registres CPU,\001
4 1 0 50 -1 16 6 0.0000 4 105 1065 2925 4320 traduction d'adresses,\001
4 1 0 50 -1 16 6 0.0000 4 105 210 2925 4455 etc.)\001
-6
2 2 0 1 0 0 53 -1 20 0.000 0 0 -1 0 0 5
	 2205 855 5355 855 5355 4815 2205 4815 2205 855
2 2 0 1 0 31 52 -1 36 0.000 0 0 -1 0 0 5
	 2070 810 5310 810 5310 4770 2070 4770 2070 810
