#FIG 3.2  Produced by xfig version 3.2.5c
#encoding: UTF-8
Landscape
Center
Metric
A4      
100.00
Single
-2
1200 2
2 2 0 1 0 13 51 -1 36 0.000 0 0 -1 0 0 5
	 900 1350 2160 1350 2160 2610 900 2610 900 1350
2 1 0 1 0 7 50 -1 -1 0.000 0 0 -1 0 0 2
	 1260 1350 1260 2610
2 1 0 1 0 7 50 -1 -1 0.000 0 0 -1 0 0 2
	 900 1530 2160 1530
2 1 0 1 0 7 50 -1 -1 0.000 0 0 -1 0 0 2
	 900 1710 2160 1710
2 1 0 1 0 7 50 -1 -1 0.000 0 0 -1 0 0 2
	 900 1890 2160 1890
2 1 0 1 0 7 50 -1 -1 0.000 0 0 -1 0 0 2
	 900 2070 2160 2070
2 1 0 1 0 7 50 -1 -1 0.000 0 0 -1 0 0 2
	 900 2250 2160 2250
2 1 2 1 0 7 50 -1 -1 2.000 0 0 -1 0 0 2
	 1710 2295 1710 2565
2 1 2 1 0 7 50 -1 -1 2.000 0 0 -1 0 0 2
	 1080 2295 1080 2565
2 2 0 1 0 0 52 -1 20 0.000 0 0 -1 0 0 5
	 945 1395 2205 1395 2205 2655 945 2655 945 1395
2 2 0 1 0 13 51 -1 36 0.000 0 0 -1 0 0 5
	 900 270 4500 270 4500 450 900 450 900 270
2 1 0 1 0 7 50 -1 -1 0.000 0 0 -1 0 0 2
	 1800 270 1800 450
2 1 0 1 0 7 50 -1 -1 0.000 0 0 -1 0 0 2
	 2700 270 2700 450
2 1 0 1 0 7 50 -1 -1 0.000 0 0 -1 0 0 2
	 3600 270 3600 450
2 1 2 1 0 7 50 -1 -1 2.000 0 0 -1 0 0 2
	 3690 360 4410 360
2 1 0 1 0 7 50 -1 -1 0.000 0 0 -1 0 0 7
	 945 540 990 585 1305 585 1350 630 1395 585 1710 585
	 1755 540
2 1 0 1 0 7 50 -1 -1 0.000 0 0 -1 0 0 7
	 1845 540 1890 585 2205 585 2250 630 2295 585 2610 585
	 2655 540
2 1 0 1 0 7 50 -1 -1 0.000 0 0 -1 0 0 7
	 2745 540 2790 585 3105 585 3150 630 3195 585 3510 585
	 3555 540
2 2 0 1 0 0 52 -1 20 0.000 0 0 -1 0 0 5
	 945 315 4545 315 4545 495 945 495 945 315
3 0 0 1 19 7 50 -1 -1 0.000 0 1 0 6
	1 1 1.00 60.00 120.00
	 1350 630 1350 810 2385 900 2610 1260 2475 1440 2250 1440
	 0.000 1.000 1.000 1.000 1.000 0.000
3 0 0 1 19 7 50 -1 -1 0.000 0 1 0 6
	1 1 1.00 60.00 120.00
	 2250 630 2250 810 2655 855 2835 1260 2610 1620 2250 1620
	 0.000 1.000 1.000 1.000 1.000 0.000
3 0 0 1 19 7 50 -1 -1 0.000 0 1 0 5
	1 1 1.00 60.00 120.00
	 3150 630 3150 810 3195 1305 2700 1800 2250 1800
	 0.000 1.000 1.000 1.000 0.000
4 1 0 50 -1 16 8 0.0000 4 90 225 1080 1485 123\001
4 1 0 50 -1 16 8 0.0000 4 90 225 1080 1665 345\001
4 1 0 50 -1 16 8 0.0000 4 90 225 1080 1845 567\001
4 1 0 50 -1 16 8 0.0000 4 90 225 1080 2025 789\001
4 1 0 50 -1 16 8 0.0000 4 90 225 1080 2205 901\001
4 0 0 50 -1 16 8 0.0000 4 90 240 1350 1845 toto\001
4 0 0 50 -1 16 8 0.0000 4 105 150 1350 2025 titi\001
4 0 0 50 -1 16 8 0.0000 4 90 240 1350 2205 tata\001
4 1 0 50 -1 16 8 0.0000 4 90 75 1080 2790 2\001
4 1 0 50 -1 16 8 0.0000 4 90 150 1710 2790 14\001
4 0 0 50 -1 16 8 0.0000 4 15 45 1350 1485 .\001
4 0 0 50 -1 16 8 0.0000 4 15 90 1350 1665 ..\001
4 1 0 50 -1 16 8 0.0000 4 90 150 1350 225 16\001
4 1 0 50 -1 16 8 0.0000 4 90 150 2250 225 16\001
4 1 0 50 -1 16 8 0.0000 4 90 150 3150 225 16\001
4 2 0 50 -1 17 6 0.0000 4 75 1035 4500 225 suite linéaire d'octets\001
4 1 0 50 -1 16 8 0.0000 4 105 465 1080 1305 numéro\001
4 1 0 50 -1 16 8 0.0000 4 75 270 1710 1305 nom\001
