#FIG 3.2  Produced by xfig version 3.2.7a
#encoding: UTF-8
Portrait
Center
Metric
A4
100.00
Single
-2
1200 2
0 32 #c6b797
0 33 #eff8ff
0 34 #dccba6
0 35 #404040
0 36 #808080
0 37 #c0c0c0
0 38 #e0e0e0
0 39 #8e8f8e
0 40 #aaaaaa
0 41 #555555
0 42 #bebebe
0 43 #515151
0 44 #e7e3e7
0 45 #000049
0 46 #797979
0 47 #303430
0 48 #414141
0 49 #c7b696
0 50 #8e8e8e
0 51 #414541
0 52 #8e8e8e
0 53 #cccccc
0 54 #868286
0 55 #c7c3c7
0 56 #444444
0 57 #868686
0 58 #c7c7c7
0 59 #e7e7e7
0 60 #f7f7f7
0 61 #9e9e9e
0 62 #717571
0 63 #effbff
0 64 #666666
0 65 #909090
0 66 #e6e4ce
0 67 #9b9b9b
0 68 #ce9100
0 69 #f762aa
0 70 #7070ff
0 71 #5f5f5f
0 72 #e2e2ee
0 73 #94949a
0 74 #dbdbdb
0 75 #a1a1b7
0 76 #9c0000
0 77 #000000
0 78 #ffffff
0 79 #dd9d93
0 80 #f1ece0
0 81 #c3c3c3
0 82 #e2c8a8
0 83 #e1e1e1
0 84 #d2d2d2
0 85 #ededed
0 86 #da7a1a
0 87 #f1e41a
0 88 #887dc2
0 89 #d6d6d6
0 90 #8c8ca5
0 91 #4a4a4a
0 92 #5a5a5a
0 93 #636363
0 94 #b79b73
0 95 #4193ff
0 96 #bf703b
0 97 #db7700
0 98 #dab800
0 99 #006400
0 100 #5a6b3b
0 101 #d3d3d3
0 102 #8e8ea4
0 103 #f3b95d
0 104 #89996b
0 105 #646464
0 106 #b7e6ff
0 107 #86c0ec
0 108 #bdbdbd
0 109 #d39552
0 110 #98d2fe
0 111 #8c6b6b
0 112 #8c9c6b
0 113 #f76b00
0 114 #5a6b39
0 115 #8c9c6b
0 116 #8c9c7b
0 117 #184a18
0 118 #adadad
0 119 #f7bd5a
0 120 #636b9c
0 121 #de0000
0 122 #adadad
0 123 #f3eed3
0 124 #f5ae5d
0 125 #95ce99
0 126 #b5157d
0 127 #eeeeee
0 128 #848484
0 129 #7b7b7b
0 130 #005a00
0 131 #e77373
0 132 #ffcb31
0 133 #29794a
0 134 #de2821
0 135 #2159c6
0 136 #f8f8f8
0 137 #e6e6e6
0 138 #a5b5c6
0 139 #6b6b94
0 140 #846b6b
0 141 #529c4a
0 142 #d6e7e7
0 143 #526363
0 144 #186b4a
0 145 #21845a
0 146 #dedede
0 147 #526b29
0 148 #949494
0 149 #006300
0 150 #9ca5b5
0 151 #ff9400
0 152 #ff9400
0 153 #00634a
0 154 #7b844a
0 155 #63737b
0 156 #e7bd7b
0 157 #86acff
0 158 #fff2d3
0 159 #ffe4ae
0 160 #ffd279
0 161 #cfcfcf
0 162 #999999
0 163 #b2b2b2
# An icon for a file, a disk or a SGBD
# drawn by P. David
6 3150 1980 4050 2520
1 1 0 1 0 21 51 0 36 0.000 1 1.5708 3959 2250 269 90 3959 2250 4228 2250
1 1 0 1 0 21 49 0 36 0.000 1 1.5708 3240 2250 269 90 3240 2250 3509 2250
2 1 0 1 0 7 49 0 -1 0.000 0 0 -1 0 0 2
	 3241 1980 3960 1980
2 1 0 1 0 7 49 0 -1 0.000 0 0 -1 0 0 2
	 3241 2520 3960 2520
2 2 0 0 7 21 50 0 36 0.000 0 0 -1 0 0 5
	 3240 2520 3240 1980 3960 1980 3960 2520 3240 2520
2 1 0 3 0 21 49 -1 36 0.000 0 0 -1 1 0 2
	1 1 1.00 90.00 120.00
	 3555 2250 3870 2250
-6
6 1170 720 3375 1845
6 2025 1305 2475 1530
4 1 0 49 -1 16 7 0.0000 4 90 285 2250 1395 sortie\001
4 1 0 49 -1 16 7 0.0000 4 90 435 2250 1530 standard\001
-6
6 1485 1440 1935 1665
4 2 0 49 -1 16 7 0.0000 4 90 435 1935 1665 standard\001
4 2 0 49 -1 16 7 0.0000 4 120 150 1935 1530 entrée\001
-6
6 2565 1440 3285 1665
4 0 0 49 -1 16 7 0.0000 4 90 435 2565 1665 standard\001
4 0 0 49 -1 16 7 0.0000 4 90 720 2565 1530 sortie d'erreur\001
-6
2 2 0 1 0 7 49 -1 -1 0.000 0 0 -1 0 0 5
	 1845 1710 2115 1710 2115 1800 1845 1800 1845 1710
2 2 0 1 0 7 49 -1 -1 0.000 0 0 -1 0 0 5
	 2385 1710 2655 1710 2655 1800 2385 1800 2385 1710
2 2 0 1 0 7 49 -1 -1 0.000 0 0 -1 0 0 5
	 2115 1710 2385 1710 2385 1800 2115 1800 2115 1710
2 2 0 1 0 31 51 -1 34 0.000 0 0 -1 0 0 5
	 1170 720 3330 720 3330 1800 1170 1800 1170 720
2 2 0 1 0 0 52 -1 20 0.000 0 0 -1 0 0 5
	 1215 765 3375 765 3375 1845 1215 1845 1215 765
4 1 25 49 -1 16 7 0.0000 4 90 60 2520 1665 2\001
4 1 25 49 -1 16 7 0.0000 4 90 60 2250 1665 1\001
4 1 25 49 -1 16 7 0.0000 4 90 60 1980 1665 0\001
4 1 1 40 -1 16 10 0.0000 4 120 405 2250 900 cmd1\001
-6
6 3870 720 6075 1845
6 4725 1305 5175 1530
4 1 0 49 -1 16 7 0.0000 4 90 285 4950 1395 sortie\001
4 1 0 49 -1 16 7 0.0000 4 90 435 4950 1530 standard\001
-6
6 4185 1440 4635 1665
4 2 0 49 -1 16 7 0.0000 4 90 435 4635 1665 standard\001
4 2 0 49 -1 16 7 0.0000 4 120 150 4635 1530 entrée\001
-6
6 5265 1440 5985 1665
4 0 0 49 -1 16 7 0.0000 4 90 435 5265 1665 standard\001
4 0 0 49 -1 16 7 0.0000 4 90 720 5265 1530 sortie d'erreur\001
-6
2 2 0 1 0 7 49 -1 -1 0.000 0 0 -1 0 0 5
	 4545 1710 4815 1710 4815 1800 4545 1800 4545 1710
2 2 0 1 0 7 49 -1 -1 0.000 0 0 -1 0 0 5
	 5085 1710 5355 1710 5355 1800 5085 1800 5085 1710
2 2 0 1 0 7 49 -1 -1 0.000 0 0 -1 0 0 5
	 4815 1710 5085 1710 5085 1800 4815 1800 4815 1710
2 2 0 1 0 31 51 -1 34 0.000 0 0 -1 0 0 5
	 3870 720 6030 720 6030 1800 3870 1800 3870 720
2 2 0 1 0 0 52 -1 20 0.000 0 0 -1 0 0 5
	 3915 765 6075 765 6075 1845 3915 1845 3915 765
4 1 25 49 -1 16 7 0.0000 4 90 60 5220 1665 2\001
4 1 25 49 -1 16 7 0.0000 4 90 60 4950 1665 1\001
4 1 25 49 -1 16 7 0.0000 4 90 60 4680 1665 0\001
4 1 1 40 -1 16 10 0.0000 4 120 405 4950 900 cmd2\001
-6
# A laptop
# drawn by P. David
6 2880 2880 4280 3780
2 2 0 0 0 7 60 -1 16 0.000 0 0 -1 0 0 5
	 3030 2930 4130 2930 4130 3563 3030 3563 3030 2930
2 3 0 0 0 7 60 -1 2 0.000 1 0 -1 0 0 5
	 3030 3630 2963 3697 4197 3697 4130 3630 3030 3630
2 3 0 0 0 7 61 -1 6 0.000 1 0 -1 0 0 5
	 3013 3613 4147 3613 4280 3747 2880 3747 3013 3613
2 2 0 0 0 7 60 -1 3 0.000 0 0 -1 0 0 5
	 2880 3747 4280 3747 4280 3763 2880 3763 2880 3747
2 3 0 0 0 7 60 -1 3 0.000 1 0 -1 0 0 5
	 2880 3763 2930 3780 4230 3780 4280 3763 2880 3763
2 3 0 0 0 7 60 -1 10 0.000 0 0 -1 0 0 5
	 3450 3701 3626 3701 3639 3739 3424 3739 3450 3701
2 4 0 0 0 7 61 -1 3 0.000 0 0 1 0 0 5
	 4163 3613 2997 3613 2997 2880 4163 2880 4163 3613
-6
6 2115 2280 2355 2520
2 1 0 5 4 7 31 -1 -1 0.000 0 0 -1 0 0 2
	 2145 2310 2325 2490
2 1 0 5 4 7 31 -1 -1 0.000 0 0 -1 0 0 2
	 2325 2310 2145 2490
-6
6 4545 2250 4815 2520
2 1 0 5 4 7 36 -1 -1 0.000 0 0 -1 0 0 2
	 4590 2295 4770 2475
2 1 0 5 4 7 36 -1 -1 0.000 0 0 -1 0 0 2
	 4770 2295 4590 2475
-6
3 0 0 2 13 7 48 -1 -1 0.000 0 1 0 2
	1 1 1.00 60.00 120.00
	 2520 1755 2520 1980
	 0.000 0.000
3 0 0 2 13 7 48 -1 -1 0.000 0 1 0 2
	1 1 1.00 60.00 120.00
	 5220 1755 5220 1980
	 0.000 0.000
3 0 0 2 9 7 48 -1 -1 0.000 0 1 0 4
	1 1 1.00 60.00 120.00
	 2250 1755 2295 2070 2430 2250 3285 2250
	 0.000 1.000 1.000 0.000
3 0 0 2 13 7 48 -1 -1 0.000 0 1 0 8
	1 1 1.00 60.00 120.00
	 4950 1755 4950 2610 4950 2790 4680 2790 3780 2790 3555 2790
	 3555 2970 3555 3195
	 0.000 1.000 1.000 1.000 1.000 1.000 1.000 0.000
3 0 0 2 13 7 48 -1 -1 0.000 0 1 0 8
	1 1 1.00 60.00 120.00
	 2250 1755 2250 2520 2295 2790 2610 2790 3285 2790 3555 2790
	 3555 2970 3555 3195
	 0.000 1.000 1.000 1.000 1.000 1.000 1.000 0.000
3 0 0 2 13 7 48 -1 -1 0.000 0 1 0 6
	1 1 1.00 60.00 120.00
	 3150 3645 2700 3645 2520 3645 2160 3510 1980 2790 1980 1755
	 0.000 1.000 1.000 1.000 1.000 0.000
3 0 0 2 13 7 48 -1 -1 0.000 0 1 0 11
	1 1 1.00 60.00 120.00
	 3150 3645 2700 3645 2520 3645 2520 3375 2520 2925 2520 2655
	 2745 2655 4410 2655 4680 2655 4680 2475 4680 1755
	 0.000 1.000 1.000 1.000 1.000 1.000 1.000 1.000
	 1.000 1.000 0.000
3 0 0 2 9 7 47 -1 -1 0.000 0 1 0 4
	1 1 1.00 60.00 120.00
	 4050 2250 4365 2250 4590 2250 4680 1755
	 0.000 1.000 1.000 0.000
