#FIG 3.2  Produced by xfig version 3.2.7b
#encoding: UTF-8
Landscape
Center
Metric
A4
100.00
Single
-2
1200 2
0 32 #c6b797
0 33 #eff8ff
0 34 #dccba6
0 35 #404040
0 36 #808080
0 37 #c0c0c0
0 38 #e0e0e0
0 39 #8e8f8e
0 40 #aaaaaa
0 41 #555555
0 42 #bebebe
0 43 #515151
0 44 #e7e3e7
0 45 #000049
0 46 #797979
0 47 #303430
0 48 #414141
0 49 #c7b696
0 50 #8e8e8e
0 51 #414541
0 52 #8e8e8e
0 53 #cccccc
0 54 #868286
0 55 #c7c3c7
0 56 #444444
0 57 #868686
0 58 #c7c7c7
0 59 #e7e7e7
0 60 #f7f7f7
0 61 #9e9e9e
0 62 #717571
0 63 #effbff
0 64 #666666
0 65 #909090
0 66 #e6e4ce
0 67 #9b9b9b
0 68 #ce9100
0 69 #f762aa
0 70 #7070ff
0 71 #5f5f5f
0 72 #e2e2ee
0 73 #94949a
0 74 #dbdbdb
0 75 #a1a1b7
0 76 #9c0000
0 77 #000000
0 78 #ffffff
0 79 #dd9d93
0 80 #f1ece0
0 81 #c3c3c3
0 82 #e2c8a8
0 83 #e1e1e1
0 84 #d2d2d2
0 85 #ededed
0 86 #da7a1a
0 87 #f1e41a
0 88 #887dc2
0 89 #d6d6d6
0 90 #8c8ca5
0 91 #4a4a4a
0 92 #5a5a5a
0 93 #636363
0 94 #b79b73
0 95 #4193ff
0 96 #bf703b
0 97 #db7700
0 98 #dab800
0 99 #006400
0 100 #5a6b3b
0 101 #d3d3d3
0 102 #8e8ea4
0 103 #f3b95d
0 104 #89996b
0 105 #646464
0 106 #b7e6ff
0 107 #86c0ec
0 108 #bdbdbd
0 109 #d39552
0 110 #98d2fe
0 111 #8c6b6b
0 112 #8c9c6b
0 113 #f76b00
0 114 #5a6b39
0 115 #8c9c6b
0 116 #8c9c7b
0 117 #184a18
0 118 #adadad
0 119 #f7bd5a
0 120 #636b9c
0 121 #de0000
0 122 #adadad
0 123 #f3eed3
0 124 #f5ae5d
0 125 #95ce99
0 126 #b5157d
0 127 #eeeeee
0 128 #848484
0 129 #7b7b7b
0 130 #005a00
0 131 #e77373
0 132 #ffcb31
0 133 #29794a
0 134 #de2821
0 135 #2159c6
0 136 #f8f8f8
0 137 #e6e6e6
0 138 #a5b5c6
0 139 #6b6b94
0 140 #846b6b
0 141 #529c4a
0 142 #d6e7e7
0 143 #526363
0 144 #186b4a
0 145 #21845a
0 146 #dedede
0 147 #526b29
0 148 #949494
0 149 #006300
0 150 #9ca5b5
0 151 #ff9400
0 152 #ff9400
0 153 #00634a
0 154 #7b844a
0 155 #63737b
0 156 #e7bd7b
0 157 #a0a0a0
# Biker
# drawn by P. David
6 2655 448 3096 855
1 1 0 1 1 1 30 -1 20 0.000 1 0.0000 2933 486 37 38 2933 486 2970 486
1 1 0 0 0 7 30 -1 20 0.000 1 0.0000 2737 771 67 68 2737 771 2805 773
1 1 0 1 1 1 31 -1 20 0.000 1 0.0000 2737 771 82 83 2737 771 2821 772
1 1 0 1 1 1 31 -1 20 0.000 1 0.0000 3014 772 82 83 3014 772 3097 772
1 1 0 0 0 7 30 -1 20 0.000 1 0.0000 3014 772 67 68 3014 772 3083 772
3 1 0 1 1 1 30 -1 20 0.000 0 0 0 57
	 2868 742 2843 801 2841 808 2841 813 2845 819 2850 824
	 2856 825 2864 825 2874 818 2878 809 2918 718 2920 708
	 2921 702 2919 695 2910 689 2904 684 2852 656 2844 651
	 2850 642 2892 587 2899 579 2904 587 2923 628 2929 636
	 2934 639 2946 641 3008 641 3012 639 3020 638 3024 632
	 3027 624 3025 615 3018 608 3011 604 3004 604 2959 605
	 2952 605 2946 595 2919 539 2915 532 2911 528 2897 521
	 2884 521 2873 524 2870 531 2862 539 2793 632 2790 641
	 2790 650 2792 658 2795 664 2803 671 2813 676 2875 709
	 2880 713 2877 719 2872 731
	 1.000 1.000 1.000 1.000 1.000 1.000 1.000 1.000
	 1.000 1.000 1.000 1.000 1.000 1.000 1.000 1.000
	 1.000 1.000 1.000 1.000 1.000 1.000 1.000 1.000
	 1.000 1.000 1.000 1.000 1.000 1.000 1.000 1.000
	 1.000 1.000 1.000 1.000 1.000 1.000 1.000 1.000
	 1.000 1.000 1.000 1.000 1.000 1.000 1.000 1.000
	 1.000 1.000 1.000 1.000 1.000 1.000 1.000 1.000
	 1.000
-6
# Biker
# drawn by P. David
6 3555 2610 3975 2985
1 1 0 1 15 15 40 -1 20 0.000 1 5.9341 3923 2626 37 38 3923 2626 3958 2639
1 1 0 1 15 15 41 -1 20 0.000 1 5.9341 3901 2923 82 83 3901 2923 3979 2951
1 1 0 1 15 15 41 -1 20 0.000 1 5.9341 3641 2827 82 83 3641 2827 3720 2857
1 1 0 0 0 7 40 -1 20 0.000 1 5.9341 3641 2827 67 68 3641 2827 3705 2852
1 1 0 0 0 7 40 -1 20 0.000 1 5.9341 3901 2923 67 68 3901 2923 3966 2946
3 1 0 1 15 15 40 -1 20 0.000 0 0 0 57
	 3774 2844 3731 2891 3726 2897 3725 2902 3726 2909 3729 2915
	 3735 2918 3742 2921 3754 2918 3761 2911 3830 2839 3835 2830
	 3838 2825 3838 2818 3832 2809 3828 2802 3789 2758 3783 2751
	 3792 2744 3850 2707 3859 2702 3861 2711 3865 2756 3868 2766
	 3872 2770 3882 2776 3940 2797 3945 2797 3953 2799 3959 2794
	 3964 2788 3965 2779 3961 2770 3956 2764 3949 2761 3907 2747
	 3900 2744 3898 2733 3892 2671 3890 2663 3888 2658 3877 2647
	 3865 2642 3854 2641 3848 2647 3838 2652 3742 2715 3736 2723
	 3733 2731 3732 2740 3732 2746 3738 2756 3745 2764 3792 2816
	 3796 2821 3791 2826 3782 2835
	 1.000 1.000 1.000 1.000 1.000 1.000 1.000 1.000
	 1.000 1.000 1.000 1.000 1.000 1.000 1.000 1.000
	 1.000 1.000 1.000 1.000 1.000 1.000 1.000 1.000
	 1.000 1.000 1.000 1.000 1.000 1.000 1.000 1.000
	 1.000 1.000 1.000 1.000 1.000 1.000 1.000 1.000
	 1.000 1.000 1.000 1.000 1.000 1.000 1.000 1.000
	 1.000 1.000 1.000 1.000 1.000 1.000 1.000 1.000
	 1.000
-6
# Biker
# drawn by P. David
6 4455 2940 4875 3315
1 1 0 0 0 7 30 -1 20 0.000 1 5.9341 4801 3253 67 68 4801 3253 4866 3276
1 1 0 0 0 7 30 -1 20 0.000 1 5.9341 4541 3157 67 68 4541 3157 4605 3182
1 1 0 1 1 1 30 -1 20 0.000 1 5.9341 4823 2956 37 38 4823 2956 4858 2969
1 1 0 1 1 1 31 -1 20 0.000 1 5.9341 4541 3157 82 83 4541 3157 4620 3187
1 1 0 1 1 1 31 -1 20 0.000 1 5.9341 4801 3253 82 83 4801 3253 4879 3281
3 1 0 1 1 1 30 -1 20 0.000 0 0 0 57
	 4674 3174 4631 3221 4626 3227 4625 3232 4626 3239 4629 3245
	 4635 3248 4642 3251 4654 3248 4661 3241 4730 3169 4735 3160
	 4738 3155 4738 3148 4732 3139 4728 3132 4689 3088 4683 3081
	 4692 3074 4750 3037 4759 3032 4761 3041 4765 3086 4768 3096
	 4772 3100 4782 3106 4840 3127 4845 3127 4853 3129 4859 3124
	 4864 3118 4865 3109 4861 3100 4856 3094 4849 3091 4807 3077
	 4800 3074 4798 3063 4792 3001 4790 2993 4788 2988 4777 2977
	 4765 2972 4754 2971 4748 2977 4738 2982 4642 3045 4636 3053
	 4633 3061 4632 3070 4632 3076 4638 3086 4645 3094 4692 3146
	 4696 3151 4691 3156 4682 3165
	 1.000 1.000 1.000 1.000 1.000 1.000 1.000 1.000
	 1.000 1.000 1.000 1.000 1.000 1.000 1.000 1.000
	 1.000 1.000 1.000 1.000 1.000 1.000 1.000 1.000
	 1.000 1.000 1.000 1.000 1.000 1.000 1.000 1.000
	 1.000 1.000 1.000 1.000 1.000 1.000 1.000 1.000
	 1.000 1.000 1.000 1.000 1.000 1.000 1.000 1.000
	 1.000 1.000 1.000 1.000 1.000 1.000 1.000 1.000
	 1.000
-6
# Biker
# drawn by P. David
6 4005 2775 4425 3150
1 1 0 0 0 7 35 -1 20 0.000 1 5.9341 4351 3088 67 68 4351 3088 4416 3111
1 1 0 0 0 7 35 -1 20 0.000 1 5.9341 4091 2992 67 68 4091 2992 4155 3017
1 1 0 1 24 24 36 -1 20 0.000 1 5.9341 4351 3088 82 83 4351 3088 4429 3116
1 1 0 1 24 24 36 -1 20 0.000 1 5.9341 4091 2992 82 83 4091 2992 4170 3022
1 1 0 1 24 24 35 -1 20 0.000 1 5.9341 4373 2791 37 38 4373 2791 4408 2804
3 1 0 1 24 24 35 -1 20 0.000 0 0 0 57
	 4224 3009 4181 3056 4176 3062 4175 3067 4176 3074 4179 3080
	 4185 3083 4192 3086 4204 3083 4211 3076 4280 3004 4285 2995
	 4288 2990 4288 2983 4282 2974 4278 2967 4239 2923 4233 2916
	 4242 2909 4300 2872 4309 2867 4311 2876 4315 2921 4318 2931
	 4322 2935 4332 2941 4390 2962 4395 2962 4403 2964 4409 2959
	 4414 2953 4415 2944 4411 2935 4406 2929 4399 2926 4357 2912
	 4350 2909 4348 2898 4342 2836 4340 2828 4338 2823 4327 2812
	 4315 2807 4304 2806 4298 2812 4288 2817 4192 2880 4186 2888
	 4183 2896 4182 2905 4182 2911 4188 2921 4195 2929 4242 2981
	 4246 2986 4241 2991 4232 3000
	 1.000 1.000 1.000 1.000 1.000 1.000 1.000 1.000
	 1.000 1.000 1.000 1.000 1.000 1.000 1.000 1.000
	 1.000 1.000 1.000 1.000 1.000 1.000 1.000 1.000
	 1.000 1.000 1.000 1.000 1.000 1.000 1.000 1.000
	 1.000 1.000 1.000 1.000 1.000 1.000 1.000 1.000
	 1.000 1.000 1.000 1.000 1.000 1.000 1.000 1.000
	 1.000 1.000 1.000 1.000 1.000 1.000 1.000 1.000
	 1.000
-6
# Biker
# drawn by P. David
6 3015 2428 3456 2835
1 1 0 1 19 19 50 -1 20 0.000 1 0.0000 3293 2466 37 38 3293 2466 3330 2466
1 1 0 1 19 19 51 -1 20 0.000 1 0.0000 3374 2752 82 83 3374 2752 3457 2752
1 1 0 1 19 19 51 -1 20 0.000 1 0.0000 3097 2751 82 83 3097 2751 3181 2752
1 1 0 0 0 7 50 -1 20 0.000 1 0.0000 3097 2751 67 68 3097 2751 3165 2753
1 1 0 0 0 7 50 -1 20 0.000 1 0.0000 3374 2752 67 68 3374 2752 3443 2752
3 1 0 1 19 19 50 -1 20 0.000 0 0 0 57
	 3228 2722 3203 2781 3201 2788 3201 2793 3205 2799 3210 2804
	 3216 2805 3224 2805 3234 2798 3238 2789 3278 2698 3280 2688
	 3281 2682 3279 2675 3270 2669 3264 2664 3212 2636 3204 2631
	 3210 2622 3252 2567 3259 2559 3264 2567 3283 2608 3289 2616
	 3294 2619 3306 2621 3368 2621 3372 2619 3380 2618 3384 2612
	 3387 2604 3385 2595 3378 2588 3371 2584 3364 2584 3319 2585
	 3312 2585 3306 2575 3279 2519 3275 2512 3271 2508 3257 2501
	 3244 2501 3233 2504 3230 2511 3222 2519 3153 2612 3150 2621
	 3150 2630 3152 2638 3155 2644 3163 2651 3173 2656 3235 2689
	 3240 2693 3237 2699 3232 2711
	 1.000 1.000 1.000 1.000 1.000 1.000 1.000 1.000
	 1.000 1.000 1.000 1.000 1.000 1.000 1.000 1.000
	 1.000 1.000 1.000 1.000 1.000 1.000 1.000 1.000
	 1.000 1.000 1.000 1.000 1.000 1.000 1.000 1.000
	 1.000 1.000 1.000 1.000 1.000 1.000 1.000 1.000
	 1.000 1.000 1.000 1.000 1.000 1.000 1.000 1.000
	 1.000 1.000 1.000 1.000 1.000 1.000 1.000 1.000
	 1.000
-6
# Biker
# drawn by P. David
6 1995 600 2430 1035
1 1 0 1 24 24 36 -1 20 0.000 1 0.3491 2350 865 82 83 2350 865 2427 837
1 1 0 1 24 24 36 -1 20 0.000 1 0.3491 2089 960 82 83 2089 960 2167 932
1 1 0 0 0 7 35 -1 20 0.000 1 0.3491 2350 865 67 68 2350 865 2413 842
1 1 0 0 0 7 35 -1 20 0.000 1 0.3491 2089 960 67 68 2089 960 2153 937
1 1 0 1 24 24 35 -1 20 0.000 1 0.3491 2175 625 37 38 2175 625 2210 612
3 1 0 1 24 24 35 -1 20 0.000 0 0 0 57
	 2201 887 2198 951 2198 959 2200 963 2206 967 2212 971
	 2218 970 2227 966 2233 957 2235 947 2240 848 2239 838
	 2237 832 2233 826 2223 822 2215 821 2158 811 2147 810
	 2150 800 2171 733 2175 724 2182 730 2214 761 2223 767
	 2229 768 2240 766 2298 744 2301 741 2308 737 2310 731
	 2310 722 2305 715 2297 710 2288 709 2282 711 2240 727
	 2233 729 2225 723 2180 679 2175 674 2168 671 2154 669
	 2141 673 2132 681 2131 688 2126 699 2093 810 2093 819
	 2096 827 2101 834 2106 838 2116 843 2128 844 2196 854
	 2203 855 2203 863 2201 876
	 1.000 1.000 1.000 1.000 1.000 1.000 1.000 1.000
	 1.000 1.000 1.000 1.000 1.000 1.000 1.000 1.000
	 1.000 1.000 1.000 1.000 1.000 1.000 1.000 1.000
	 1.000 1.000 1.000 1.000 1.000 1.000 1.000 1.000
	 1.000 1.000 1.000 1.000 1.000 1.000 1.000 1.000
	 1.000 1.000 1.000 1.000 1.000 1.000 1.000 1.000
	 1.000 1.000 1.000 1.000 1.000 1.000 1.000 1.000
	 1.000
-6
# Biker
# drawn by P. David
6 1275 870 1710 1305
1 1 0 1 15 15 40 -1 20 0.000 1 0.3491 1455 895 37 38 1455 895 1490 882
1 1 0 0 0 7 40 -1 20 0.000 1 0.3491 1630 1135 67 68 1630 1135 1693 1112
1 1 0 0 0 7 40 -1 20 0.000 1 0.3491 1369 1230 67 68 1369 1230 1433 1207
1 1 0 0 15 15 41 -1 20 0.000 1 0.3491 1630 1135 82 83 1630 1135 1707 1107
1 1 0 0 15 15 41 -1 20 0.000 1 0.3491 1369 1230 82 83 1369 1230 1447 1202
3 1 0 1 15 15 40 -1 20 0.000 0 0 0 57
	 1481 1157 1478 1221 1478 1229 1480 1233 1486 1237 1492 1241
	 1498 1240 1507 1236 1513 1227 1515 1217 1520 1118 1519 1108
	 1517 1102 1513 1096 1503 1092 1495 1091 1438 1081 1427 1080
	 1430 1070 1451 1003 1455 994 1462 1000 1494 1031 1503 1037
	 1509 1038 1520 1036 1578 1014 1581 1011 1588 1007 1590 1001
	 1590 992 1585 985 1577 980 1568 979 1562 981 1520 997
	 1513 999 1505 993 1460 949 1455 944 1448 941 1434 939
	 1421 943 1412 951 1411 958 1406 969 1373 1080 1373 1089
	 1376 1097 1381 1104 1386 1108 1396 1113 1408 1114 1476 1124
	 1483 1125 1483 1133 1481 1146
	 1.000 1.000 1.000 1.000 1.000 1.000 1.000 1.000
	 1.000 1.000 1.000 1.000 1.000 1.000 1.000 1.000
	 1.000 1.000 1.000 1.000 1.000 1.000 1.000 1.000
	 1.000 1.000 1.000 1.000 1.000 1.000 1.000 1.000
	 1.000 1.000 1.000 1.000 1.000 1.000 1.000 1.000
	 1.000 1.000 1.000 1.000 1.000 1.000 1.000 1.000
	 1.000 1.000 1.000 1.000 1.000 1.000 1.000 1.000
	 1.000
-6
# Biker
# drawn by P. David
6 555 1140 990 1575
1 1 0 1 19 19 50 -1 20 0.000 1 0.3491 735 1165 37 38 735 1165 770 1152
1 1 0 1 19 19 51 -1 20 0.000 1 0.3491 910 1405 82 83 910 1405 987 1377
1 1 0 1 19 19 51 -1 20 0.000 1 0.3491 649 1500 82 83 649 1500 727 1472
1 1 0 0 0 7 50 -1 20 0.000 1 0.3491 649 1500 67 68 649 1500 713 1477
1 1 0 0 0 7 50 -1 20 0.000 1 0.3491 910 1405 67 68 910 1405 973 1382
3 1 0 1 19 19 50 -1 20 0.000 0 0 0 57
	 761 1427 758 1491 758 1499 760 1503 766 1507 772 1511
	 778 1510 787 1506 793 1497 795 1487 800 1388 799 1378
	 797 1372 793 1366 783 1362 775 1361 718 1351 707 1350
	 710 1340 731 1273 735 1264 742 1270 774 1301 783 1307
	 789 1308 800 1306 858 1284 861 1281 868 1277 870 1271
	 870 1262 865 1255 857 1250 848 1249 842 1251 800 1267
	 793 1269 785 1263 740 1219 735 1214 728 1211 714 1209
	 701 1213 692 1221 691 1228 686 1239 653 1350 653 1359
	 656 1367 661 1374 666 1378 676 1383 688 1384 756 1394
	 763 1395 763 1403 761 1416
	 1.000 1.000 1.000 1.000 1.000 1.000 1.000 1.000
	 1.000 1.000 1.000 1.000 1.000 1.000 1.000 1.000
	 1.000 1.000 1.000 1.000 1.000 1.000 1.000 1.000
	 1.000 1.000 1.000 1.000 1.000 1.000 1.000 1.000
	 1.000 1.000 1.000 1.000 1.000 1.000 1.000 1.000
	 1.000 1.000 1.000 1.000 1.000 1.000 1.000 1.000
	 1.000 1.000 1.000 1.000 1.000 1.000 1.000 1.000
	 1.000
-6
# Biker
# drawn by P. David
6 1995 1590 2430 2025
1 1 0 1 19 19 50 -1 20 0.000 1 0.3491 2175 1615 37 38 2175 1615 2210 1602
1 1 0 1 19 19 51 -1 20 0.000 1 0.3491 2350 1855 82 83 2350 1855 2427 1827
1 1 0 1 19 19 51 -1 20 0.000 1 0.3491 2089 1950 82 83 2089 1950 2167 1922
1 1 0 0 0 7 50 -1 20 0.000 1 0.3491 2350 1855 67 68 2350 1855 2413 1832
1 1 0 0 0 7 50 -1 20 0.000 1 0.3491 2089 1950 67 68 2089 1950 2153 1927
3 1 0 1 19 19 50 -1 20 0.000 0 0 0 57
	 2201 1877 2198 1941 2198 1949 2200 1953 2206 1957 2212 1961
	 2218 1960 2227 1956 2233 1947 2235 1937 2240 1838 2239 1828
	 2237 1822 2233 1816 2223 1812 2215 1811 2158 1801 2147 1800
	 2150 1790 2171 1723 2175 1714 2182 1720 2214 1751 2223 1757
	 2229 1758 2240 1756 2298 1734 2301 1731 2308 1727 2310 1721
	 2310 1712 2305 1705 2297 1700 2288 1699 2282 1701 2240 1717
	 2233 1719 2225 1713 2180 1669 2175 1664 2168 1661 2154 1659
	 2141 1663 2132 1671 2131 1678 2126 1689 2093 1800 2093 1809
	 2096 1817 2101 1824 2106 1828 2116 1833 2128 1834 2196 1844
	 2203 1845 2203 1853 2201 1866
	 1.000 1.000 1.000 1.000 1.000 1.000 1.000 1.000
	 1.000 1.000 1.000 1.000 1.000 1.000 1.000 1.000
	 1.000 1.000 1.000 1.000 1.000 1.000 1.000 1.000
	 1.000 1.000 1.000 1.000 1.000 1.000 1.000 1.000
	 1.000 1.000 1.000 1.000 1.000 1.000 1.000 1.000
	 1.000 1.000 1.000 1.000 1.000 1.000 1.000 1.000
	 1.000 1.000 1.000 1.000 1.000 1.000 1.000 1.000
	 1.000
-6
6 2610 1395 3330 1845
# Biker
# drawn by P. David
6 2889 1438 3330 1845
1 1 0 1 1 1 30 -1 20 0.000 1 0.0000 3167 1476 37 38 3167 1476 3204 1476
1 1 0 1 1 1 31 -1 20 0.000 1 0.0000 3248 1762 82 83 3248 1762 3331 1762
1 1 0 1 1 1 31 -1 20 0.000 1 0.0000 2971 1761 82 83 2971 1761 3055 1762
1 1 0 0 0 7 30 -1 20 0.000 1 0.0000 2971 1761 67 68 2971 1761 3039 1763
1 1 0 0 0 7 30 -1 20 0.000 1 0.0000 3248 1762 67 68 3248 1762 3317 1762
3 1 0 1 1 1 30 -1 20 0.000 0 0 0 57
	 3102 1732 3077 1791 3075 1798 3075 1803 3079 1809 3084 1814
	 3090 1815 3098 1815 3108 1808 3112 1799 3152 1708 3154 1698
	 3155 1692 3153 1685 3144 1679 3138 1674 3086 1646 3078 1641
	 3084 1632 3126 1577 3133 1569 3138 1577 3157 1618 3163 1626
	 3168 1629 3180 1631 3242 1631 3246 1629 3254 1628 3258 1622
	 3261 1614 3259 1605 3252 1598 3245 1594 3238 1594 3193 1595
	 3186 1595 3180 1585 3153 1529 3149 1522 3145 1518 3131 1511
	 3118 1511 3107 1514 3104 1521 3096 1529 3027 1622 3024 1631
	 3024 1640 3026 1648 3029 1654 3037 1661 3047 1666 3109 1699
	 3114 1703 3111 1709 3106 1721
	 1.000 1.000 1.000 1.000 1.000 1.000 1.000 1.000
	 1.000 1.000 1.000 1.000 1.000 1.000 1.000 1.000
	 1.000 1.000 1.000 1.000 1.000 1.000 1.000 1.000
	 1.000 1.000 1.000 1.000 1.000 1.000 1.000 1.000
	 1.000 1.000 1.000 1.000 1.000 1.000 1.000 1.000
	 1.000 1.000 1.000 1.000 1.000 1.000 1.000 1.000
	 1.000 1.000 1.000 1.000 1.000 1.000 1.000 1.000
	 1.000
-6
# Biker
# drawn by P. David
6 2745 1438 3186 1845
1 1 0 1 24 24 36 -1 20 0.000 1 0.0000 3104 1762 82 83 3104 1762 3187 1762
1 1 0 1 24 24 36 -1 20 0.000 1 0.0000 2827 1761 82 83 2827 1761 2911 1762
1 1 0 1 24 24 35 -1 20 0.000 1 0.0000 3023 1476 37 38 3023 1476 3060 1476
1 1 0 0 0 7 35 -1 20 0.000 1 0.0000 3104 1762 67 68 3104 1762 3173 1762
1 1 0 0 0 7 35 -1 20 0.000 1 0.0000 2827 1761 67 68 2827 1761 2895 1763
3 1 0 1 24 24 35 -1 20 0.000 0 0 0 57
	 2958 1732 2933 1791 2931 1798 2931 1803 2935 1809 2940 1814
	 2946 1815 2954 1815 2964 1808 2968 1799 3008 1708 3010 1698
	 3011 1692 3009 1685 3000 1679 2994 1674 2942 1646 2934 1641
	 2940 1632 2982 1577 2989 1569 2994 1577 3013 1618 3019 1626
	 3024 1629 3036 1631 3098 1631 3102 1629 3110 1628 3114 1622
	 3117 1614 3115 1605 3108 1598 3101 1594 3094 1594 3049 1595
	 3042 1595 3036 1585 3009 1529 3005 1522 3001 1518 2987 1511
	 2974 1511 2963 1514 2960 1521 2952 1529 2883 1622 2880 1631
	 2880 1640 2882 1648 2885 1654 2893 1661 2903 1666 2965 1699
	 2970 1703 2967 1709 2962 1721
	 1.000 1.000 1.000 1.000 1.000 1.000 1.000 1.000
	 1.000 1.000 1.000 1.000 1.000 1.000 1.000 1.000
	 1.000 1.000 1.000 1.000 1.000 1.000 1.000 1.000
	 1.000 1.000 1.000 1.000 1.000 1.000 1.000 1.000
	 1.000 1.000 1.000 1.000 1.000 1.000 1.000 1.000
	 1.000 1.000 1.000 1.000 1.000 1.000 1.000 1.000
	 1.000 1.000 1.000 1.000 1.000 1.000 1.000 1.000
	 1.000
-6
# Biker
# drawn by P. David
6 2610 1438 3051 1845
1 1 0 0 0 7 40 -1 20 0.000 1 0.0000 2692 1761 67 68 2692 1761 2760 1763
1 1 0 0 0 7 40 -1 20 0.000 1 0.0000 2969 1762 67 68 2969 1762 3038 1762
1 1 0 1 15 15 40 -1 20 0.000 1 0.0000 2888 1476 37 38 2888 1476 2925 1476
1 1 0 1 15 15 41 -1 20 0.000 1 0.0000 2692 1761 82 83 2692 1761 2776 1762
1 1 0 1 15 15 41 -1 20 0.000 1 0.0000 2969 1762 82 83 2969 1762 3052 1762
3 1 0 1 15 15 40 -1 20 0.000 0 0 0 57
	 2823 1732 2798 1791 2796 1798 2796 1803 2800 1809 2805 1814
	 2811 1815 2819 1815 2829 1808 2833 1799 2873 1708 2875 1698
	 2876 1692 2874 1685 2865 1679 2859 1674 2807 1646 2799 1641
	 2805 1632 2847 1577 2854 1569 2859 1577 2878 1618 2884 1626
	 2889 1629 2901 1631 2963 1631 2967 1629 2975 1628 2979 1622
	 2982 1614 2980 1605 2973 1598 2966 1594 2959 1594 2914 1595
	 2907 1595 2901 1585 2874 1529 2870 1522 2866 1518 2852 1511
	 2839 1511 2828 1514 2825 1521 2817 1529 2748 1622 2745 1631
	 2745 1640 2747 1648 2750 1654 2758 1661 2768 1666 2830 1699
	 2835 1703 2832 1709 2827 1721
	 1.000 1.000 1.000 1.000 1.000 1.000 1.000 1.000
	 1.000 1.000 1.000 1.000 1.000 1.000 1.000 1.000
	 1.000 1.000 1.000 1.000 1.000 1.000 1.000 1.000
	 1.000 1.000 1.000 1.000 1.000 1.000 1.000 1.000
	 1.000 1.000 1.000 1.000 1.000 1.000 1.000 1.000
	 1.000 1.000 1.000 1.000 1.000 1.000 1.000 1.000
	 1.000 1.000 1.000 1.000 1.000 1.000 1.000 1.000
	 1.000
-6
-6
2 1 0 1 0 7 50 -1 -1 0.000 0 0 -1 0 0 4
	 585 1620 2610 855 3420 855 5445 1620
2 1 0 1 0 7 50 -1 -1 0.000 0 0 -1 0 0 4
	 585 3600 2610 2835 3420 2835 5445 3600
2 1 0 1 0 7 50 -1 -1 0.000 0 0 -1 0 0 4
	 585 2610 2610 1845 3420 1845 5445 2610
4 0 0 50 -1 17 8 0.0000 4 135 1935 2160 1350 ... le groupe attend le dernier...\001
4 0 0 50 -1 17 8 0.0000 4 135 1545 1350 2385 ... et quand le dernier est arrivé, tout le monde redémarre !\001
4 0 19 50 -1 20 6 0.0000 4 105 1245 3375 2520 eeeeeh, ne repartez pas si vite !\001
4 0 19 50 -1 20 6 0.0000 4 90 585 540 1080 attendez-moi...\001
4 2 19 50 -1 20 6 0.0000 4 105 150 2115 1665 vous êtes vraiment sympas les copains !\001
4 0 0 50 -1 17 8 0.0000 4 135 825 360 405 pendant la montée, tout le monde ne va pas à la même vitesse... donc...\001
