#FIG 3.2  Produced by xfig version 3.2.8b
#encoding: UTF-8
Portrait
Center
Metric
A4
100.00
Single
-2
1200 2
2 1 0 1 -1 -1 0 0 -1 0.000 0 0 -1 1 0 2
	1 1 1.00 45.00 90.00
	 450 2520 450 2655
2 1 0 1 -1 -1 0 0 -1 0.000 0 0 -1 1 0 2
	1 1 1.00 45.00 90.00
	 1800 1890 1800 2070
2 1 0 1 -1 -1 0 0 -1 0.000 0 0 -1 1 0 2
	1 1 1.00 45.00 90.00
	 1800 1620 1800 1800
2 1 0 1 -1 -1 0 0 -1 0.000 0 0 -1 1 0 2
	1 1 1.00 45.00 60.00
	 1800 2205 1800 3150
2 1 0 1 -1 -1 0 0 -1 0.000 0 0 -1 1 0 2
	1 1 1.00 45.00 60.00
	 675 3015 1530 3240
2 1 0 1 -1 -1 0 0 -1 0.000 0 0 -1 1 0 2
	1 1 1.00 45.00 60.00
	 450 2835 450 2970
2 1 0 1 -1 -1 0 0 -1 0.000 0 0 -1 1 0 2
	1 1 1.00 45.00 60.00
	 1530 2160 675 2430
2 1 0 1 -1 -1 0 0 -1 0.000 0 0 -1 1 1 2
	1 1 1.00 45.00 60.00
	1 1 1.00 45.00 60.00
	 495 1845 1485 1845
2 1 0 1 -1 -1 0 0 -1 0.000 0 0 -1 1 0 2
	1 1 1.00 45.00 60.00
	 450 1800 450 2340
2 1 0 1 -1 -1 0 0 -1 0.000 0 0 -1 1 0 2
	1 1 1.00 45.00 60.00
	 450 1350 450 1530
2 1 0 1 -1 -1 0 0 -1 0.000 0 0 -1 1 0 2
	1 1 1.00 45.00 60.00
	 450 1080 450 1260
2 1 0 1 -1 -1 0 0 -1 0.000 0 0 -1 1 0 2
	1 1 1.00 45.00 60.00
	 450 765 450 945
2 1 0 1 -1 -1 0 0 -1 0.000 0 0 -1 1 0 2
	1 1 1.00 45.00 60.00
	 450 495 450 675
2 1 0 1 -1 -1 0 0 -1 0.000 0 0 -1 1 0 2
	1 1 1.00 45.00 60.00
	 450 180 450 360
4 1 -1 0 0 17 8 0.0000 4 105 540 450 1620 attend la\001
4 1 -1 0 0 17 8 0.0000 4 105 630 450 1770 connexion\001
4 1 -1 0 0 17 8 0.0000 4 105 630 450 2775 traitement\001
4 1 1 0 0 12 8 0.0000 4 90 450 450 450 socket\001
4 1 1 0 0 12 8 0.0000 4 90 300 450 750 bind\001
4 1 1 0 0 12 8 0.0000 4 90 450 450 1050 listen\001
4 1 1 0 0 12 8 0.0000 4 90 450 450 1350 accept\001
4 1 1 0 0 12 8 0.0000 4 90 450 1800 1575 socket\001
4 1 1 0 0 12 8 0.0000 4 75 525 1800 1875 connect\001
4 1 1 0 0 12 8 0.0000 4 90 375 1800 2175 write\001
4 1 1 0 0 12 8 0.0000 4 90 300 450 2475 read\001
4 1 1 0 0 12 8 0.0000 4 90 375 450 3075 write\001
4 1 1 0 0 12 8 0.0000 4 90 300 1800 3285 read\001
4 1 12 0 0 17 8 0.0000 4 105 630 1080 1800 connexion\001
4 1 12 0 0 17 8 0.0000 4 105 525 1125 2475 données\001
4 1 12 0 0 17 8 0.0000 4 105 525 1125 3015 données\001
4 1 -1 0 0 17 8 0.0000 4 105 480 450 135 Serveur\001
4 1 -1 0 0 17 8 0.0000 4 105 360 1800 135 Client\001
