#FIG 3.2  Produced by xfig version 3.2.5c
#encoding: UTF-8
Landscape
Center
Metric
A4      
100.00
Single
-2
1200 2
1 3 0 0 0 13 53 -1 36 0.000 1 0.0000 1800 1800 1350 1350 1800 1800 3150 1800
1 3 0 1 18 20 52 -1 36 0.000 1 0.0000 1800 1800 721 721 1800 1800 2520 1845
2 1 0 1 0 7 50 -1 -1 0.000 0 0 -1 1 0 2
	1 1 1.00 60.00 120.00
	 2565 1125 2115 1530
2 1 0 1 0 7 50 -1 -1 0.000 0 0 -1 1 0 2
	1 1 1.00 60.00 120.00
	 1038 1125 1488 1530
2 1 0 1 0 7 50 -1 -1 0.000 0 0 -1 1 0 2
	1 1 1.00 60.00 120.00
	 1800 2745 1800 2205
4 1 0 50 -1 16 10 0.0000 4 150 885 1800 2925 interruptions\001
4 1 0 50 -1 16 10 0.8727 4 150 750 990 1080 exceptions\001
4 1 0 50 -1 16 10 5.4105 4 150 660 2610 1080 primitives\001
4 1 0 50 -1 18 10 0.0000 4 120 450 1800 1845 noyau\001
4 1 0 50 -1 18 10 0.0000 4 120 765 1800 720 processus\001
