#FIG 3.2  Produced by xfig version 3.2.5c
#encoding: UTF-8
Landscape
Center
Metric
A4      
100.00
Single
-2
1200 2
2 1 0 2 0 7 50 -1 -1 0.000 0 0 -1 1 0 2
	1 1 1.00 60.00 120.00
	 900 1350 5850 1350
2 1 2 1 0 7 50 -1 -1 2.000 0 0 -1 0 0 2
	 1440 1350 1440 1620
2 1 2 1 0 7 50 -1 -1 2.000 0 0 -1 0 0 2
	 990 1350 990 1620
2 1 2 1 0 7 50 -1 -1 5.000 0 0 -1 0 0 2
	 4500 1350 4500 1980
2 1 2 1 0 7 50 -1 -1 5.000 0 0 -1 0 0 2
	 3510 1350 3510 2520
2 1 2 1 0 7 50 -1 -1 5.000 0 0 -1 0 0 2
	 3960 1350 3960 2520
2 1 0 1 0 7 50 -1 -1 3.000 0 0 -1 0 0 2
	 3240 2520 3240 2610
2 1 2 1 0 7 50 -1 -1 2.000 0 0 -1 0 0 2
	 3510 2565 3240 2565
2 1 2 1 0 7 50 -1 -1 2.000 0 0 -1 0 0 2
	 2790 2565 3240 2565
2 1 0 1 0 7 50 -1 -1 3.000 0 0 -1 0 0 2
	 2970 1980 2970 2070
2 1 2 1 0 7 50 -1 -1 2.000 0 0 -1 0 0 2
	 2520 2025 2970 2025
2 1 2 1 0 7 50 -1 -1 2.000 0 0 -1 0 0 2
	 4500 2025 2970 2025
2 1 2 1 0 7 50 -1 -1 5.000 0 0 -1 0 0 2
	 4950 1350 4950 1980
2 1 2 1 0 7 50 -1 -1 2.000 0 0 -1 0 0 2
	 3960 2565 4275 2565
2 1 2 1 0 7 50 -1 -1 2.000 0 0 -1 0 0 2
	 4950 2025 5265 2025
2 1 0 1 0 7 50 -1 -1 3.000 0 0 -1 0 0 2
	 1755 1620 1755 1710
2 1 2 1 0 7 50 -1 -1 2.000 0 0 -1 0 0 2
	 1440 1665 1755 1665
2 1 0 1 0 7 50 -1 -1 3.000 0 0 -1 0 0 2
	 5265 1980 5265 2070
2 1 0 1 0 7 50 -1 -1 3.000 0 0 -1 0 0 2
	 4275 2520 4275 2610
2 1 2 1 0 7 50 -1 -1 5.000 0 0 -1 0 0 2
	 2790 1350 2790 2520
2 1 2 1 0 7 50 -1 -1 5.000 0 0 -1 0 0 2
	 2340 1350 2340 2520
2 1 2 1 0 7 50 -1 -1 5.000 0 0 -1 0 0 2
	 2520 1350 2520 1980
2 1 2 1 0 7 50 -1 -1 5.000 0 0 -1 0 0 2
	 2070 1350 2070 1980
2 2 0 1 0 6 50 -1 30 0.000 0 0 7 0 0 5
	 2070 1980 2520 1980 2520 2070 2070 2070 2070 1980
2 2 0 1 0 6 50 -1 30 0.000 0 0 7 0 0 5
	 4500 1980 4950 1980 4950 2070 4500 2070 4500 1980
2 2 0 1 0 6 50 -1 30 0.000 0 0 7 0 0 5
	 4500 1260 4950 1260 4950 1350 4500 1350 4500 1260
2 2 0 1 0 4 50 -1 30 0.000 0 0 7 0 0 5
	 990 1260 1440 1260 1440 1350 990 1350 990 1260
2 2 0 1 0 4 50 -1 30 0.000 0 0 7 0 0 5
	 990 1620 1440 1620 1440 1710 990 1710 990 1620
2 1 0 2 0 7 50 -1 -1 0.000 0 0 -1 1 0 2
	1 1 1.00 60.00 120.00
	 900 990 5850 990
2 2 0 1 0 11 50 -1 30 0.000 0 0 7 0 0 5
	 2340 2520 2790 2520 2790 2610 2340 2610 2340 2520
2 2 0 1 0 11 50 -1 30 0.000 0 0 7 0 0 5
	 3510 2520 3960 2520 3960 2610 3510 2610 3510 2520
2 2 0 1 0 11 50 -1 30 0.000 0 0 7 0 0 5
	 3510 1260 3960 1260 3960 1350 3510 1350 3510 1260
2 2 0 1 0 14 50 -1 30 0.000 0 0 7 0 0 5
	 1530 900 1710 900 1710 990 1530 990 1530 900
2 2 0 1 0 14 50 -1 30 0.000 0 0 7 0 0 5
	 4050 900 4230 900 4230 990 4050 990 4050 900
2 2 0 1 0 14 50 -1 30 0.000 0 0 7 0 0 5
	 5040 900 5220 900 5220 990 5040 990 5040 900
2 1 0 1 0 11 50 -1 30 0.000 0 0 7 0 0 8
	 2520 1350 2520 1260 2340 1260 2340 1215 2565 1215 2565 1260
	 2790 1260 2790 1350
2 2 0 1 0 6 50 -1 30 0.000 0 0 7 0 0 5
	 2070 1260 2520 1260 2520 1350 2070 1350 2070 1260
3 0 2 1 0 7 50 -1 -1 2.000 0 1 0 3
	1 1 1.00 45.00 90.00
	 1710 1035 1800 1215 1755 1575
	 0.000 1.000 0.000
3 0 2 1 0 7 50 -1 -1 2.000 0 1 0 5
	1 1 1.00 45.00 90.00
	 4230 1035 4320 1305 4365 1710 4320 2070 4275 2475
	 0.000 1.000 1.000 1.000 0.000
3 0 2 1 0 7 50 -1 -1 2.000 0 1 0 3
	1 1 1.00 45.00 90.00
	 5220 1035 5355 1305 5265 1935
	 0.000 1.000 0.000
4 2 0 50 -1 17 7 0.0000 4 150 705 1755 1845 A reçoit l'ack\001
4 1 0 50 -1 17 7 0.0000 4 105 465 2430 1170 collision\001
4 2 0 50 -1 17 7 0.0000 4 150 1080 3240 2745 C ne reçoit pas l'ack\001
4 2 0 50 -1 17 7 0.0000 4 120 1395 4500 2205 B attend un délai aléatoire\001
4 2 0 50 -1 17 7 0.0000 4 150 1080 2970 2205 B ne reçoit pas l'ack\001
4 2 0 50 -1 17 7 0.0000 4 120 1395 3510 2880 C attend un délai aléatoire\001
4 2 0 50 -1 17 7 0.0000 4 150 705 4275 2745 C reçoit l'ack\001
4 2 0 50 -1 17 7 0.0000 4 150 705 5265 2205 B reçoit l'ack\001
4 0 0 50 -1 16 9 0.0000 4 120 120 810 2610 C\001
4 0 0 50 -1 16 9 0.0000 4 120 105 810 2160 B\001
4 0 0 50 -1 16 9 0.0000 4 120 105 810 1710 A\001
4 2 0 50 -1 17 8 0.0000 4 105 1650 5760 1125 Canal ordinateur -> terminaux\001
4 2 0 50 -1 17 8 0.0000 4 105 1650 5760 1485 Canal terminaux -> ordinateur\001
4 1 0 50 -1 17 7 0.0000 4 105 180 4140 855 ack\001
4 1 0 50 -1 17 7 0.0000 4 105 180 5130 855 ack\001
4 1 0 50 -1 17 7 0.0000 4 105 180 1620 855 ack\001
