#FIG 3.2  Produced by xfig version 3.2.8b
#encoding: UTF-8
Landscape
Center
Metric
Letter
100.00
Single
-2
1200 2
1 1 0 1 0 0 70 -1 20 0.000 1 0.0000 1395 2925 630 90 1395 2925 2025 2835
1 1 0 1 0 0 70 -1 20 0.000 1 0.0000 1395 495 630 90 1395 495 2025 405
1 1 0 1 0 11 54 -1 36 0.000 1 0.0000 1350 990 630 90 1350 990 1980 900
1 1 0 1 0 13 50 -1 36 0.000 1 0.0000 1350 450 630 90 1350 450 1980 540
1 1 0 1 0 11 58 -1 36 0.000 1 0.0000 1350 1620 630 92 1350 1620 1980 1528
1 1 0 1 0 11 62 -1 36 0.000 1 0.0000 1350 2255 630 90 1350 2255 1980 2165
1 1 0 1 0 11 64 -1 36 0.000 1 0.0000 1350 2880 630 90 1350 2880 1980 2790
1 1 0 1 0 20 56 -1 36 0.000 1 0.0000 1350 1125 630 90 1350 1125 1980 1035
1 1 0 1 0 20 60 -1 36 0.000 1 0.0000 1350 1755 630 90 1350 1755 1980 1665
1 1 0 1 0 13 52 -1 36 0.000 1 0.0000 1350 585 630 90 1350 585 1980 495
2 2 0 1 0 0 70 -1 20 0.000 0 0 -1 0 0 5
	 2025 495 765 495 765 2925 2025 2925 2025 495
2 1 0 1 0 13 49 -1 -1 0.000 0 0 -1 0 0 2
	 720 450 720 2880
2 2 0 0 7 11 53 -1 36 0.000 0 0 -1 0 0 5
	 720 540 1980 540 1980 990 720 990 720 540
2 1 1 1 0 7 50 -1 -1 4.000 0 0 -1 0 0 2
	 1980 450 4230 90
2 2 0 0 7 11 61 -1 36 0.000 0 0 -1 0 0 5
	 720 1710 1980 1710 1980 2250 720 2250 720 1710
2 2 0 0 7 11 63 -1 36 0.000 0 0 -1 0 0 5
	 720 2250 1980 2250 1980 2880 720 2880 720 2250
2 1 0 1 0 7 50 -1 -1 0.000 0 0 -1 0 0 2
	 2880 1260 2880 1530
2 1 0 1 0 7 50 -1 -1 0.000 0 0 -1 0 0 2
	 3240 1260 3240 1530
2 1 0 1 0 7 50 -1 -1 0.000 0 0 -1 0 0 2
	 3600 1260 3600 1530
2 1 0 1 0 7 50 -1 -1 0.000 0 0 -1 0 0 2
	 2520 1800 3960 1800
2 2 0 1 0 0 70 -1 20 0.000 0 0 -1 0 0 5
	 2565 1035 4005 1035 4005 1980 2565 1980 2565 1035
2 1 0 1 0 7 50 -1 -1 0.000 0 0 -1 0 0 2
	 2520 1260 3960 1260
2 2 0 1 0 20 51 -1 36 0.000 0 0 -1 0 0 5
	 2520 990 3960 990 3960 1935 2520 1935 2520 990
2 1 1 1 0 7 50 -1 -1 4.000 0 0 -1 0 0 2
	 1980 1755 2520 3015
2 1 0 1 0 7 50 -1 -1 0.000 0 0 -1 0 0 2
	 2880 2340 2880 2610
2 1 0 1 0 7 50 -1 -1 0.000 0 0 -1 0 0 2
	 3240 2340 3240 2610
2 1 0 1 0 7 50 -1 -1 0.000 0 0 -1 0 0 2
	 3600 2340 3600 2610
2 1 0 1 0 7 50 -1 -1 0.000 0 0 -1 0 0 2
	 2520 2880 3960 2880
2 2 0 1 0 0 70 -1 20 0.000 0 0 -1 0 0 5
	 2565 2115 4005 2115 4005 3060 2565 3060 2565 2115
2 1 0 1 0 7 50 -1 -1 0.000 0 0 -1 0 0 2
	 2520 2610 3960 2610
2 2 0 1 0 20 51 -1 36 0.000 0 0 -1 0 0 5
	 2520 2070 3960 2070 3960 3015 2520 3015 2520 2070
2 1 0 1 0 7 50 -1 -1 0.000 0 0 -1 0 0 7
	 675 585 630 630 630 720 585 765 630 810 630 900
	 675 945
2 1 0 1 -1 7 50 -1 -1 0.000 0 0 -1 0 0 7
	 675 1035 630 1080 630 1575 585 1620 630 1665 630 2160
	 675 2205
2 1 0 1 -1 7 50 -1 -1 0.000 0 0 -1 0 0 7
	 675 2295 630 2340 630 2520 585 2565 630 2610 630 2790
	 675 2835
2 1 0 1 0 7 50 -1 -1 0.000 0 0 -1 0 0 2
	 4590 360 4590 900
2 1 0 1 0 7 50 -1 -1 0.000 0 0 -1 0 0 2
	 4950 360 4950 900
2 1 0 1 0 7 50 -1 -1 0.000 0 0 -1 0 0 2
	 5310 360 5310 900
2 1 0 1 0 7 50 -1 -1 0.000 0 0 -1 0 0 2
	 4230 900 5670 900
2 2 0 1 0 0 70 -1 20 0.000 0 0 -1 0 0 5
	 4275 135 5715 135 5715 1080 4275 1080 4275 135
2 2 0 1 0 13 51 -1 36 0.000 0 0 -1 0 0 5
	 4230 90 5670 90 5670 1035 4230 1035 4230 90
2 1 0 1 0 7 50 -1 -1 0.000 0 0 -1 0 0 2
	 4230 495 5670 495
2 1 0 1 0 7 50 -1 -1 0.000 0 0 -1 0 0 2
	 4230 360 5670 360
2 1 0 1 0 7 50 -1 -1 0.000 0 0 7 0 0 2
	 4230 630 5670 630
2 1 0 1 0 7 50 -1 -1 0.000 0 0 7 0 0 2
	 4230 765 5670 765
2 1 0 1 0 7 50 -1 -1 0.000 0 0 7 0 0 2
	 2520 1395 3960 1395
2 1 0 1 0 7 50 -1 -1 0.000 0 0 7 0 0 2
	 2520 1530 3960 1530
2 1 0 1 0 7 50 -1 -1 0.000 0 0 7 0 0 2
	 2520 2340 3960 2340
2 1 0 1 0 7 50 -1 -1 0.000 0 0 7 0 0 2
	 2520 2475 3960 2475
2 1 1 1 0 7 50 -1 -1 4.000 0 0 -1 0 0 2
	 1980 990 2520 990
2 1 1 1 0 7 50 -1 -1 4.000 0 0 -1 0 0 2
	 1980 1125 2520 1935
2 1 0 1 0 7 49 -1 -1 0.000 0 0 -1 0 0 2
	 1980 450 1980 2925
2 2 0 0 7 11 57 -1 36 0.000 0 0 -1 0 0 5
	 720 1080 1980 1080 1980 1620 720 1620 720 1080
2 2 0 0 7 20 55 -1 36 0.000 0 0 -1 0 0 5
	 720 990 1980 990 1980 1125 720 1125 720 990
2 2 0 0 7 20 59 -1 36 0.000 0 0 -1 0 0 5
	 720 1620 1980 1620 1980 1755 720 1755 720 1620
2 1 1 1 0 7 50 -1 -1 4.000 0 0 -1 0 0 2
	 1980 1620 2520 2070
2 2 0 0 7 13 51 -1 36 0.000 0 0 -1 0 0 5
	 720 450 1980 450 1980 585 720 585 720 450
2 1 1 1 0 7 50 -1 -1 4.000 0 0 -1 0 0 2
	 1980 585 4230 1035
3 0 0 1 -1 7 50 -1 -1 0.000 0 1 0 5
	1 1 1.00 60.00 120.00
	 3960 1440 4320 1440 4590 1620 4545 1980 4005 2070
	 0.000 1.000 1.000 1.000 0.000
3 0 0 1 -1 7 50 -1 -1 0.000 0 1 0 3
	1 1 1.00 60.00 120.00
	 3960 2520 4320 2520 4590 2610
	 0.000 1.000 0.000
4 1 0 49 -1 16 6 0.0000 4 90 240 1350 630 MBR\001
4 1 0 49 -1 16 6 0.0000 4 90 225 1350 1170 EBR\001
4 1 0 49 -1 16 6 0.0000 4 90 225 1350 1800 EBR\001
4 1 0 49 -1 17 6 0.0000 4 120 1260 1350 855 système de fichiers NTFS\001
4 1 0 49 -1 17 6 0.0000 4 120 1260 1350 2070 système de fichiers NTFS\001
4 1 0 49 -1 17 6 0.0000 4 75 255 1350 1440 swap\001
4 1 0 49 -1 16 7 1.5708 4 120 495 540 765 partition 0\001
4 1 0 49 -1 16 7 1.5708 4 120 495 540 1620 partition 1\001
4 1 0 49 -1 16 7 1.5708 4 120 495 540 2565 partition 2\001
4 1 0 50 -1 16 6 0.0000 4 105 930 4950 270 code de démarrage\001
4 1 0 50 -1 16 6 0.0000 4 90 180 4410 450 ntfs\001
4 1 0 50 -1 16 6 0.0000 4 90 450 4410 585 extended\001
4 1 0 50 -1 16 6 0.0000 4 90 240 4410 720 linux\001
4 1 0 50 -1 16 6 0.0000 4 90 360 4410 855 unused\001
4 1 0 50 -1 16 6 0.0000 4 90 270 4770 450 début\001
4 1 0 50 -1 16 6 0.0000 4 90 270 4770 585 début\001
4 1 0 50 -1 16 6 0.0000 4 90 270 4770 720 début\001
4 1 0 50 -1 16 6 0.0000 4 90 270 4770 855 début\001
4 1 0 50 -1 16 6 0.0000 4 105 1260 4950 990 nombre magique (0xaa55)\001
4 1 0 50 -1 16 6 0.0000 4 90 120 5130 855 fin\001
4 1 0 50 -1 16 6 0.0000 4 90 120 5130 720 fin\001
4 1 0 50 -1 16 6 0.0000 4 90 120 5130 585 fin\001
4 1 0 50 -1 16 6 0.0000 4 90 120 5130 450 fin\001
4 1 0 50 -1 16 6 0.0000 4 90 240 5490 450 taille\001
4 1 0 50 -1 16 6 0.0000 4 90 240 5490 585 taille\001
4 1 0 50 -1 16 6 0.0000 4 90 240 5490 720 taille\001
4 1 0 50 -1 16 6 0.0000 4 90 240 5490 855 taille\001
4 1 0 50 -1 16 6 0.0000 4 90 60 3240 1170 0\001
4 1 0 50 -1 16 6 0.0000 4 75 255 2700 1350 swap\001
4 1 0 50 -1 16 6 0.0000 4 90 60 2700 1485 0\001
4 1 0 50 -1 16 6 0.0000 4 90 270 3060 1350 début\001
4 1 0 50 -1 16 6 0.0000 4 90 120 3420 1350 fin\001
4 1 0 50 -1 16 6 0.0000 4 90 60 3420 1485 0\001
4 1 0 50 -1 16 6 0.0000 4 90 270 3060 1485 début\001
4 1 0 50 -1 16 6 0.0000 4 90 60 3240 1665 0\001
4 1 0 50 -1 16 6 0.0000 4 105 1260 3240 1890 nombre magique (0xaa55)\001
4 1 0 50 -1 16 6 0.0000 4 90 240 3780 1350 taille\001
4 1 0 50 -1 16 6 0.0000 4 90 60 3780 1485 0\001
4 1 0 50 -1 16 6 0.0000 4 90 60 3240 2250 0\001
4 1 0 50 -1 16 6 0.0000 4 90 180 2700 2430 ntfs\001
4 1 0 50 -1 16 6 0.0000 4 90 60 2700 2565 0\001
4 1 0 50 -1 16 6 0.0000 4 90 270 3060 2430 début\001
4 1 0 50 -1 16 6 0.0000 4 90 60 3060 2565 0\001
4 1 0 50 -1 16 6 0.0000 4 90 120 3420 2430 fin\001
4 1 0 50 -1 16 6 0.0000 4 90 60 3420 2565 0\001
4 1 0 50 -1 16 6 0.0000 4 90 240 3780 2430 taille\001
4 1 0 50 -1 16 6 0.0000 4 90 60 3780 2565 0\001
4 1 0 50 -1 16 6 0.0000 4 90 60 3240 2745 0\001
4 1 0 50 -1 16 6 0.0000 4 105 1260 3240 2970 nombre magique (0xaa55)\001
4 0 -1 50 -1 17 7 0.0000 4 90 630 4635 2655 dernier EBR\001
4 0 -1 50 -1 17 7 0.0000 4 120 660 4590 1620 chaînage des\001
4 0 -1 50 -1 17 7 0.0000 4 120 1110 4590 1770 partitions secondaires\001
4 1 0 49 -1 17 6 0.0000 4 120 1230 1350 2655 système de fichiers autre\001
