#FIG 3.2  Produced by xfig version 3.2.5c
#encoding: UTF-8
Landscape
Center
Metric
A4      
100.00
Single
-2
1200 2
6 3735 3105 4320 3420
1 2 0 1 0 11 51 -1 36 0.000 1 0.0000 4005 3240 270 135 3735 3240 4275 3240
1 2 0 1 0 0 52 -1 20 0.000 1 0.0000 4050 3285 270 135 3780 3285 4320 3285
4 1 0 50 -1 17 6 0.0000 4 75 210 4005 3330 nl=1\001
4 1 0 50 -1 17 6 0.0000 4 75 210 4005 3195 i=13\001
-6
6 5940 2475 6930 2790
2 3 0 1 0 19 21 -1 36 0.000 0 0 -1 0 0 6
	 6435 2475 5985 2565 5985 2745 6885 2745 6885 2565 6435 2475
2 3 0 1 0 0 22 -1 20 0.000 0 0 -1 0 0 6
	 6480 2520 6030 2610 6030 2790 6930 2790 6930 2610 6480 2520
4 1 0 20 -1 16 6 0.0000 4 75 990 6435 2700 /usr/include/unistd.h\001
4 1 0 20 -1 17 6 0.0000 4 75 480 6435 2610 i=15  nl=1\001
-6
1 2 0 1 0 11 51 -1 36 0.000 1 0.0000 4995 3240 270 135 4725 3240 5265 3240
1 2 0 1 0 0 52 -1 20 0.000 1 0.0000 5040 3285 270 135 4770 3285 5310 3285
2 4 0 1 0 0 52 -1 20 0.000 0 0 7 0 0 5
	 4815 1530 4365 1530 4365 1260 4815 1260 4815 1530
2 4 0 1 0 13 51 -1 36 0.000 0 0 7 0 0 5
	 4770 1485 4770 1215 4320 1215 4320 1485 4770 1485
2 4 0 1 0 13 51 -1 36 0.000 0 0 7 0 0 5
	 3870 2115 3870 1845 3420 1845 3420 2115 3870 2115
2 4 0 1 0 0 52 -1 20 0.000 0 0 7 0 0 5
	 3915 2160 3465 2160 3465 1890 3915 1890 3915 2160
2 4 0 1 0 13 51 -1 36 0.000 0 0 7 0 0 5
	 4770 2115 4770 1845 4320 1845 4320 2115 4770 2115
2 4 0 1 0 0 52 -1 20 0.000 0 0 7 0 0 5
	 4815 2160 4365 2160 4365 1890 4815 1890 4815 2160
2 4 0 1 0 13 51 -1 36 0.000 0 0 7 0 0 5
	 5670 2115 5670 1845 5220 1845 5220 2115 5670 2115
2 4 0 1 0 0 52 -1 20 0.000 0 0 7 0 0 5
	 5715 2160 5265 2160 5265 1890 5715 1890 5715 2160
2 4 0 1 0 13 51 -1 36 0.000 0 0 7 0 0 5
	 3825 2745 3825 2475 3375 2475 3375 2745 3825 2745
2 4 0 1 0 0 52 -1 20 0.000 0 0 7 0 0 5
	 3870 2790 3420 2790 3420 2520 3870 2520 3870 2790
2 4 0 1 0 13 51 -1 36 0.000 0 0 7 0 0 5
	 4725 2745 4725 2475 4275 2475 4275 2745 4725 2745
2 4 0 1 0 0 52 -1 20 0.000 0 0 7 0 0 5
	 4770 2790 4320 2790 4320 2520 4770 2520 4770 2790
2 4 0 1 0 13 51 -1 36 0.000 0 0 7 0 0 5
	 5625 2745 5625 2475 5175 2475 5175 2745 5625 2745
2 4 0 1 0 0 52 -1 20 0.000 0 0 7 0 0 5
	 5670 2790 5220 2790 5220 2520 5670 2520 5670 2790
2 1 0 1 0 7 60 -1 -1 0.000 0 0 -1 0 0 7
	 3375 3465 3420 3510 4455 3510 4500 3555 4545 3510 5670 3510
	 5715 3465
2 1 0 1 18 7 60 -1 -1 0.000 0 0 -1 0 0 2
	 4860 3375 5130 3240
2 1 0 1 18 7 60 -1 -1 0.000 0 0 -1 0 0 2
	 4860 3240 5130 3375
2 1 0 1 0 7 60 -1 -1 0.000 0 0 -1 0 0 2
	 2250 1800 1800 2025
2 1 0 1 0 7 60 -1 -1 0.000 0 0 -1 0 0 2
	 2250 1800 2250 2025
2 1 0 1 0 7 60 -1 -1 0.000 0 0 -1 0 0 2
	 2250 1800 2700 2025
2 1 0 1 0 7 60 -1 -1 0.000 0 0 -1 0 0 2
	 2250 2250 2250 2475
2 1 0 1 0 7 60 -1 -1 0.000 0 0 -1 0 0 2
	 2250 2250 1890 2475
2 1 0 1 0 7 60 -1 -1 0.000 0 0 -1 0 0 2
	 2250 2250 2610 2475
2 1 0 1 0 7 60 -1 -1 0.000 0 0 -1 0 0 2
	 2250 2700 1980 2925
2 1 0 1 0 7 60 -1 -1 0.000 0 0 -1 0 0 2
	 2250 2700 2520 2925
2 1 0 1 0 7 60 -1 -1 0.000 0 0 -1 0 0 7
	 1530 3195 1575 3240 2205 3240 2250 3285 2295 3240 2925 3240
	 2970 3195
3 0 0 1 0 7 50 -1 -1 0.000 0 1 0 8
	1 1 1.00 45.00 90.00
	 4815 1395 4860 1440 4950 1440 4995 1395 4995 1350 4950 1305
	 4905 1305 4815 1350
	 0.000 1.000 1.000 1.000 1.000 1.000 1.000 0.000
3 0 0 1 0 7 50 -1 -1 0.000 0 1 0 8
	1 1 1.00 45.00 90.00
	 4320 1395 4275 1440 4185 1440 4140 1395 4140 1350 4185 1305
	 4230 1305 4320 1350
	 0.000 1.000 1.000 1.000 1.000 1.000 1.000 0.000
3 0 0 1 0 7 50 -1 -1 0.000 0 1 0 8
	1 1 1.00 45.00 90.00
	 3915 2025 3960 2070 4050 2070 4095 2025 4095 1980 4050 1935
	 4005 1935 3915 1980
	 0.000 1.000 1.000 1.000 1.000 1.000 1.000 0.000
3 0 0 1 0 7 50 -1 -1 0.000 0 1 0 8
	1 1 1.00 45.00 90.00
	 5715 2025 5760 2070 5850 2070 5895 2025 5895 1980 5850 1935
	 5805 1935 5715 1980
	 0.000 1.000 1.000 1.000 1.000 1.000 1.000 0.000
3 0 0 1 0 7 50 -1 -1 0.000 0 1 0 3
	1 1 1.00 45.00 90.00
	 4545 1485 4500 1665 4545 1845
	 0.000 1.000 0.000
3 0 0 1 0 7 50 -1 -1 0.000 0 1 0 3
	1 1 1.00 45.00 90.00
	 4770 1485 5175 1575 5445 1845
	 0.000 1.000 0.000
3 0 0 1 0 7 50 -1 -1 0.000 0 1 0 3
	1 1 1.00 45.00 90.00
	 4590 1845 4680 1665 4635 1530
	 0.000 1.000 0.000
3 0 0 1 0 7 50 -1 -1 0.000 0 1 0 3
	1 1 1.00 45.00 90.00
	 5310 1845 4950 1710 4680 1530
	 0.000 1.000 0.000
3 0 0 1 0 7 50 -1 -1 0.000 0 1 0 3
	1 1 1.00 45.00 90.00
	 4410 1485 3915 1575 3645 1845
	 0.000 1.000 0.000
3 0 0 1 0 7 50 -1 -1 0.000 0 1 0 3
	1 1 1.00 45.00 90.00
	 3780 1845 4140 1710 4410 1530
	 0.000 1.000 0.000
3 0 0 1 0 7 50 -1 -1 0.000 0 1 0 8
	1 1 1.00 45.00 90.00
	 3870 2655 3915 2700 4005 2700 4050 2655 4050 2610 4005 2565
	 3960 2565 3870 2610
	 0.000 1.000 1.000 1.000 1.000 1.000 1.000 0.000
3 0 0 1 0 7 50 -1 -1 0.000 0 1 0 8
	1 1 1.00 45.00 90.00
	 4770 2655 4815 2700 4905 2700 4950 2655 4950 2610 4905 2565
	 4860 2565 4770 2610
	 0.000 1.000 1.000 1.000 1.000 1.000 1.000 0.000
3 0 0 1 0 7 50 -1 -1 0.000 0 1 0 8
	1 1 1.00 45.00 90.00
	 5670 2655 5715 2700 5805 2700 5850 2655 5850 2610 5805 2565
	 5760 2565 5670 2610
	 0.000 1.000 1.000 1.000 1.000 1.000 1.000 0.000
3 0 0 1 0 7 50 -1 -1 0.000 0 1 0 3
	1 1 1.00 45.00 90.00
	 4365 2745 4095 2925 4005 3105
	 0.000 1.000 0.000
3 0 0 1 0 7 50 -1 -1 0.000 0 1 0 3
	1 1 1.00 45.00 90.00
	 4680 2745 4905 2925 4995 3105
	 0.000 1.000 0.000
3 0 0 1 19 7 30 -1 -1 0.000 0 1 0 3
	1 1 1.00 45.00 90.00
	 5310 2115 4995 2430 5040 3105
	 0.000 1.000 0.000
3 0 0 1 0 7 20 -1 -1 0.000 0 1 0 3
	1 1 1.00 45.00 90.00
	 5670 2115 6075 2205 6435 2475
	 0.000 1.000 0.000
3 0 0 1 0 7 50 -1 -1 0.000 0 1 0 8
	1 1 1.00 45.00 90.00
	 4815 2025 4860 2070 4950 2070 4995 2025 4995 1980 4950 1935
	 4905 1935 4815 1980
	 0.000 1.000 1.000 1.000 1.000 1.000 1.000 0.000
3 0 0 1 0 7 50 -1 -1 0.000 0 1 0 3
	1 1 1.00 45.00 90.00
	 4500 2115 4455 2295 4500 2475
	 0.000 1.000 0.000
3 0 0 1 0 7 50 -1 -1 0.000 0 1 0 3
	1 1 1.00 45.00 90.00
	 4770 2115 5130 2205 5400 2475
	 0.000 1.000 0.000
3 0 0 1 0 7 50 -1 -1 0.000 0 1 0 3
	1 1 1.00 45.00 90.00
	 3735 2475 4095 2340 4365 2160
	 0.000 1.000 0.000
3 0 0 1 0 7 50 -1 -1 0.000 0 1 0 3
	1 1 1.00 45.00 90.00
	 4545 2475 4635 2295 4590 2160
	 0.000 1.000 0.000
3 0 0 1 0 7 50 -1 -1 0.000 0 1 0 3
	1 1 1.00 45.00 90.00
	 5265 2475 4905 2340 4635 2160
	 0.000 1.000 0.000
3 0 0 1 0 7 50 -1 -1 0.000 0 1 0 3
	1 1 1.00 45.00 90.00
	 4410 2115 3870 2205 3600 2475
	 0.000 1.000 0.000
4 1 0 48 -1 16 6 0.0000 4 15 30 4860 1395 .\001
4 1 0 48 -1 16 6 0.0000 4 15 60 4275 1395 ..\001
4 1 0 50 -1 17 6 0.0000 4 75 150 4545 1305 i=2\001
4 1 0 50 -1 17 6 0.0000 4 75 210 4545 1440 nl=5\001
4 1 0 48 -1 16 6 0.0000 4 15 30 3960 2025 .\001
4 1 0 48 -1 16 6 0.0000 4 15 30 5760 2025 .\001
4 1 0 50 -1 17 6 0.0000 4 75 150 3645 1935 i=3\001
4 1 0 50 -1 17 6 0.0000 4 75 210 3645 2070 nl=2\001
4 1 0 50 -1 17 6 0.0000 4 75 150 4545 1935 i=8\001
4 1 0 50 -1 17 6 0.0000 4 75 210 4545 2070 nl=5\001
4 1 0 50 -1 17 6 0.0000 4 75 210 5445 1935 i=12\001
4 1 0 50 -1 17 6 0.0000 4 75 210 5445 2070 nl=2\001
4 2 0 50 -1 16 6 0.0000 4 15 60 4635 1710 ..\001
4 2 0 48 -1 16 6 0.0000 4 60 150 4500 1665 usr\001
4 2 0 48 -1 16 6 0.0000 4 75 150 4185 1530 etc\001
4 0 0 48 -1 16 6 0.0000 4 15 60 3870 1845 ..\001
4 2 0 48 -1 16 6 0.0000 4 15 60 5220 1845 ..\001
4 1 0 48 -1 16 6 0.0000 4 15 30 3915 2655 .\001
4 1 0 48 -1 16 6 0.0000 4 15 30 4815 2655 .\001
4 1 0 48 -1 16 6 0.0000 4 15 30 5715 2655 .\001
4 1 0 50 -1 17 6 0.0000 4 75 210 5400 2565 i=11\001
4 1 0 50 -1 17 6 0.0000 4 75 210 5400 2700 nl=2\001
4 1 0 50 -1 17 6 0.0000 4 75 210 4500 2565 i=10\001
4 1 0 50 -1 17 6 0.0000 4 75 210 4500 2700 nl=2\001
4 1 0 50 -1 17 6 0.0000 4 75 150 3600 2565 i=9\001
4 1 0 50 -1 17 6 0.0000 4 75 210 3600 2700 nl=2\001
4 2 0 48 -1 16 6 0.0000 4 75 390 4770 2880 unistd.h\001
4 2 0 48 -1 16 6 0.0000 4 75 330 4185 2880 stdio.h\001
4 2 0 48 -1 16 6 0.0000 4 15 60 5130 2475 ..\001
4 0 0 48 -1 16 6 0.0000 4 15 60 3870 2475 ..\001
4 1 0 60 -1 17 8 0.0000 4 105 825 4500 3690 vision exacte\001
4 1 0 50 -1 17 6 0.0000 4 75 210 4995 3330 nl=1\001
4 1 0 50 -1 17 6 0.0000 4 75 210 4995 3195 i=14\001
4 0 18 30 -1 16 6 0.0000 4 75 180 5265 2250 toto\001
4 0 19 30 -1 17 6 0.0000 4 75 210 5355 3285 nl=2\001
4 0 0 20 -1 16 6 0.0000 4 75 180 5940 2160 toto\001
4 1 0 60 -1 16 8 0.0000 4 105 45 2250 1755 /\001
4 1 0 60 -1 16 8 0.0000 4 75 195 2250 2205 usr\001
4 1 0 60 -1 16 8 0.0000 4 105 345 2790 2205 home\001
4 1 0 60 -1 16 8 0.0000 4 105 435 2250 2655 include\001
4 1 0 60 -1 16 8 0.0000 4 105 180 1800 2655 bin\001
4 1 0 60 -1 16 8 0.0000 4 105 135 2700 2655 lib\001
4 1 0 60 -1 16 8 0.0000 4 105 420 1890 3105 stdio.h\001
4 1 0 60 -1 16 8 0.0000 4 105 495 2610 3105 unistd.h\001
4 1 0 60 -1 16 8 0.0000 4 90 195 1710 2205 etc\001
4 1 0 60 -1 17 8 0.0000 4 135 840 2250 3420 vision logique\001
4 1 0 48 -1 16 6 0.0000 4 15 30 4860 2025 .\001
4 2 0 48 -1 16 6 0.0000 4 75 150 4275 2115 bin\001
4 2 0 48 -1 16 6 0.0000 4 75 360 4455 2385 include\001
4 0 0 48 -1 16 6 0.0000 4 15 60 4590 2430 ..\001
4 0 0 48 -1 16 6 0.0000 4 75 120 5040 2160 lib\001
4 0 0 48 -1 16 6 0.0000 4 75 270 4995 1530 home\001
