#FIG 3.2  Produced by xfig version 3.2.5c
#encoding: UTF-8
Landscape
Center
Metric
A4      
100.00
Single
-2
1200 2
1 1 0 1 0 11 51 -1 36 0.000 1 0.0000 4410 2430 540 90 4410 2430 4950 2430
1 1 0 1 0 11 54 -1 36 0.000 1 0.0000 4410 2970 540 90 4410 2970 4950 2970
1 1 0 1 0 0 55 -1 20 0.000 1 0.0000 4455 2475 540 90 4455 2475 4995 2475
1 1 0 1 0 0 55 -1 20 0.000 1 0.0000 4455 3015 540 90 4455 3015 4995 3015
2 4 0 0 0 13 51 -1 36 0.000 0 0 7 0 0 5
	 2430 1980 810 1980 810 1080 2430 1080 2430 1980
2 4 0 0 0 11 51 -1 36 0.000 0 0 7 0 0 5
	 2430 3420 810 3420 810 2205 2430 2205 2430 3420
2 4 0 0 0 13 51 -1 36 0.000 0 0 7 0 0 5
	 5400 1890 3780 1890 3780 990 5400 990 5400 1890
2 4 0 0 0 0 52 -1 20 0.000 0 0 7 0 0 5
	 5445 1935 3825 1935 3825 1035 5445 1035 5445 1935
2 1 0 1 0 7 52 -1 -1 0.000 0 0 -1 0 0 2
	 3870 2430 3870 2970
2 1 0 1 0 7 52 -1 -1 0.000 0 0 -1 0 0 2
	 4950 2430 4950 2970
2 2 0 1 0 0 55 -1 20 0.000 0 0 -1 0 0 5
	 4995 2475 3915 2475 3915 3015 4995 3015 4995 2475
2 2 0 0 0 11 53 -1 36 0.000 0 0 -1 0 0 5
	 3870 2430 4950 2430 4950 2970 3870 2970 3870 2430
2 4 0 0 0 0 55 -1 20 0.000 0 0 7 0 0 5
	 2655 3510 810 3510 810 945 2655 945 2655 3510
2 4 0 0 0 31 52 -1 36 0.000 0 0 7 0 0 5
	 2610 3465 765 3465 765 900 2610 900 2610 3465
3 0 0 1 0 7 50 -1 -1 0.000 0 1 0 3
	1 1 1.00 60.00 120.00
	 3780 1395 3150 1260 2430 1485
	 0.000 1.000 0.000
3 0 0 1 0 7 50 -1 -1 0.000 0 1 0 3
	1 1 1.00 60.00 120.00
	 3870 2700 3285 2520 2430 2790
	 0.000 1.000 0.000
4 0 1 50 -1 16 6 0.0000 4 105 300 1170 1260 push 0\001
4 0 1 50 -1 16 6 0.0000 4 105 405 1170 1530 call open\001
4 0 1 50 -1 16 6 0.0000 4 75 180 1170 1665 pop\001
4 0 1 50 -1 16 6 0.0000 4 75 180 1170 1800 pop\001
4 0 1 50 -1 16 6 0.0000 4 120 1125 1170 1935 move <adresse de fd>,r0\001
4 0 1 50 -1 16 6 0.0000 4 135 1335 1170 2430 move r0,5  (numéro de open)\001
4 0 1 50 -1 16 6 0.0000 4 105 195 1170 2565 trap\001
4 0 1 50 -1 16 6 0.0000 4 90 150 1170 2835 rtn\001
4 0 1 50 -1 16 6 0.0000 4 60 300 900 2970 erreur:\001
4 0 1 50 -1 16 6 0.0000 4 105 660 1170 3105 move errno,r0\001
4 0 1 50 -1 16 6 0.0000 4 105 510 1170 3240 move r0,-1\001
4 0 1 50 -1 16 6 0.0000 4 90 150 1170 3375 rtn\001
4 0 1 50 -1 16 6 0.0000 4 75 255 900 2295 open:\001
4 0 1 50 -1 16 6 0.0000 4 15 90 1170 2070 ...\001
4 0 1 50 -1 16 6 0.0000 4 105 1155 1170 1395 push <adresse de "toto">\001
4 0 1 50 -1 16 6 0.0000 4 90 450 1170 2700 bcs erreur\001
4 1 0 50 -1 16 8 0.0000 4 120 645 3195 1260 compilation\001
4 0 1 50 -1 16 6 0.0000 4 120 1545 3870 1440 fd = open ("toto", O_RDONLY) ;\001
4 1 0 50 -1 16 8 0.0000 4 120 390 3285 2385 édition\001
4 1 0 50 -1 16 8 0.0000 4 105 420 3285 2520 de liens\001
4 1 0 50 -1 16 8 0.0000 4 105 270 1665 855 a.out\001
4 1 0 50 -1 16 8 0.0000 4 105 195 4410 2295 libc\001
4 1 0 50 -1 16 8 0.0000 4 75 450 4590 945 source.c\001
